%TF.GenerationSoftware,Altium Limited,Altium Designer,18.0.9 (584)*%
G04 Layer_Color=255*
%FSLAX45Y45*%
%MOMM*%
%TF.FileFunction,Pads,Top*%
%TF.Part,Single*%
G01*
G75*
%TA.AperFunction,SMDPad,CuDef*%
%ADD11R,0.85000X0.85000*%
%ADD12R,1.50000X0.60000*%
%ADD13R,1.90000X4.20000*%
G04:AMPARAMS|DCode=14|XSize=1mm|YSize=1.56mm|CornerRadius=0.25mm|HoleSize=0mm|Usage=FLASHONLY|Rotation=180.000|XOffset=0mm|YOffset=0mm|HoleType=Round|Shape=RoundedRectangle|*
%AMROUNDEDRECTD14*
21,1,1.00000,1.06000,0,0,180.0*
21,1,0.50000,1.56000,0,0,180.0*
1,1,0.50000,-0.25000,0.53000*
1,1,0.50000,0.25000,0.53000*
1,1,0.50000,0.25000,-0.53000*
1,1,0.50000,-0.25000,-0.53000*
%
%ADD14ROUNDEDRECTD14*%
%ADD15R,1.00000X1.56000*%
%ADD16R,3.80000X2.80000*%
%ADD17R,2.74300X2.15900*%
%ADD18R,0.90000X3.80000*%
%TA.AperFunction,BGAPad,CuDef*%
%ADD19C,1.00000*%
%ADD20C,0.32000*%
%TA.AperFunction,SMDPad,CuDef*%
%ADD21R,1.50000X0.80000*%
%ADD22R,0.80000X1.50000*%
%ADD23R,0.50000X0.70000*%
%ADD24R,0.55000X0.55000*%
%ADD25R,1.00000X2.00000*%
%ADD26R,1.50000X1.00000*%
%ADD27R,0.85000X0.85000*%
%ADD28R,1.05000X1.15000*%
%ADD29R,4.40000X1.90000*%
%ADD30R,2.50000X5.80000*%
%ADD31R,1.90000X4.40000*%
%ADD32R,0.55000X0.55000*%
%ADD33R,2.80000X3.80000*%
%ADD34R,0.80000X0.80000*%
%ADD35R,0.80000X0.80000*%
%ADD36C,1.00000*%
%ADD37R,1.80000X1.40000*%
%ADD38R,1.40000X1.90000*%
%ADD39R,3.60000X2.00000*%
%ADD40R,0.50000X0.50000*%
%ADD41R,1.30000X7.20000*%
G04:AMPARAMS|DCode=42|XSize=2.95mm|YSize=1.05mm|CornerRadius=0.13125mm|HoleSize=0mm|Usage=FLASHONLY|Rotation=270.000|XOffset=0mm|YOffset=0mm|HoleType=Round|Shape=RoundedRectangle|*
%AMROUNDEDRECTD42*
21,1,2.95000,0.78750,0,0,270.0*
21,1,2.68750,1.05000,0,0,270.0*
1,1,0.26250,-0.39375,-1.34375*
1,1,0.26250,-0.39375,1.34375*
1,1,0.26250,0.39375,1.34375*
1,1,0.26250,0.39375,-1.34375*
%
%ADD42ROUNDEDRECTD42*%
G04:AMPARAMS|DCode=43|XSize=10.5mm|YSize=10.5mm|CornerRadius=1.3125mm|HoleSize=0mm|Usage=FLASHONLY|Rotation=270.000|XOffset=0mm|YOffset=0mm|HoleType=Round|Shape=RoundedRectangle|*
%AMROUNDEDRECTD43*
21,1,10.50000,7.87500,0,0,270.0*
21,1,7.87500,10.50000,0,0,270.0*
1,1,2.62500,-3.93750,-3.93750*
1,1,2.62500,-3.93750,3.93750*
1,1,2.62500,3.93750,3.93750*
1,1,2.62500,3.93750,-3.93750*
%
%ADD43ROUNDEDRECTD43*%
%ADD44R,0.90000X1.30000*%
%ADD45R,1.00000X0.60000*%
%ADD46R,6.00000X4.00000*%
%ADD47R,2.03200X1.52400*%
%ADD48R,1.40000X2.20000*%
%ADD49R,1.40000X0.90000*%
%ADD50R,1.52000X2.18000*%
%ADD51R,1.24460X3.17500*%
%ADD52R,2.18000X1.52000*%
%TA.AperFunction,ComponentPad*%
G04:AMPARAMS|DCode=67|XSize=2.8mm|YSize=7mm|CornerRadius=0.7mm|HoleSize=0mm|Usage=FLASHONLY|Rotation=180.000|XOffset=0mm|YOffset=0mm|HoleType=Round|Shape=RoundedRectangle|*
%AMROUNDEDRECTD67*
21,1,2.80000,5.60000,0,0,180.0*
21,1,1.40000,7.00000,0,0,180.0*
1,1,1.40000,-0.70000,2.80000*
1,1,1.40000,0.70000,2.80000*
1,1,1.40000,0.70000,-2.80000*
1,1,1.40000,-0.70000,-2.80000*
%
%ADD67ROUNDEDRECTD67*%
%ADD68C,2.10000*%
%ADD69R,2.10000X2.10000*%
%ADD70C,1.60000*%
%ADD71C,3.00000*%
%ADD72R,3.00000X3.00000*%
G04:AMPARAMS|DCode=73|XSize=8mm|YSize=4mm|CornerRadius=1mm|HoleSize=0mm|Usage=FLASHONLY|Rotation=90.000|XOffset=0mm|YOffset=0mm|HoleType=Round|Shape=RoundedRectangle|*
%AMROUNDEDRECTD73*
21,1,8.00000,2.00000,0,0,90.0*
21,1,6.00000,4.00000,0,0,90.0*
1,1,2.00000,1.00000,3.00000*
1,1,2.00000,1.00000,-3.00000*
1,1,2.00000,-1.00000,-3.00000*
1,1,2.00000,-1.00000,3.00000*
%
%ADD73ROUNDEDRECTD73*%
G04:AMPARAMS|DCode=74|XSize=1mm|YSize=2mm|CornerRadius=0.25mm|HoleSize=0mm|Usage=FLASHONLY|Rotation=0.000|XOffset=0mm|YOffset=0mm|HoleType=Round|Shape=RoundedRectangle|*
%AMROUNDEDRECTD74*
21,1,1.00000,1.50000,0,0,0.0*
21,1,0.50000,2.00000,0,0,0.0*
1,1,0.50000,0.25000,-0.75000*
1,1,0.50000,-0.25000,-0.75000*
1,1,0.50000,-0.25000,0.75000*
1,1,0.50000,0.25000,0.75000*
%
%ADD74ROUNDEDRECTD74*%
%ADD75R,1.00000X2.00000*%
%ADD76C,1.40000*%
%ADD77O,1.50000X0.85000*%
%ADD78C,0.94000*%
%ADD79C,1.52000*%
%ADD80R,1.52000X1.52000*%
%ADD81C,2.20000*%
%ADD82C,5.00000*%
%ADD83R,1.40000X1.40000*%
%ADD84C,2.80000*%
%ADD85R,1.60000X1.60000*%
%ADD86R,1.80000X1.80000*%
%ADD87C,1.80000*%
%ADD88C,2.40000*%
%ADD89C,3.25000*%
%ADD90C,2.00000*%
%ADD91R,2.00000X2.00000*%
%ADD92C,1.00000*%
D11*
X6560000Y4060000D02*
D03*
Y3905000D02*
D03*
X5960000Y4060000D02*
D03*
Y3905000D02*
D03*
X9532501Y15165001D02*
D03*
Y15010001D02*
D03*
X4610000Y11360000D02*
D03*
Y11515000D02*
D03*
X4360000Y11410000D02*
D03*
Y11565000D02*
D03*
X3960000D02*
D03*
Y11410000D02*
D03*
X4160000D02*
D03*
Y11565000D02*
D03*
D12*
X6529999Y4219500D02*
D03*
X5989999Y4346500D02*
D03*
Y4219500D02*
D03*
X6529999Y4473500D02*
D03*
Y4346500D02*
D03*
Y4600500D02*
D03*
X5989999D02*
D03*
Y4473500D02*
D03*
D13*
X12780000Y14060001D02*
D03*
Y14760001D02*
D03*
X5860000Y14630000D02*
D03*
Y15330000D02*
D03*
X8585000D02*
D03*
Y14630000D02*
D03*
X10135000Y15330000D02*
D03*
Y14630000D02*
D03*
D14*
X4156000Y10520000D02*
D03*
X4410000D02*
D03*
X4664000D02*
D03*
X4918000D02*
D03*
Y11101000D02*
D03*
X4664000D02*
D03*
X4410000D02*
D03*
X4156000D02*
D03*
X5172000Y10520000D02*
D03*
D15*
Y11101000D02*
D03*
D16*
X5210000Y5770500D02*
D03*
Y6449500D02*
D03*
X11760000Y13870500D02*
D03*
Y14549500D02*
D03*
D17*
X5609999Y4230000D02*
D03*
Y4640000D02*
D03*
D18*
X3220000Y7020001D02*
D03*
X2780001D02*
D03*
X2630000D02*
D03*
X2190000D02*
D03*
D19*
X10186666Y5200000D02*
D03*
X9923332Y5970000D02*
D03*
X9659999Y5700000D02*
D03*
X10449999Y5970000D02*
D03*
X10950000D02*
D03*
X9650000Y4900000D02*
D03*
X10186666Y5970000D02*
D03*
X9659999D02*
D03*
D20*
X8650000Y6100000D02*
D03*
Y6000000D02*
D03*
Y5900000D02*
D03*
Y5800000D02*
D03*
Y5700000D02*
D03*
Y5600000D02*
D03*
Y5500000D02*
D03*
Y5400000D02*
D03*
Y5300000D02*
D03*
Y5200000D02*
D03*
Y5100000D02*
D03*
Y5000000D02*
D03*
Y4900000D02*
D03*
Y4800000D02*
D03*
Y4700000D02*
D03*
Y4600000D02*
D03*
Y4500000D02*
D03*
Y4400000D02*
D03*
Y4300000D02*
D03*
Y4200000D02*
D03*
Y4100000D02*
D03*
Y4000000D02*
D03*
Y3900000D02*
D03*
Y3800000D02*
D03*
Y3700000D02*
D03*
Y3600000D02*
D03*
Y3500000D02*
D03*
Y3400000D02*
D03*
Y3300000D02*
D03*
Y3200000D02*
D03*
Y3100000D02*
D03*
X12050000D02*
D03*
Y3200000D02*
D03*
Y3300000D02*
D03*
Y3400000D02*
D03*
Y3500000D02*
D03*
Y3600000D02*
D03*
Y3700000D02*
D03*
Y3800000D02*
D03*
Y3900000D02*
D03*
Y4000000D02*
D03*
Y4100000D02*
D03*
Y4200000D02*
D03*
Y4300000D02*
D03*
Y4400000D02*
D03*
Y4500000D02*
D03*
Y4600000D02*
D03*
Y4700000D02*
D03*
Y4800000D02*
D03*
Y4900000D02*
D03*
Y5000000D02*
D03*
Y5100000D02*
D03*
Y5200000D02*
D03*
Y5300000D02*
D03*
Y5400000D02*
D03*
Y5500000D02*
D03*
Y5600000D02*
D03*
Y5700000D02*
D03*
Y5800000D02*
D03*
Y5900000D02*
D03*
Y6000000D02*
D03*
Y6100000D02*
D03*
X8850000Y2900000D02*
D03*
X8950000D02*
D03*
X9050000D02*
D03*
X9150000D02*
D03*
X9250000D02*
D03*
X9350000D02*
D03*
X9450000D02*
D03*
X9550000D02*
D03*
X9650000D02*
D03*
X9750000D02*
D03*
X9850000D02*
D03*
X9950000D02*
D03*
X10050000D02*
D03*
X10150000D02*
D03*
X10250000D02*
D03*
X10350000D02*
D03*
X10450000D02*
D03*
X10550000D02*
D03*
X10650000D02*
D03*
X10750000D02*
D03*
X10850000D02*
D03*
X10950000D02*
D03*
X11050000D02*
D03*
X11150000D02*
D03*
X11250000D02*
D03*
X11350000D02*
D03*
X11450000D02*
D03*
X11550000D02*
D03*
X11650000D02*
D03*
X11750000D02*
D03*
X11850000D02*
D03*
X11650000Y6300000D02*
D03*
X11550000D02*
D03*
X11450000D02*
D03*
X11350000D02*
D03*
X11250000D02*
D03*
X11150000D02*
D03*
X11050000D02*
D03*
X10950000D02*
D03*
X10850000D02*
D03*
X10750000D02*
D03*
X10650000D02*
D03*
X10550000D02*
D03*
X10450000D02*
D03*
X10350000D02*
D03*
X10250000D02*
D03*
X10150000D02*
D03*
X10050000D02*
D03*
X9950000D02*
D03*
X9850000D02*
D03*
X9750000D02*
D03*
X9650000D02*
D03*
X9550000D02*
D03*
X9450000D02*
D03*
X9350000D02*
D03*
X9250000D02*
D03*
X9150000D02*
D03*
X9050000D02*
D03*
X8950000D02*
D03*
X8850000D02*
D03*
X11750000D02*
D03*
X11850000D02*
D03*
D21*
X11650000Y3600000D02*
D03*
X11350000D02*
D03*
X11650000Y3400000D02*
D03*
X11350000D02*
D03*
X11650000Y3200000D02*
D03*
X11350000D02*
D03*
X10350000Y3900000D02*
D03*
Y3700000D02*
D03*
Y3500000D02*
D03*
X9350000Y3600000D02*
D03*
X9050000D02*
D03*
X9350000Y3400000D02*
D03*
X9050000D02*
D03*
X9350000Y3200000D02*
D03*
X11650000Y6000000D02*
D03*
Y5800000D02*
D03*
X11350000Y6000000D02*
D03*
Y5800000D02*
D03*
X11650000Y5600000D02*
D03*
X11350000D02*
D03*
X10350000Y5300000D02*
D03*
Y5500000D02*
D03*
Y5700000D02*
D03*
X9050000Y5600000D02*
D03*
Y5800000D02*
D03*
X9350000Y5600000D02*
D03*
Y5800000D02*
D03*
Y6000000D02*
D03*
X9050000D02*
D03*
D22*
X9650000Y4600000D02*
D03*
X9450000D02*
D03*
X9250000D02*
D03*
X11050000D02*
D03*
X11250000D02*
D03*
X11450000D02*
D03*
X6771489Y5407495D02*
D03*
X6881496D02*
D03*
X6991503Y5387505D02*
D03*
X7101485Y5407495D02*
D03*
X7211493Y5387505D02*
D03*
X7321500Y5407495D02*
D03*
X7431508Y5447500D02*
D03*
X7541490Y5407495D02*
D03*
D23*
X11410000Y8090000D02*
D03*
Y7980000D02*
D03*
D24*
X3328160Y16080000D02*
D03*
X3445000D02*
D03*
D25*
X3550000Y15389999D02*
D03*
X3350000D02*
D03*
X3150000D02*
D03*
X2950000D02*
D03*
X2750000D02*
D03*
X2550000D02*
D03*
X2150000D02*
D03*
X1950000D02*
D03*
X1150000Y13789999D02*
D03*
X1350000D02*
D03*
X1550000D02*
D03*
X1750000D02*
D03*
X1950000D02*
D03*
X2150000D02*
D03*
X2550000D02*
D03*
X2750000D02*
D03*
X2950000D02*
D03*
X3150000D02*
D03*
X3350000D02*
D03*
X3550000D02*
D03*
X1750000Y15389999D02*
D03*
X1350000D02*
D03*
X1150000D02*
D03*
X1550000D02*
D03*
D26*
X785000Y13930000D02*
D03*
Y13789999D02*
D03*
X435000Y13930000D02*
D03*
Y13789999D02*
D03*
X13914996Y8600001D02*
D03*
Y8740001D02*
D03*
X14264999Y8600001D02*
D03*
Y8740001D02*
D03*
D27*
X10860000Y7820000D02*
D03*
X11015000D02*
D03*
X9510000Y760000D02*
D03*
X9355000D02*
D03*
X7915000D02*
D03*
X7760000D02*
D03*
D28*
X10497500Y7152500D02*
D03*
X10642500D02*
D03*
X10497500Y7487500D02*
D03*
X10642500D02*
D03*
X11097500Y7152500D02*
D03*
X11242500D02*
D03*
X11097500Y7487500D02*
D03*
X11242500D02*
D03*
X11667500Y7152500D02*
D03*
X11812500D02*
D03*
X11667500Y7487500D02*
D03*
X11812500D02*
D03*
D29*
X5675000Y10560000D02*
D03*
X6545000D02*
D03*
D30*
X14009998Y15039999D02*
D03*
Y14029999D02*
D03*
D31*
X13260002Y16644998D02*
D03*
Y15774998D02*
D03*
D32*
X3550000Y16083160D02*
D03*
Y16200000D02*
D03*
D33*
X2170500Y3160000D02*
D03*
X2849500D02*
D03*
X7619500Y14060001D02*
D03*
X6940500D02*
D03*
D34*
X14510001Y8760001D02*
D03*
X14670000D02*
D03*
X14510001Y8569998D02*
D03*
X14670001D02*
D03*
D35*
X9532501Y15312503D02*
D03*
Y15472502D02*
D03*
D36*
X460000Y14910001D02*
D03*
X13060001Y3110000D02*
D03*
X4700000Y10010000D02*
D03*
X13110001Y3510000D02*
D03*
X13109999Y3660000D02*
D03*
D37*
X6852489Y6437490D02*
D03*
X7421500D02*
D03*
D38*
X6692495Y5137493D02*
D03*
X8007503Y5022507D02*
D03*
D39*
X5760000Y11700000D02*
D03*
Y11360000D02*
D03*
D40*
X3225002Y16172499D02*
D03*
Y16082500D02*
D03*
D41*
X1835000Y2059998D02*
D03*
X2185001D02*
D03*
D42*
X7450500Y15185001D02*
D03*
X7280000D02*
D03*
X7109500D02*
D03*
X6939000D02*
D03*
X7621000D02*
D03*
X12271000D02*
D03*
X11589000D02*
D03*
X11759500D02*
D03*
X11930000D02*
D03*
X12100500D02*
D03*
D43*
X7280000Y16125000D02*
D03*
X11930000D02*
D03*
D44*
X4046502Y9085001D02*
D03*
X4173502D02*
D03*
X4046502Y9715002D02*
D03*
X4173502D02*
D03*
D45*
X9169999Y7364999D02*
D03*
Y7460001D02*
D03*
Y7555002D02*
D03*
X8929999D02*
D03*
Y7460001D02*
D03*
Y7364999D02*
D03*
D46*
X2210000Y4430000D02*
D03*
Y6490000D02*
D03*
X3210000D02*
D03*
Y4430000D02*
D03*
D47*
X4910000Y11370300D02*
D03*
Y11649700D02*
D03*
X960000Y4270300D02*
D03*
Y4549700D02*
D03*
D48*
X6110000Y11682500D02*
D03*
D49*
Y11937500D02*
D03*
D50*
X9493950Y1160000D02*
D03*
X9126050D02*
D03*
X7776050Y1160000D02*
D03*
X8143950D02*
D03*
X8426050D02*
D03*
X8793950D02*
D03*
D51*
X7078770Y485000D02*
D03*
X6441230D02*
D03*
D52*
X6460000Y11576050D02*
D03*
Y11943950D02*
D03*
D67*
X13750000Y12980000D02*
D03*
X8150000Y9440000D02*
D03*
X8780000D02*
D03*
X14110001Y12980000D02*
D03*
X14330000Y9330000D02*
D03*
D68*
X8419500Y490000D02*
D03*
X5460000D02*
D03*
X5079000D02*
D03*
D69*
X8800500D02*
D03*
X5841000D02*
D03*
D70*
X960000Y3760000D02*
D03*
Y3510000D02*
D03*
X10729998Y8369998D02*
D03*
Y8115998D02*
D03*
X11079998Y8369998D02*
D03*
Y8115998D02*
D03*
X1360000Y4910000D02*
D03*
Y3910000D02*
D03*
X8580001Y13660001D02*
D03*
Y14259998D02*
D03*
X10140001Y13659998D02*
D03*
Y14260002D02*
D03*
D71*
X4160000Y660000D02*
D03*
X3410000Y1960000D02*
D03*
Y2710000D02*
D03*
X2910000D02*
D03*
X2160000D02*
D03*
X4710000Y5710000D02*
D03*
Y6460000D02*
D03*
D72*
X4160000Y2160000D02*
D03*
D73*
X2460000Y910000D02*
D03*
X3160000D02*
D03*
D74*
X12018498Y8312503D02*
D03*
D75*
X11518498D02*
D03*
D76*
X3385000Y3809999D02*
D03*
X2135000D02*
D03*
X4110002Y5335002D02*
D03*
Y6585002D02*
D03*
X7060000Y7010000D02*
D03*
X8560000D02*
D03*
X4719998Y8960001D02*
D03*
Y9710002D02*
D03*
X8858997Y8195001D02*
D03*
X9058997D02*
D03*
X9309009D02*
D03*
X13394502Y8622000D02*
D03*
X13140501D02*
D03*
X12886502D02*
D03*
X12632502D02*
D03*
X12759502Y8368000D02*
D03*
X13013503D02*
D03*
X13267502D02*
D03*
D77*
X7358000Y7732500D02*
D03*
Y8447500D02*
D03*
D78*
X7280000Y8025000D02*
D03*
Y8155000D02*
D03*
X7380000Y8220000D02*
D03*
Y8090000D02*
D03*
Y7960000D02*
D03*
D79*
X5134999Y4277000D02*
D03*
Y4531000D02*
D03*
Y4785000D02*
D03*
D80*
Y4023000D02*
D03*
D81*
X2800006Y16080009D02*
D03*
X3054001Y15825999D02*
D03*
Y16334000D02*
D03*
X2546001D02*
D03*
Y15825999D02*
D03*
D82*
X660000Y2660000D02*
D03*
X11210000Y17160001D02*
D03*
X3709998Y17159999D02*
D03*
X14260001Y2660000D02*
D03*
X14260001Y660000D02*
D03*
X660000D02*
D03*
D83*
X8609010Y8195001D02*
D03*
X12505502Y8368000D02*
D03*
D84*
X9618000Y7925001D02*
D03*
X8302000Y7924999D02*
D03*
D85*
X10729998Y8623998D02*
D03*
X11079998D02*
D03*
D86*
X10389998Y8109998D02*
D03*
X6387000Y2103000D02*
D03*
D87*
X10389998Y8363998D02*
D03*
X6387000Y2357000D02*
D03*
X6641000Y2103000D02*
D03*
Y2357000D02*
D03*
X6895000Y2103000D02*
D03*
Y2357000D02*
D03*
X7149000Y2103000D02*
D03*
Y2357000D02*
D03*
X7403000Y2103000D02*
D03*
Y2357000D02*
D03*
X7657000Y2103000D02*
D03*
Y2357000D02*
D03*
X7911000Y2103000D02*
D03*
Y2357000D02*
D03*
X8165000Y2103000D02*
D03*
Y2357000D02*
D03*
X8419000Y2103000D02*
D03*
Y2357000D02*
D03*
X8673000Y2103000D02*
D03*
Y2357000D02*
D03*
X8927000Y2103000D02*
D03*
Y2357000D02*
D03*
X9181000Y2103000D02*
D03*
Y2357000D02*
D03*
X9435000Y2103000D02*
D03*
Y2357000D02*
D03*
X9689000Y2103000D02*
D03*
Y2357000D02*
D03*
X9943000Y2103000D02*
D03*
Y2357000D02*
D03*
X10197000Y2103000D02*
D03*
Y2357000D02*
D03*
X10451000Y2103000D02*
D03*
Y2357000D02*
D03*
X10705000Y2103000D02*
D03*
Y2357000D02*
D03*
X10959000Y2103000D02*
D03*
Y2357000D02*
D03*
X11213000Y2103000D02*
D03*
Y2357000D02*
D03*
X11467000Y2103000D02*
D03*
Y2357000D02*
D03*
X11721000Y2103000D02*
D03*
Y2357000D02*
D03*
X11975000Y2103000D02*
D03*
Y2357000D02*
D03*
X12229000Y2103000D02*
D03*
Y2357000D02*
D03*
X12483000Y2103000D02*
D03*
Y2357000D02*
D03*
X12737000Y2103000D02*
D03*
Y2357000D02*
D03*
X12991000Y2103000D02*
D03*
Y2357000D02*
D03*
X13245000Y2103000D02*
D03*
Y2357000D02*
D03*
X13499001Y2103000D02*
D03*
Y2357000D02*
D03*
X13753000Y2103000D02*
D03*
Y2357000D02*
D03*
D88*
X12160001Y8037998D02*
D03*
X13739998D02*
D03*
D89*
X12378502Y7733000D02*
D03*
X13521503D02*
D03*
D90*
X2598000Y9980000D02*
D03*
X2852000Y8964000D02*
D03*
X3106000D02*
D03*
X3360000D02*
D03*
X3614000D02*
D03*
Y9980000D02*
D03*
X3360000D02*
D03*
X3106000D02*
D03*
X2852000D02*
D03*
D91*
X2598000Y8964000D02*
D03*
D92*
X13180000Y11285003D02*
D03*
X13180000Y11535005D02*
D03*
X13180000Y11410001D02*
D03*
Y11660003D02*
D03*
Y11785002D02*
D03*
Y11910000D02*
D03*
X13179997Y12035002D02*
D03*
Y12160002D02*
D03*
Y12285002D02*
D03*
Y12410002D02*
D03*
%TF.MD5,81de9cdcd3304d721f1eefcd562705c0*%
M02*
