%TF.GenerationSoftware,Altium Limited,Altium Designer,18.0.9 (584)*%
G04 Layer_Physical_Order=3*
G04 Layer_Color=16440176*
%FSLAX45Y45*%
%MOMM*%
%TF.FileFunction,Copper,L3,Inr,Signal*%
%TF.Part,Single*%
G01*
G75*
%TA.AperFunction,Conductor*%
%ADD54C,0.25000*%
%ADD55C,0.35000*%
%ADD56C,0.50000*%
%ADD57C,1.00000*%
%ADD58C,1.50000*%
%ADD59C,0.25400*%
%ADD60C,0.21000*%
%ADD61C,0.18000*%
%ADD64C,0.20000*%
%TA.AperFunction,NonConductor*%
%ADD65C,0.25000*%
%TA.AperFunction,ComponentPad*%
G04:AMPARAMS|DCode=67|XSize=2.8mm|YSize=7mm|CornerRadius=0.7mm|HoleSize=0mm|Usage=FLASHONLY|Rotation=180.000|XOffset=0mm|YOffset=0mm|HoleType=Round|Shape=RoundedRectangle|*
%AMROUNDEDRECTD67*
21,1,2.80000,5.60000,0,0,180.0*
21,1,1.40000,7.00000,0,0,180.0*
1,1,1.40000,-0.70000,2.80000*
1,1,1.40000,0.70000,2.80000*
1,1,1.40000,0.70000,-2.80000*
1,1,1.40000,-0.70000,-2.80000*
%
%ADD67ROUNDEDRECTD67*%
%ADD68C,2.10000*%
%ADD69R,2.10000X2.10000*%
%ADD70C,1.60000*%
%ADD71C,3.00000*%
%ADD72R,3.00000X3.00000*%
G04:AMPARAMS|DCode=73|XSize=8mm|YSize=4mm|CornerRadius=1mm|HoleSize=0mm|Usage=FLASHONLY|Rotation=90.000|XOffset=0mm|YOffset=0mm|HoleType=Round|Shape=RoundedRectangle|*
%AMROUNDEDRECTD73*
21,1,8.00000,2.00000,0,0,90.0*
21,1,6.00000,4.00000,0,0,90.0*
1,1,2.00000,1.00000,3.00000*
1,1,2.00000,1.00000,-3.00000*
1,1,2.00000,-1.00000,-3.00000*
1,1,2.00000,-1.00000,3.00000*
%
%ADD73ROUNDEDRECTD73*%
G04:AMPARAMS|DCode=74|XSize=1mm|YSize=2mm|CornerRadius=0.25mm|HoleSize=0mm|Usage=FLASHONLY|Rotation=0.000|XOffset=0mm|YOffset=0mm|HoleType=Round|Shape=RoundedRectangle|*
%AMROUNDEDRECTD74*
21,1,1.00000,1.50000,0,0,0.0*
21,1,0.50000,2.00000,0,0,0.0*
1,1,0.50000,0.25000,-0.75000*
1,1,0.50000,-0.25000,-0.75000*
1,1,0.50000,-0.25000,0.75000*
1,1,0.50000,0.25000,0.75000*
%
%ADD74ROUNDEDRECTD74*%
%ADD75R,1.00000X2.00000*%
%ADD76C,1.40000*%
%ADD77O,1.50000X0.85000*%
%ADD78C,0.94000*%
%ADD79C,1.52000*%
%ADD80R,1.52000X1.52000*%
%ADD81C,2.20000*%
%ADD82C,5.00000*%
%ADD83R,1.40000X1.40000*%
%ADD84C,2.80000*%
%ADD85R,1.60000X1.60000*%
%ADD86R,1.80000X1.80000*%
%ADD87C,1.80000*%
%ADD88C,2.40000*%
%ADD89C,3.25000*%
%ADD90C,2.00000*%
%ADD91R,2.00000X2.00000*%
%ADD92C,1.00000*%
%TA.AperFunction,ViaPad*%
%ADD93C,1.50000*%
%ADD94C,0.50000*%
%ADD95C,0.35000*%
G36*
X8740000Y13810001D02*
X8050000D01*
Y13063087D01*
X7950001D01*
X7949999Y13063087D01*
X7938294Y13060759D01*
X7928370Y13054129D01*
X7914242Y13039999D01*
X7200000D01*
Y13670000D01*
X7750000D01*
Y14089999D01*
X8420000D01*
Y14370000D01*
X8740000D01*
Y13810001D01*
D02*
G37*
G36*
X9070796Y17460170D02*
X9074405Y17459615D01*
X9078847Y17458781D01*
X9083844Y17457394D01*
X9088842Y17455728D01*
X9093839Y17453506D01*
X9094116D01*
X9094394Y17453230D01*
X9096060Y17452397D01*
X9098558Y17450731D01*
X9101335Y17448788D01*
X9104666Y17446011D01*
X9107998Y17442958D01*
X9111329Y17439349D01*
X9114105Y17435184D01*
X9114383Y17434628D01*
X9115216Y17433241D01*
X9116326Y17430742D01*
X9117714Y17427689D01*
X9119102Y17424078D01*
X9120213Y17419914D01*
X9121046Y17415196D01*
X9121323Y17410477D01*
Y17409921D01*
Y17408255D01*
X9121046Y17406033D01*
X9120491Y17402980D01*
X9119658Y17399371D01*
X9118270Y17395483D01*
X9116604Y17391599D01*
X9114383Y17387711D01*
X9114105Y17387157D01*
X9113272Y17386044D01*
X9111607Y17384102D01*
X9109386Y17381882D01*
X9106609Y17379382D01*
X9103278Y17376607D01*
X9099391Y17374107D01*
X9094672Y17371609D01*
X9094949D01*
X9095505Y17371330D01*
X9096337Y17371054D01*
X9097448Y17370776D01*
X9100502Y17369666D01*
X9104388Y17367999D01*
X9108830Y17365779D01*
X9113272Y17363004D01*
X9117437Y17359393D01*
X9121323Y17355229D01*
X9121601Y17354674D01*
X9122711Y17353008D01*
X9124377Y17350232D01*
X9126043Y17346623D01*
X9127709Y17342181D01*
X9129374Y17336906D01*
X9130485Y17330798D01*
X9130763Y17324136D01*
Y17323859D01*
Y17323026D01*
Y17321637D01*
X9130485Y17319971D01*
X9130207Y17317751D01*
X9129652Y17315253D01*
X9129097Y17312476D01*
X9128542Y17309422D01*
X9126321Y17302759D01*
X9124655Y17299150D01*
X9122989Y17295818D01*
X9120768Y17292209D01*
X9118270Y17288600D01*
X9115493Y17284991D01*
X9112162Y17281659D01*
X9111884Y17281383D01*
X9111329Y17280826D01*
X9110219Y17279994D01*
X9108830Y17278883D01*
X9107165Y17277495D01*
X9104944Y17276106D01*
X9102445Y17274442D01*
X9099391Y17273053D01*
X9096337Y17271387D01*
X9092728Y17269722D01*
X9089119Y17268333D01*
X9084955Y17266945D01*
X9080513Y17265836D01*
X9075793Y17265002D01*
X9071074Y17264447D01*
X9065799Y17264169D01*
X9063300D01*
X9061635Y17264447D01*
X9059414Y17264725D01*
X9056915Y17265002D01*
X9054139Y17265556D01*
X9051085Y17266113D01*
X9044422Y17267778D01*
X9037482Y17270554D01*
X9033872Y17272220D01*
X9030541Y17274164D01*
X9027210Y17276662D01*
X9023878Y17279161D01*
X9023600Y17279437D01*
X9023045Y17279994D01*
X9022212Y17280826D01*
X9021379Y17281937D01*
X9019991Y17283325D01*
X9018603Y17285268D01*
X9016938Y17287212D01*
X9015272Y17289709D01*
X9013606Y17292487D01*
X9011940Y17295264D01*
X9008886Y17301926D01*
X9006388Y17309698D01*
X9005555Y17313864D01*
X9005000Y17318304D01*
X9028598Y17321359D01*
Y17321082D01*
X9028875Y17320526D01*
X9029153Y17319415D01*
X9029431Y17318028D01*
X9029708Y17316362D01*
X9030263Y17314420D01*
X9031651Y17310254D01*
X9033595Y17305257D01*
X9036093Y17300539D01*
X9038870Y17296095D01*
X9042201Y17292209D01*
X9042756Y17291931D01*
X9043867Y17290820D01*
X9046088Y17289433D01*
X9048864Y17288045D01*
X9052196Y17286378D01*
X9056360Y17284991D01*
X9061079Y17283881D01*
X9066077Y17283603D01*
X9067742D01*
X9068853Y17283881D01*
X9071907Y17284158D01*
X9075793Y17284991D01*
X9080235Y17286378D01*
X9084955Y17288322D01*
X9089674Y17291100D01*
X9094116Y17294984D01*
X9094672Y17295540D01*
X9096060Y17297206D01*
X9097726Y17299706D01*
X9099946Y17303036D01*
X9102167Y17307201D01*
X9103833Y17311920D01*
X9105221Y17317473D01*
X9105777Y17323579D01*
Y17323859D01*
Y17324413D01*
Y17325246D01*
X9105499Y17326357D01*
X9105221Y17329410D01*
X9104388Y17333018D01*
X9103278Y17337460D01*
X9101335Y17341904D01*
X9098558Y17346346D01*
X9094949Y17350510D01*
X9094394Y17351065D01*
X9093006Y17352174D01*
X9090785Y17353841D01*
X9087731Y17355785D01*
X9083844Y17357729D01*
X9079125Y17359393D01*
X9073850Y17360504D01*
X9068020Y17361060D01*
X9065521D01*
X9063578Y17360782D01*
X9061079Y17360504D01*
X9058303Y17359949D01*
X9054972Y17359393D01*
X9051363Y17358562D01*
X9054139Y17379382D01*
X9055527D01*
X9056637Y17379105D01*
X9060247D01*
X9063300Y17379660D01*
X9066909Y17380215D01*
X9071074Y17381049D01*
X9075793Y17382436D01*
X9080235Y17384380D01*
X9084955Y17386877D01*
X9085233D01*
X9085510Y17387157D01*
X9086898Y17388266D01*
X9088842Y17390210D01*
X9091063Y17392708D01*
X9093284Y17396317D01*
X9095227Y17400482D01*
X9096615Y17405202D01*
X9097170Y17407977D01*
Y17411031D01*
Y17411308D01*
Y17411586D01*
Y17413252D01*
X9096615Y17415472D01*
X9096060Y17418527D01*
X9094949Y17421858D01*
X9093561Y17425468D01*
X9091340Y17429077D01*
X9088286Y17432408D01*
X9088009Y17432686D01*
X9086621Y17433797D01*
X9084677Y17435184D01*
X9082179Y17436850D01*
X9078847Y17438239D01*
X9074961Y17439626D01*
X9070519Y17440736D01*
X9065521Y17441014D01*
X9063300D01*
X9060802Y17440459D01*
X9057470Y17439903D01*
X9053861Y17438792D01*
X9050252Y17437405D01*
X9046365Y17435184D01*
X9042756Y17432408D01*
X9042479Y17432130D01*
X9041368Y17430742D01*
X9039703Y17428799D01*
X9037759Y17426022D01*
X9035816Y17422414D01*
X9033872Y17417972D01*
X9032207Y17412697D01*
X9031096Y17406589D01*
X9007498Y17410754D01*
Y17411031D01*
X9007776Y17411864D01*
X9008054Y17412975D01*
X9008331Y17414639D01*
X9008886Y17416583D01*
X9009719Y17418805D01*
X9011385Y17424078D01*
X9014161Y17430186D01*
X9017493Y17436295D01*
X9021657Y17442125D01*
X9026932Y17447400D01*
X9027210Y17447678D01*
X9027765Y17447955D01*
X9028598Y17448511D01*
X9029708Y17449342D01*
X9031096Y17450455D01*
X9033040Y17451564D01*
X9034983Y17452675D01*
X9037482Y17454063D01*
X9043034Y17456284D01*
X9049419Y17458505D01*
X9056915Y17459892D01*
X9060802Y17460448D01*
X9067742D01*
X9070796Y17460170D01*
D02*
G37*
G36*
X9370232Y17115169D02*
X9372176D01*
X9377451Y17114613D01*
X9383281Y17113782D01*
X9389388Y17112393D01*
X9396051Y17110727D01*
X9402159Y17108505D01*
X9402437D01*
X9402992Y17108228D01*
X9403825Y17107674D01*
X9404935Y17107118D01*
X9407711Y17105730D01*
X9411321Y17103230D01*
X9415485Y17100455D01*
X9419649Y17096846D01*
X9423536Y17092682D01*
X9427145Y17087962D01*
Y17087685D01*
X9427423Y17087407D01*
X9427978Y17086574D01*
X9428533Y17085741D01*
X9429921Y17082965D01*
X9431587Y17079356D01*
X9433530Y17074915D01*
X9434918Y17069640D01*
X9436307Y17064087D01*
X9436862Y17057979D01*
X9412431Y17056035D01*
Y17056313D01*
Y17056868D01*
X9412153Y17057701D01*
X9411876Y17059090D01*
X9411043Y17062143D01*
X9409932Y17066307D01*
X9408267Y17070749D01*
X9405768Y17075191D01*
X9402714Y17079356D01*
X9398828Y17083241D01*
X9398272Y17083521D01*
X9396884Y17084631D01*
X9394108Y17086296D01*
X9390499Y17087962D01*
X9385779Y17089629D01*
X9380227Y17091293D01*
X9373286Y17092404D01*
X9365513Y17092682D01*
X9361626D01*
X9359960Y17092404D01*
X9357739Y17092126D01*
X9352742Y17091571D01*
X9347190Y17090462D01*
X9341637Y17089073D01*
X9336363Y17086852D01*
X9334142Y17085463D01*
X9331921Y17084074D01*
X9331365Y17083798D01*
X9330255Y17082687D01*
X9328589Y17080743D01*
X9326923Y17078523D01*
X9324980Y17075468D01*
X9323314Y17072137D01*
X9322204Y17068251D01*
X9321649Y17063809D01*
Y17063254D01*
Y17062143D01*
X9321926Y17060201D01*
X9322481Y17057979D01*
X9323314Y17055203D01*
X9324702Y17052426D01*
X9326368Y17049651D01*
X9328867Y17046873D01*
X9329144Y17046596D01*
X9330533Y17045763D01*
X9331643Y17044931D01*
X9332753Y17044376D01*
X9334419Y17043542D01*
X9336363Y17042432D01*
X9338861Y17041599D01*
X9341637Y17040489D01*
X9344691Y17039378D01*
X9348300Y17037990D01*
X9352187Y17036880D01*
X9356629Y17035490D01*
X9361626Y17034381D01*
X9367179Y17032993D01*
X9367456D01*
X9368567Y17032715D01*
X9370232Y17032439D01*
X9372176Y17031882D01*
X9374674Y17031326D01*
X9377728Y17030495D01*
X9380782Y17029662D01*
X9384114Y17028828D01*
X9391332Y17026884D01*
X9398272Y17024942D01*
X9401604Y17023831D01*
X9404658Y17022720D01*
X9407434Y17021889D01*
X9409655Y17020776D01*
X9409932D01*
X9410488Y17020500D01*
X9411321Y17019945D01*
X9412431Y17019389D01*
X9415485Y17017725D01*
X9419094Y17015503D01*
X9423258Y17012450D01*
X9427423Y17009117D01*
X9431309Y17005231D01*
X9434641Y17001067D01*
X9434918Y17000511D01*
X9436029Y16999123D01*
X9437139Y16996625D01*
X9438805Y16993294D01*
X9440193Y16989406D01*
X9441581Y16984686D01*
X9442414Y16979411D01*
X9442692Y16973859D01*
Y16973582D01*
Y16973305D01*
Y16972472D01*
Y16971361D01*
X9442137Y16968307D01*
X9441581Y16964420D01*
X9440471Y16959978D01*
X9439083Y16955260D01*
X9436862Y16950262D01*
X9433808Y16944987D01*
Y16944708D01*
X9433530Y16944431D01*
X9432142Y16942766D01*
X9430199Y16940266D01*
X9427423Y16937491D01*
X9423814Y16934158D01*
X9419372Y16930550D01*
X9414374Y16927219D01*
X9408544Y16924165D01*
X9408267D01*
X9407711Y16923888D01*
X9406879Y16923610D01*
X9405768Y16923055D01*
X9404102Y16922499D01*
X9402159Y16921666D01*
X9397717Y16920557D01*
X9392442Y16919168D01*
X9386057Y16917780D01*
X9379116Y16916946D01*
X9371621Y16916669D01*
X9367179D01*
X9364958Y16916946D01*
X9362459D01*
X9359683Y16917224D01*
X9356351Y16917502D01*
X9349411Y16918613D01*
X9342193Y16919724D01*
X9334974Y16921666D01*
X9328034Y16924165D01*
X9327756D01*
X9327201Y16924443D01*
X9326368Y16924998D01*
X9325258Y16925552D01*
X9321926Y16927219D01*
X9318040Y16929716D01*
X9313598Y16933049D01*
X9308878Y16936935D01*
X9304436Y16941655D01*
X9300272Y16946930D01*
Y16947208D01*
X9299716Y16947763D01*
X9299439Y16948596D01*
X9298606Y16949706D01*
X9298051Y16951094D01*
X9297218Y16952760D01*
X9295275Y16956924D01*
X9293331Y16962199D01*
X9291665Y16968028D01*
X9290555Y16974692D01*
X9290000Y16981633D01*
X9313875Y16983855D01*
Y16983575D01*
Y16983299D01*
X9314153Y16982466D01*
Y16981355D01*
X9314708Y16978857D01*
X9315541Y16975247D01*
X9316651Y16971638D01*
X9317762Y16967474D01*
X9319705Y16963586D01*
X9321649Y16959978D01*
X9321926Y16959702D01*
X9322759Y16958591D01*
X9324147Y16956647D01*
X9326368Y16954703D01*
X9329144Y16952205D01*
X9332198Y16949706D01*
X9336363Y16947208D01*
X9340805Y16944987D01*
X9341082D01*
X9341360Y16944708D01*
X9342193Y16944431D01*
X9343026Y16944154D01*
X9345802Y16943321D01*
X9349411Y16942210D01*
X9353853Y16941100D01*
X9358850Y16940266D01*
X9364402Y16939713D01*
X9370510Y16939433D01*
X9373009D01*
X9375785Y16939713D01*
X9379116Y16939989D01*
X9383003Y16940546D01*
X9387445Y16941100D01*
X9391887Y16942210D01*
X9396051Y16943599D01*
X9396607Y16943877D01*
X9397995Y16944431D01*
X9399938Y16945541D01*
X9402437Y16946652D01*
X9404935Y16948596D01*
X9407711Y16950539D01*
X9410488Y16952760D01*
X9412709Y16955536D01*
X9412986Y16955814D01*
X9413541Y16956924D01*
X9414374Y16958313D01*
X9415485Y16960535D01*
X9416595Y16962753D01*
X9417428Y16965530D01*
X9417983Y16968585D01*
X9418261Y16971916D01*
Y16972194D01*
Y16973582D01*
X9417983Y16975247D01*
X9417706Y16977467D01*
X9416873Y16979689D01*
X9416040Y16982466D01*
X9414652Y16985242D01*
X9412709Y16987740D01*
X9412431Y16988017D01*
X9411598Y16988850D01*
X9410488Y16989961D01*
X9408544Y16991628D01*
X9406323Y16993294D01*
X9403269Y16995236D01*
X9399660Y16997180D01*
X9395496Y16998845D01*
X9395218Y16999123D01*
X9393830Y16999400D01*
X9391609Y17000233D01*
X9390221Y17000511D01*
X9388278Y17001067D01*
X9386335Y17001900D01*
X9383836Y17002454D01*
X9381060Y17003287D01*
X9377728Y17004120D01*
X9374397Y17004953D01*
X9370510Y17006064D01*
X9366068Y17007175D01*
X9361349Y17008284D01*
X9361071D01*
X9360238Y17008562D01*
X9358850Y17008839D01*
X9357184Y17009395D01*
X9354963Y17009950D01*
X9352465Y17010506D01*
X9346912Y17012170D01*
X9340805Y17014114D01*
X9334419Y17016058D01*
X9328867Y17018001D01*
X9326368Y17019112D01*
X9324147Y17020222D01*
X9323870D01*
X9323592Y17020500D01*
X9321926Y17021609D01*
X9319428Y17022998D01*
X9316651Y17025220D01*
X9313320Y17027718D01*
X9309988Y17030772D01*
X9306657Y17034381D01*
X9303881Y17038268D01*
X9303603Y17038823D01*
X9302770Y17040211D01*
X9301660Y17042432D01*
X9300549Y17045209D01*
X9299439Y17048817D01*
X9298328Y17052982D01*
X9297496Y17057423D01*
X9297218Y17062143D01*
Y17062421D01*
Y17062698D01*
Y17063531D01*
Y17064642D01*
X9297773Y17067418D01*
X9298328Y17071027D01*
X9299161Y17075191D01*
X9300549Y17079910D01*
X9302493Y17084631D01*
X9305269Y17089349D01*
Y17089629D01*
X9305547Y17089905D01*
X9306935Y17091571D01*
X9308878Y17093793D01*
X9311377Y17096568D01*
X9314708Y17099622D01*
X9318872Y17102954D01*
X9323870Y17106007D01*
X9329422Y17108784D01*
X9329700D01*
X9330255Y17109061D01*
X9331088Y17109338D01*
X9332198Y17109894D01*
X9333586Y17110449D01*
X9335530Y17111005D01*
X9339694Y17112115D01*
X9344969Y17113226D01*
X9351077Y17114336D01*
X9357462Y17115169D01*
X9364680Y17115446D01*
X9368289D01*
X9370232Y17115169D01*
D02*
G37*
G36*
X9647022D02*
X9649243D01*
X9654517Y17114613D01*
X9660347Y17113782D01*
X9666455Y17112393D01*
X9673118Y17110727D01*
X9679503Y17108505D01*
X9679781D01*
X9680336Y17108228D01*
X9681169Y17107951D01*
X9682280Y17107396D01*
X9685333Y17105730D01*
X9689220Y17103786D01*
X9693384Y17101010D01*
X9697826Y17097679D01*
X9701991Y17094070D01*
X9705877Y17089629D01*
X9706433Y17089073D01*
X9707543Y17087407D01*
X9709209Y17084908D01*
X9711430Y17081299D01*
X9713651Y17076857D01*
X9716149Y17071304D01*
X9718648Y17065198D01*
X9720591Y17058257D01*
X9697549Y17052148D01*
Y17052426D01*
X9697271Y17052704D01*
X9696994Y17053537D01*
X9696716Y17054646D01*
X9695883Y17057146D01*
X9694773Y17060477D01*
X9693107Y17064365D01*
X9691163Y17067973D01*
X9689220Y17071860D01*
X9686722Y17075191D01*
X9686444Y17075468D01*
X9685611Y17076579D01*
X9683945Y17077968D01*
X9682002Y17079910D01*
X9679503Y17082132D01*
X9676172Y17084354D01*
X9672563Y17086574D01*
X9668398Y17088518D01*
X9667843Y17088795D01*
X9666455Y17089349D01*
X9663957Y17090182D01*
X9660625Y17091293D01*
X9656738Y17092126D01*
X9652296Y17092960D01*
X9647299Y17093513D01*
X9642024Y17093793D01*
X9638971D01*
X9637582Y17093513D01*
X9635917D01*
X9631752Y17093237D01*
X9627033Y17092404D01*
X9621758Y17091571D01*
X9616761Y17090182D01*
X9611764Y17088240D01*
X9611208Y17087962D01*
X9609543Y17087407D01*
X9607322Y17086018D01*
X9604545Y17084631D01*
X9601214Y17082410D01*
X9597605Y17080190D01*
X9594273Y17077412D01*
X9591220Y17074359D01*
X9590942Y17074081D01*
X9589831Y17072971D01*
X9588443Y17071027D01*
X9586778Y17068806D01*
X9584834Y17066029D01*
X9582891Y17062698D01*
X9580948Y17059090D01*
X9579004Y17055203D01*
Y17054926D01*
X9578727Y17054370D01*
X9578449Y17053537D01*
X9577894Y17052148D01*
X9577338Y17050484D01*
X9576783Y17048540D01*
X9575950Y17046320D01*
X9575395Y17043820D01*
X9574007Y17037990D01*
X9572897Y17031326D01*
X9572064Y17024387D01*
X9571786Y17016612D01*
Y17016336D01*
Y17015503D01*
Y17014114D01*
X9572064Y17012450D01*
Y17010228D01*
X9572341Y17007452D01*
X9572619Y17004675D01*
X9572897Y17001622D01*
X9574007Y16994681D01*
X9575395Y16987463D01*
X9577616Y16980244D01*
X9580392Y16973305D01*
Y16973027D01*
X9580948Y16972472D01*
X9581225Y16971638D01*
X9582058Y16970528D01*
X9584001Y16967474D01*
X9587055Y16963586D01*
X9590664Y16959422D01*
X9595106Y16955260D01*
X9600381Y16951372D01*
X9606211Y16947763D01*
X9606489D01*
X9607044Y16947485D01*
X9607877Y16946930D01*
X9609265Y16946375D01*
X9610653Y16945821D01*
X9612596Y16945264D01*
X9617038Y16943599D01*
X9622591Y16942210D01*
X9628699Y16940822D01*
X9635361Y16939713D01*
X9642302Y16939433D01*
X9645078D01*
X9646744Y16939713D01*
X9648410D01*
X9652574Y16940266D01*
X9657571Y16940822D01*
X9662846Y16941933D01*
X9668676Y16943599D01*
X9674506Y16945541D01*
X9674784D01*
X9675339Y16945821D01*
X9675894Y16946097D01*
X9677005Y16946652D01*
X9680059Y16948041D01*
X9683390Y16949706D01*
X9687277Y16951649D01*
X9691441Y16953871D01*
X9695328Y16956369D01*
X9698659Y16959145D01*
Y16995236D01*
X9642024D01*
Y17018001D01*
X9723645D01*
Y16946652D01*
X9723368Y16946375D01*
X9722812Y16946097D01*
X9721702Y16945264D01*
X9720314Y16944154D01*
X9718648Y16943044D01*
X9716705Y16941655D01*
X9714206Y16939989D01*
X9711708Y16938324D01*
X9705877Y16934715D01*
X9699215Y16930827D01*
X9692274Y16927219D01*
X9684778Y16924165D01*
X9684501D01*
X9683945Y16923888D01*
X9682835Y16923610D01*
X9681447Y16923055D01*
X9679503Y16922499D01*
X9677282Y16921666D01*
X9674784Y16921111D01*
X9672285Y16920557D01*
X9666178Y16919168D01*
X9659237Y16917780D01*
X9651741Y16916946D01*
X9643968Y16916669D01*
X9641192D01*
X9639248Y16916946D01*
X9636750D01*
X9633696Y16917224D01*
X9630364Y16917780D01*
X9626755Y16918057D01*
X9618704Y16919724D01*
X9610098Y16921666D01*
X9601214Y16924719D01*
X9596772Y16926385D01*
X9592330Y16928607D01*
X9592052Y16928885D01*
X9591220Y16929163D01*
X9590109Y16929996D01*
X9588443Y16930827D01*
X9586500Y16932216D01*
X9584557Y16933604D01*
X9579282Y16937491D01*
X9573729Y16942488D01*
X9567899Y16948596D01*
X9562347Y16955536D01*
X9557350Y16963586D01*
Y16963866D01*
X9556794Y16964697D01*
X9556239Y16965808D01*
X9555406Y16967752D01*
X9554573Y16969695D01*
X9553741Y16972472D01*
X9552630Y16975247D01*
X9551520Y16978580D01*
X9550409Y16982188D01*
X9549299Y16986353D01*
X9548466Y16990517D01*
X9547633Y16994958D01*
X9546245Y17004675D01*
X9545690Y17014948D01*
Y17015225D01*
Y17016336D01*
Y17017725D01*
X9545967Y17019667D01*
Y17022166D01*
X9546245Y17025220D01*
X9546800Y17028273D01*
X9547078Y17031882D01*
X9547911Y17035770D01*
X9548466Y17039932D01*
X9550687Y17048817D01*
X9553463Y17057979D01*
X9557350Y17067140D01*
X9557627Y17067418D01*
X9557905Y17068251D01*
X9558460Y17069360D01*
X9559571Y17071027D01*
X9560681Y17073248D01*
X9562069Y17075468D01*
X9565956Y17080743D01*
X9570676Y17086852D01*
X9576506Y17092682D01*
X9583169Y17098512D01*
X9587055Y17101010D01*
X9590942Y17103510D01*
X9591220Y17103786D01*
X9592052Y17104063D01*
X9593163Y17104619D01*
X9594829Y17105452D01*
X9597050Y17106285D01*
X9599548Y17107396D01*
X9602324Y17108505D01*
X9605656Y17109618D01*
X9609265Y17110727D01*
X9613152Y17111560D01*
X9617316Y17112669D01*
X9621758Y17113503D01*
X9631475Y17114891D01*
X9636472Y17115446D01*
X9645356D01*
X9647022Y17115169D01*
D02*
G37*
G36*
X9840247Y16920001D02*
X9816649D01*
Y17070193D01*
X9816371Y17069917D01*
X9814983Y17068806D01*
X9813317Y17067140D01*
X9810541Y17065198D01*
X9807487Y17062698D01*
X9803600Y17059921D01*
X9799158Y17056868D01*
X9794161Y17053815D01*
X9793884D01*
X9793606Y17053537D01*
X9791940Y17052426D01*
X9789164Y17051038D01*
X9785833Y17049373D01*
X9781946Y17047429D01*
X9777782Y17045486D01*
X9773617Y17043542D01*
X9769453Y17041878D01*
Y17064642D01*
X9769731D01*
X9770286Y17065198D01*
X9771396Y17065475D01*
X9772784Y17066307D01*
X9774450Y17067140D01*
X9776393Y17068251D01*
X9781113Y17071027D01*
X9786665Y17074081D01*
X9792218Y17077968D01*
X9798048Y17082410D01*
X9803878Y17087129D01*
X9804156Y17087407D01*
X9804433Y17087685D01*
X9805266Y17088518D01*
X9806377Y17089349D01*
X9808875Y17092126D01*
X9812207Y17095457D01*
X9815538Y17099345D01*
X9819147Y17103786D01*
X9822201Y17108228D01*
X9824977Y17112949D01*
X9840247D01*
Y16920001D01*
D02*
G37*
G36*
X9507378D02*
X9481837D01*
Y17112115D01*
X9507378D01*
Y16920001D01*
D02*
G37*
%LPC*%
G36*
X7910000Y13245686D02*
X7896344Y13242969D01*
X7884766Y13235234D01*
X7877031Y13223656D01*
X7874314Y13210001D01*
X7877031Y13196344D01*
X7884766Y13184766D01*
X7896344Y13177031D01*
X7910000Y13174313D01*
X7923656Y13177031D01*
X7935234Y13184766D01*
X7942969Y13196344D01*
X7945686Y13210001D01*
X7942969Y13223656D01*
X7935234Y13235234D01*
X7923656Y13242969D01*
X7910000Y13245686D01*
D02*
G37*
G36*
X7462500Y13145686D02*
X7448844Y13142969D01*
X7437266Y13135234D01*
X7429531Y13123657D01*
X7426814Y13110001D01*
X7429531Y13096344D01*
X7437266Y13084767D01*
X7448844Y13077031D01*
X7462500Y13074313D01*
X7476156Y13077031D01*
X7487734Y13084767D01*
X7495469Y13096344D01*
X7498186Y13110001D01*
X7495469Y13123657D01*
X7487734Y13135234D01*
X7476156Y13142969D01*
X7462500Y13145686D01*
D02*
G37*
%LPD*%
D54*
X14010001Y8880000D02*
X14510001D01*
X11385000Y11060000D02*
X11471109Y10973891D01*
X11526109Y10716109D02*
Y11061672D01*
X11350000Y10540001D02*
X11526109Y10716109D01*
X11471109Y10738891D02*
Y10973891D01*
X10902500Y10962500D02*
X11410000Y11470000D01*
X10902500Y8112500D02*
Y10962500D01*
X11410000Y11470000D02*
X11550000D01*
X11295000Y10562782D02*
X11471109Y10738891D01*
X11295000Y6705000D02*
Y10562782D01*
X11350000Y6727781D02*
Y10540001D01*
X11752500Y8072500D02*
Y11047500D01*
X11640000Y7960000D02*
X11752500Y8072500D01*
X11750000Y11050000D02*
X11752500Y11047500D01*
X11500000Y7120000D02*
X11580000D01*
X11450000Y7170000D02*
X11500000Y7120000D01*
X11450000Y7170000D02*
Y7680000D01*
X11490000Y7720000D01*
X11530000D01*
X11350000Y6727781D02*
X11654141Y6423640D01*
X12113640D01*
X11295000Y6705000D02*
X11640000Y6360000D01*
X12050000D01*
X12113640Y6423640D02*
X12170000Y6367280D01*
Y6270000D02*
Y6367280D01*
X12050000Y6360000D02*
X12080000Y6330001D01*
Y6270000D02*
Y6330001D01*
X10727500Y2692500D02*
X10750000Y2670000D01*
X7340000Y2640000D02*
Y2660000D01*
X7250000D02*
X7270502D01*
X7345502Y2585000D01*
X7340000Y2640000D02*
X7360000Y2620000D01*
X7345502Y2585000D02*
X8315005D01*
X7360000Y2620000D02*
X8300507D01*
X8373007Y2692500D01*
X8315005Y2585000D02*
X8387505Y2657500D01*
X10492500Y2657500D01*
X8373007Y2692500D02*
X10727500Y2692500D01*
X10492500Y2657500D02*
X10550000Y2600000D01*
X7297500Y3107500D02*
X10417500D01*
X7149000Y2959000D02*
X7297500Y3107500D01*
X7149000Y2357000D02*
Y2959000D01*
X11637500Y7697500D02*
X11904675D01*
X7460000Y2685000D02*
X8310000D01*
X8435000Y2810000D01*
X10450000D01*
X8330000Y2755000D02*
X8420000Y2845000D01*
X7720000Y2755000D02*
X8330000D01*
X8420000Y2845000D02*
X10292500D01*
X10450000Y2810000D02*
X10685000Y3045000D01*
X10292500Y2845000D02*
X10492500Y3045000D01*
X10417500Y3107500D02*
X10490000Y3180000D01*
Y3260000D01*
X10390000Y3430000D02*
X10730000Y3090000D01*
X10887175D01*
X10130000Y3430000D02*
X10390000D01*
X10050000Y3350000D02*
X10130000Y3430000D01*
X9967500Y3438003D02*
X10211997Y3682500D01*
X9967500Y3277500D02*
Y3438003D01*
X9832500Y3142500D02*
X9967500Y3277500D01*
X13370000Y2250000D02*
X13489999Y2370000D01*
X11860000Y2230000D02*
X11990000Y2100000D01*
X10870000Y2110000D02*
X10980000D01*
X1960000Y15039999D02*
X2950000Y14050000D01*
X1910000Y16060001D02*
X1935000D01*
X1960000Y16035001D01*
Y15039999D02*
Y16035001D01*
X2910000Y13220000D02*
Y14035667D01*
X1810000Y15135667D02*
Y16035001D01*
X1785000Y16060001D02*
X1810000Y16035001D01*
X1760000Y16060001D02*
X1785000D01*
X1335000D02*
X1360000Y16035001D01*
X1310000Y16060001D02*
X1335000D01*
X1460000D02*
X1485000D01*
X1510000Y16035001D01*
X1610000Y16060001D02*
X1635000D01*
X1660000Y16035001D01*
Y15236169D02*
Y16035001D01*
X1360000Y15437175D02*
Y16035001D01*
X1510000Y15336671D02*
Y16035001D01*
X14019498Y8920000D02*
X14530000D01*
X13694498Y9245000D02*
X14019498Y8920000D01*
X12445502Y9245000D02*
X13694498D01*
X12460000Y9210000D02*
X13680000D01*
X14010001Y8880000D01*
X14530000Y8920000D02*
X14580000Y8870000D01*
Y8770000D02*
Y8870000D01*
X14470000Y8660000D02*
X14580000Y8770000D01*
X14410001Y8660000D02*
X14470000D01*
X8950000Y3970000D02*
X9402114D01*
X9439614Y4007500D01*
X10690325D01*
X11042824Y4360000D01*
X13267502Y8368000D02*
Y8662498D01*
X13200000Y8730000D02*
X13267502Y8662498D01*
X13030000Y8730000D02*
X13200000D01*
X12953810Y8806190D02*
X13030000Y8730000D01*
X12886502Y8622000D02*
Y9015312D01*
Y8572000D02*
Y8622000D01*
X13267502Y8318000D02*
Y8368000D01*
X10830000Y2720000D02*
X10850000Y2740000D01*
X10830000Y2150000D02*
Y2720000D01*
Y2150000D02*
X10870000Y2110000D01*
X9530000Y2227500D02*
X9562500Y2260000D01*
X9337500Y2227500D02*
X9530000D01*
X9310000Y2200000D02*
X9337500Y2227500D01*
X9562500Y2260000D02*
Y2445000D01*
X9632500Y2515000D02*
X10545000D01*
X9562500Y2445000D02*
X9632500Y2515000D01*
X10545000D02*
X10560000Y2500000D01*
X13277499Y2794675D02*
X13512500Y3029676D01*
X13277499Y2755325D02*
Y2794675D01*
X13260001Y2737825D02*
X13277499Y2755325D01*
X13235001Y2712500D02*
X13260001Y2737500D01*
X13145000Y2712500D02*
X13235001D01*
X13120000Y2737500D02*
X13145000Y2712500D01*
X13260001Y2737500D02*
Y2737825D01*
X13120000Y2737500D02*
Y2780000D01*
X13512500Y3029676D02*
Y4267500D01*
X11904675Y7697500D02*
X12047500Y7554675D01*
X11042824Y4360000D02*
X11450000D01*
X10431997Y4262500D02*
X12910001Y6740503D01*
X9428002Y4262500D02*
X10431997D01*
X9090503Y4600000D02*
X9428002Y4262500D01*
X10417500Y4297500D02*
X12875000Y6755000D01*
X9442500Y4297500D02*
X10417500D01*
X9040000Y4700000D02*
X9442500Y4297500D01*
X12910001Y6740503D02*
Y7619497D01*
X12875000Y6755000D02*
Y7605000D01*
X1360000Y15437175D02*
X2745000Y14052174D01*
X10367175Y7210000D02*
X11000000Y6577175D01*
X12047500Y7270325D02*
Y7554675D01*
X11977175Y7200000D02*
X12047500Y7270325D01*
X11970000Y7200000D02*
X11977175D01*
X10320000Y7210000D02*
X10367175D01*
X11000000Y6420000D02*
Y6577175D01*
X14400000Y8660000D02*
X14410001D01*
X10480000Y7690000D02*
X10902500Y8112500D01*
X8425000Y7587500D02*
X8467500Y7545000D01*
Y6112500D02*
Y7545000D01*
Y6112500D02*
X8480000Y6100000D01*
X10695000Y6055000D02*
X10772500Y5977500D01*
Y5727500D02*
Y5977500D01*
Y5727500D02*
X11000000Y5500000D01*
X9624792Y6055000D02*
X10695000D01*
X9622292Y6052500D02*
X9624792Y6055000D01*
X8357500Y6052500D02*
X9622292D01*
X8000000Y6410000D02*
X8357500Y6052500D01*
X12602500Y6605000D02*
Y6690000D01*
X12827499Y6915000D01*
X12275000Y8205000D02*
X12875000Y7605000D01*
X12310000Y8219497D02*
X12910001Y7619497D01*
X13220000Y2786673D02*
X13477499Y3044173D01*
X13220000Y2780000D02*
Y2786673D01*
X13477499Y3044173D02*
Y4232500D01*
X12560000Y5150000D02*
X13477499Y4232500D01*
X12250000Y5150000D02*
X12560000D01*
X10887175Y3090000D02*
X11477175Y2500000D01*
X10280000Y7120000D02*
Y7130000D01*
Y7120000D02*
X10720000Y6680000D01*
X10270000Y7130000D02*
X10280000D01*
X10720000Y6490000D02*
Y6680000D01*
X10392426Y12939999D02*
X11260000D01*
X11420000Y6120000D02*
X11447175D01*
X11547500Y6019675D01*
Y5830325D02*
Y6019675D01*
X11117175Y5400000D02*
X11547500Y5830325D01*
X9707678Y5400000D02*
X11117175D01*
X9455178Y5652500D02*
X9707678Y5400000D01*
X8737500Y5652500D02*
X9455178D01*
X8480000Y5910000D02*
X8737500Y5652500D01*
X11019675Y5452500D02*
X11447175Y5880000D01*
X9704675Y5452500D02*
X11019675D01*
X9157175Y6000000D02*
X9704675Y5452500D01*
X11447175Y5880000D02*
X11480000D01*
X8480000Y6000000D02*
X9157175D01*
X8630000Y5350000D02*
X11000000D01*
X8480000Y5500000D02*
X8630000Y5350000D01*
X8000000Y6410000D02*
Y6870000D01*
X7052500Y5622500D02*
X7080000Y5650000D01*
X7052500Y4998003D02*
Y5622500D01*
Y4998003D02*
X8450503Y3600000D01*
X8520000D01*
X8452500Y3647500D02*
X8807500D01*
X8900000Y3740000D01*
X7220000Y5650000D02*
X7315000Y5745000D01*
X7560000D01*
X7680000Y5625000D01*
Y4510503D02*
Y5625000D01*
Y4510503D02*
X8490503Y3700000D01*
X8520000D01*
X9087825Y3740000D02*
X9180325Y3647500D01*
X8900000Y3740000D02*
X9087825D01*
X10063003Y3632500D02*
X10183003Y3752500D01*
X9603525Y3632500D02*
X10063003D01*
X9588525Y3647500D02*
X9603525Y3632500D01*
X9180325Y3647500D02*
X9588525D01*
X10503505Y3752500D02*
X10941005Y4190000D01*
X10183003Y3752500D02*
X10503505D01*
X7260000Y5780000D02*
X7580000D01*
X7720000Y5640000D01*
Y4520000D02*
Y5640000D01*
Y4520000D02*
X8440000Y3800000D01*
X8520000D01*
X13339999Y1980000D02*
X13370000Y2010000D01*
X11110000Y1980000D02*
X13339999D01*
X11090000Y2000000D02*
X11110000Y1980000D01*
X11840000Y3810000D02*
X12440000D01*
X12864000Y2230000D02*
X12991000Y2103000D01*
X12410000Y2230000D02*
X12864000D01*
X12350000Y2290000D02*
X12410000Y2230000D01*
X12350000Y2290000D02*
Y2490000D01*
X12260000Y2580000D02*
X12350000Y2490000D01*
X11620000Y2580000D02*
X12260000D01*
X11340000Y2290000D02*
Y2390000D01*
X11170000Y2560000D02*
X11340000Y2390000D01*
X11170000Y2560000D02*
Y2740000D01*
X8840000Y3860000D02*
X8950000Y3970000D01*
X8840000Y3800000D02*
Y3860000D01*
X10941005Y4190000D02*
X11550000D01*
X10197500Y3717500D02*
X10518003D01*
X10850000Y4000000D02*
X11230000D01*
X10532500Y3682500D02*
X10850000Y4000000D01*
X10211997Y3682500D02*
X10532500D01*
X8420000Y3170000D02*
X8447500Y3142500D01*
X9832500D01*
X11230000Y4000000D02*
X11320000Y4090000D01*
X11580000D01*
X11730000Y4240000D01*
X7200000Y8030000D02*
X7270000D01*
X9920000Y3440000D02*
X10197500Y3717500D01*
X9920000Y3350000D02*
Y3440000D01*
X12275000Y9074497D02*
X12445502Y9245000D01*
X12310000Y9060000D02*
X12460000Y9210000D01*
X11477175Y2500000D02*
X12190000D01*
X12230000Y2460000D01*
X11400000Y2230000D02*
X11860000D01*
X11090000Y2000000D02*
Y2520000D01*
X13370000Y2010000D02*
Y2250000D01*
X11340000Y2290000D02*
X11400000Y2230000D01*
X11050000Y2560000D02*
Y2740000D01*
Y2560000D02*
X11090000Y2520000D01*
X11550000Y2650000D02*
X11620000Y2580000D01*
X12953810Y8806190D02*
Y8917380D01*
X12886502Y9015312D02*
X12951190Y9080000D01*
X12230000Y2440000D02*
Y2460000D01*
X9040000Y4600000D02*
X9090503D01*
X12275000Y8205000D02*
Y9074497D01*
X12310000Y8219497D02*
Y9060000D01*
X7910000Y12050000D02*
X9502426D01*
X10392426Y12939999D01*
X2860000Y12835001D02*
X2865000Y12830000D01*
X2915000Y12839999D02*
X2925000Y12830000D01*
X2910000Y13220000D02*
X2915000Y13214999D01*
Y12839999D02*
Y13214999D01*
X11640000Y7700000D02*
Y7960000D01*
X2860000Y12835001D02*
Y14036169D01*
X2805000Y12830000D02*
Y14041672D01*
X1510000Y15336671D02*
X2805000Y14041672D01*
X1660000Y15236169D02*
X2860000Y14036169D01*
X2745000Y12830000D02*
Y14052174D01*
X2950000Y12880000D02*
Y14050000D01*
Y12880000D02*
X3000000Y12830000D01*
X11682500Y4241997D02*
Y4762280D01*
X11450000Y2760000D02*
X11460000Y2770000D01*
X11340000Y3790000D02*
X11400000D01*
X11460000Y3730000D01*
Y2770000D02*
Y3730000D01*
X12860001Y4920000D02*
X13512500Y4267500D01*
X13172501Y6500000D02*
X13300000Y6627500D01*
X13172501Y6359675D02*
Y6500000D01*
X12860001Y4920000D02*
Y6047175D01*
X13172501Y6359675D01*
X11682500Y4762280D02*
X12730000Y5809780D01*
Y6080000D01*
X7160000Y4940000D02*
X8452500Y3647500D01*
X7160000Y4940000D02*
Y7990000D01*
X7200000Y8030000D01*
X11260000Y12939999D02*
X11280000Y12920000D01*
X1810000Y15135667D02*
X2910000Y14035667D01*
X10518003Y3717500D02*
X10943002Y4142500D01*
X11583003D01*
X11682500Y4241997D01*
D55*
X8660000Y8530000D02*
X8880000Y8750000D01*
X8270000Y8530000D02*
X8660000D01*
X8160000Y8640000D02*
X8270000Y8530000D01*
X8160000Y8640000D02*
Y8680000D01*
X9466140Y8795000D02*
X9930000Y8331140D01*
X8875000Y8795000D02*
X9466140D01*
X8670000Y9000000D02*
X8875000Y8795000D01*
X9447500Y8750000D02*
X9885000Y8312500D01*
X8880000Y8750000D02*
X9447500D01*
X8210000Y9000000D02*
X8670000D01*
X8160000Y8950000D02*
X8210000Y9000000D01*
X8160000Y8910000D02*
Y8950000D01*
X11760000Y5900000D02*
Y5910607D01*
X9885000Y7785607D02*
X11760000Y5910607D01*
X9885000Y7785607D02*
Y8312500D01*
X9930000Y7804246D02*
X11830000Y5904246D01*
Y5900000D02*
Y5904246D01*
X9930000Y7804246D02*
Y8331140D01*
D56*
X11062500Y11842500D02*
X12422500D01*
X7172500Y8397500D02*
Y9020000D01*
X7350000Y8220000D02*
X7380000D01*
X7172500Y8397500D02*
X7350000Y8220000D01*
X11062500Y11835000D02*
Y11842500D01*
X12422500D02*
X12490000Y11910000D01*
Y12100000D01*
X12350000Y12385000D02*
X12490000Y12245000D01*
Y12100000D02*
Y12245000D01*
X12107500Y12385000D02*
X12110000D01*
X12350000D01*
X11062500Y11715000D02*
Y11817500D01*
X10632500Y11987500D02*
X10910000D01*
X11062500Y11835000D01*
D57*
X13739998Y8037998D02*
X14680000D01*
D58*
X5167999Y9734501D02*
Y9734502D01*
Y9734501D02*
X5765000Y9137500D01*
X5160000Y11395000D02*
X5517500D01*
X5765000Y1855000D02*
Y9137500D01*
Y1855000D02*
X6160000Y1460000D01*
X8426050D01*
X5517500Y11395000D02*
X5960000Y10952500D01*
Y1960000D02*
Y10952500D01*
Y1960000D02*
X6270000Y1650000D01*
X8797500D01*
D59*
X7145000Y2105000D02*
X7150000Y2110000D01*
X7147500Y2105000D02*
X7282500Y1970000D01*
X10000000D02*
X10070000Y2040000D01*
X7282500Y1970000D02*
X10000000D01*
X7145000Y2105000D02*
X7147500D01*
X10070000Y2040000D02*
Y2440000D01*
X11730000Y4420000D02*
Y4760000D01*
X12780000Y6140000D02*
X12797700Y6122300D01*
X7390000Y2520000D02*
X9140000D01*
X7280000Y2410000D02*
X7390000Y2520000D01*
X7280000Y2280000D02*
Y2410000D01*
X7230000Y2230000D02*
X7280000Y2280000D01*
X7022000Y2230000D02*
X7230000D01*
X6895000Y2357000D02*
X7022000Y2230000D01*
X12797700Y5827700D02*
Y6122300D01*
X11730000Y4760000D02*
X12797700Y5827700D01*
D60*
X7954000Y8754000D02*
X8497589D01*
X7939089Y8790000D02*
X8512500D01*
X7982500Y4457500D02*
X7990000Y4465000D01*
X7982500Y4457500D02*
Y4465000D01*
Y4516589D01*
X8550000Y8630000D02*
Y8701589D01*
X8497589Y8754000D02*
X8550000Y8701589D01*
X7560000Y8360000D02*
X7954000Y8754000D01*
X8512500Y8790000D02*
X8610000Y8692500D01*
X7524000Y8374911D02*
X7939089Y8790000D01*
X7524000Y6281228D02*
Y8374911D01*
X7560000Y6296140D02*
Y8360000D01*
X7932500Y4522500D02*
X7937499D01*
X7524000Y6281228D02*
X7885000Y5920228D01*
X7560000Y6296140D02*
X7921000Y5935140D01*
X7982500Y4516589D02*
X7983044Y4517133D01*
X7921000Y4609000D02*
Y5935140D01*
Y4609000D02*
X7983044Y4546956D01*
Y4517133D02*
Y4546956D01*
X7885000Y4594089D02*
Y5920228D01*
Y4594089D02*
X7932500Y4546589D01*
Y4525000D02*
Y4546589D01*
X7982500Y4465000D02*
X7985000D01*
X7990000D01*
D61*
X13102000Y8572000D02*
X13140501D01*
X12760500Y8318000D02*
Y8370501D01*
X12759502Y8318000D02*
X12760500D01*
X9109000Y4059000D02*
X10587411D01*
X9015000Y4095000D02*
X10572500D01*
X13006500Y6710052D02*
Y7669686D01*
X12596502Y8079684D02*
X13006500Y7669686D01*
X12596502Y8079684D02*
Y8353498D01*
X12582500Y8367500D02*
X12596502Y8353498D01*
X12515000Y8367500D02*
X12582500D01*
X12617500Y8556998D02*
X12632502Y8572000D01*
X12617500Y8383411D02*
Y8556998D01*
Y8383411D02*
X12632502Y8368409D01*
Y8094596D02*
Y8368409D01*
Y8094596D02*
X13025500Y7701598D01*
X12505502Y8318000D02*
X12507502Y8320000D01*
X13156000Y6627589D02*
Y8424912D01*
X13077499Y8503411D02*
X13156000Y8424912D01*
X13077499Y8503411D02*
Y8547500D01*
X13120000Y6642500D02*
Y8410000D01*
X13050000Y8480000D02*
X13120000Y8410000D01*
X12870000Y8480000D02*
X13050000D01*
X10572500Y4095000D02*
X13120000Y6642500D01*
X12760500Y8370501D02*
X12870000Y8480000D01*
X13077499Y8547500D02*
X13102000Y8572000D01*
X12760000Y8317500D02*
X12760500Y8318000D01*
X8792500Y4155000D02*
X8840000Y4202500D01*
X10498948D01*
X8857500Y4145000D02*
X8862500Y4150000D01*
X10498948Y4202500D02*
X13006500Y6710052D01*
X13025500Y7701598D02*
X13025902D01*
X9050000Y4030000D02*
X9080000D01*
X9109000Y4059000D01*
X9010000Y4090000D02*
X9015000Y4095000D01*
X8862500Y4150000D02*
X8879000Y4166500D01*
X10513859D01*
X13042500Y6695141D01*
Y7684598D01*
X13025700Y7701397D02*
X13042500Y7684598D01*
X13025700Y7701397D02*
Y7701397D01*
X13025902Y7701598D01*
X10587411Y4059000D02*
X13156000Y6627589D01*
D64*
X11362500Y11530000D02*
Y11695000D01*
X11200000Y11367500D02*
X11362500Y11530000D01*
X10287500Y11367500D02*
X11200000D01*
X7949999Y13032500D02*
X11010000D01*
X7677500Y12760000D02*
X7949999Y13032500D01*
X11010000D02*
X11062500Y13085001D01*
X7677500Y12325000D02*
Y12760000D01*
X10208965Y12802499D02*
X10378965Y12972501D01*
X9399926Y12802499D02*
X10208965D01*
X7957574Y12760000D02*
X7972574Y12745000D01*
X7920000Y12760000D02*
X7957574D01*
X9342426Y12745000D02*
X9399926Y12802499D01*
X7972574Y12745000D02*
X9342426D01*
X10196538Y12832500D02*
X10366538Y13002499D01*
X9387500Y12832500D02*
X10196538D01*
X9330000Y12775000D02*
X9387500Y12832500D01*
X7892500Y12807500D02*
X7952500D01*
X7860000Y12775000D02*
X7892500Y12807500D01*
X7860000Y12775000D02*
Y12777500D01*
X7952500Y12807500D02*
X7985000Y12775000D01*
X9330000D01*
X10342500Y10602500D02*
X10357500Y10617500D01*
X11132500Y11440000D02*
X11272500Y11580000D01*
X10180000Y11440000D02*
X11132500D01*
X11362500Y11695000D02*
Y11700000D01*
X10180000Y11260000D02*
X10287500Y11367500D01*
X7855000Y12007500D02*
X7902500Y11960000D01*
X7855000Y12007500D02*
Y12147500D01*
X7677500Y12325000D02*
X7855000Y12147500D01*
X9322500Y11440000D02*
X10180000D01*
X9465000Y11630000D02*
X10165000D01*
X9467500Y11812500D02*
X10170000D01*
X9475000Y12002500D02*
X10162500D01*
X9457500Y13125000D02*
X10180000D01*
X9462500Y13300000D02*
X10180000D01*
X9465000Y11260000D02*
X10180000D01*
X10380000Y12000000D02*
X10450000Y12070000D01*
X10390000Y10192500D02*
Y11150000D01*
X10420000Y11180000D01*
X11172500Y12907500D02*
X11940000Y12140000D01*
X10430000Y12850000D02*
Y12892500D01*
X10445000Y12907500D01*
X11172500D01*
X11160074Y12877499D02*
X11960074Y12077500D01*
X10540000Y12850000D02*
X10567500Y12877499D01*
X11160074D01*
X10267500Y12550000D02*
Y12735000D01*
Y12550000D02*
X10437500Y12380000D01*
X10378965Y12972501D02*
X11347500D01*
X11375000Y12945000D01*
X10366538Y13002499D02*
X11392500D01*
X11455000Y12939999D01*
Y12937500D02*
Y12939999D01*
X10437500Y12380000D02*
X10682500D01*
X10450000Y12070000D02*
X10682500D01*
X10685000D01*
X12385001Y11574998D02*
Y11635002D01*
X12477500Y11727500D01*
X12542500D01*
X11960074Y12077500D02*
X12055000D01*
X10345000Y10147500D02*
X10390000Y10192500D01*
X11272500Y11580000D02*
Y11697500D01*
X10357500Y10617500D02*
Y11240000D01*
X11375000Y12925000D02*
Y12945000D01*
X9367500Y12930000D02*
X10182500D01*
X11940000Y12140000D02*
X12052500D01*
X10180000Y12000000D02*
X10380000D01*
D65*
X10459999Y17210001D02*
Y17510001D01*
X10059999Y17210001D02*
Y17510001D01*
X9659999Y17210001D02*
Y17510001D01*
X9260000Y17210001D02*
Y17510001D01*
X8860000Y17210001D02*
Y17510001D01*
X8460000Y17210001D02*
Y17510001D01*
X8060000Y17210001D02*
X10460000D01*
X8060000D02*
Y17510001D01*
X10460000D01*
X8060000D02*
X10460000D01*
X8060000Y17210001D02*
Y17510001D01*
Y17210001D02*
X10460000D01*
X8460000D02*
Y17510001D01*
X8860000Y17210001D02*
Y17510001D01*
X9260000Y17210001D02*
Y17510001D01*
X9659999Y17210001D02*
Y17510001D01*
X10059999Y17210001D02*
Y17510001D01*
X10459999Y17210001D02*
Y17510001D01*
X8060000D02*
X10460000D01*
X8060000Y17210001D02*
Y17510001D01*
Y17210001D02*
X10460000D01*
X8460000D02*
Y17510001D01*
X8860000Y17210001D02*
Y17510001D01*
X9260000Y17210001D02*
Y17510001D01*
X9659999Y17210001D02*
Y17510001D01*
X10059999Y17210001D02*
Y17510001D01*
X10459999Y17210001D02*
Y17510001D01*
X8060000D02*
X10460000D01*
X8060000Y17210001D02*
Y17510001D01*
Y17210001D02*
X10460000D01*
X8460000D02*
Y17510001D01*
X8860000Y17210001D02*
Y17510001D01*
X9260000Y17210001D02*
Y17510001D01*
X9659999Y17210001D02*
Y17510001D01*
X10059999Y17210001D02*
Y17510001D01*
X10459999Y17210001D02*
Y17510001D01*
X8060000D02*
X10460000D01*
X8060000Y17210001D02*
Y17510001D01*
Y17210001D02*
X10460000D01*
X8460000D02*
Y17510001D01*
X8860000Y17210001D02*
Y17510001D01*
X9260000Y17210001D02*
Y17510001D01*
X9659999Y17210001D02*
Y17510001D01*
X10059999Y17210001D02*
Y17510001D01*
X10459999Y17210001D02*
Y17510001D01*
D67*
X13750000Y12980000D02*
D03*
X8150000Y9440000D02*
D03*
X8780000D02*
D03*
X14110001Y12980000D02*
D03*
X14330000Y9330000D02*
D03*
D68*
X8419500Y490000D02*
D03*
X5460000D02*
D03*
X5079000D02*
D03*
D69*
X8800500D02*
D03*
X5841000D02*
D03*
D70*
X960000Y3760000D02*
D03*
Y3510000D02*
D03*
X10729998Y8369998D02*
D03*
Y8115998D02*
D03*
X11079998Y8369998D02*
D03*
Y8115998D02*
D03*
X1360000Y4910000D02*
D03*
Y3910000D02*
D03*
X8580001Y13660001D02*
D03*
Y14259998D02*
D03*
X10140001Y13659998D02*
D03*
Y14260002D02*
D03*
D71*
X4160000Y660000D02*
D03*
X3410000Y1960000D02*
D03*
Y2710000D02*
D03*
X2910000D02*
D03*
X2160000D02*
D03*
X4710000Y5710000D02*
D03*
Y6460000D02*
D03*
D72*
X4160000Y2160000D02*
D03*
D73*
X2460000Y910000D02*
D03*
X3160000D02*
D03*
D74*
X12018498Y8312503D02*
D03*
D75*
X11518498D02*
D03*
D76*
X3385000Y3809999D02*
D03*
X2135000D02*
D03*
X4110002Y5335002D02*
D03*
Y6585002D02*
D03*
X7060000Y7010000D02*
D03*
X8560000D02*
D03*
X4719998Y8960001D02*
D03*
Y9710002D02*
D03*
X8858997Y8195001D02*
D03*
X9058997D02*
D03*
X9309009D02*
D03*
X13394502Y8622000D02*
D03*
X13140501D02*
D03*
X12886502D02*
D03*
X12632502D02*
D03*
X12759502Y8368000D02*
D03*
X13013503D02*
D03*
X13267502D02*
D03*
D77*
X7358000Y7732500D02*
D03*
Y8447500D02*
D03*
D78*
X7280000Y8025000D02*
D03*
Y8155000D02*
D03*
X7380000Y8220000D02*
D03*
Y8090000D02*
D03*
Y7960000D02*
D03*
D79*
X5134999Y4277000D02*
D03*
Y4531000D02*
D03*
Y4785000D02*
D03*
D80*
Y4023000D02*
D03*
D81*
X2800006Y16080009D02*
D03*
X3054001Y15825999D02*
D03*
Y16334000D02*
D03*
X2546001D02*
D03*
Y15825999D02*
D03*
D82*
X660000Y2660000D02*
D03*
X11210000Y17160001D02*
D03*
X3709998Y17159999D02*
D03*
X14260001Y2660000D02*
D03*
X14260001Y660000D02*
D03*
X660000D02*
D03*
D83*
X8609010Y8195001D02*
D03*
X12505502Y8368000D02*
D03*
D84*
X9618000Y7925001D02*
D03*
X8302000Y7924999D02*
D03*
D85*
X10729998Y8623998D02*
D03*
X11079998D02*
D03*
D86*
X10389998Y8109998D02*
D03*
X6387000Y2103000D02*
D03*
D87*
X10389998Y8363998D02*
D03*
X6387000Y2357000D02*
D03*
X6641000Y2103000D02*
D03*
Y2357000D02*
D03*
X6895000Y2103000D02*
D03*
Y2357000D02*
D03*
X7149000Y2103000D02*
D03*
Y2357000D02*
D03*
X7403000Y2103000D02*
D03*
Y2357000D02*
D03*
X7657000Y2103000D02*
D03*
Y2357000D02*
D03*
X7911000Y2103000D02*
D03*
Y2357000D02*
D03*
X8165000Y2103000D02*
D03*
Y2357000D02*
D03*
X8419000Y2103000D02*
D03*
Y2357000D02*
D03*
X8673000Y2103000D02*
D03*
Y2357000D02*
D03*
X8927000Y2103000D02*
D03*
Y2357000D02*
D03*
X9181000Y2103000D02*
D03*
Y2357000D02*
D03*
X9435000Y2103000D02*
D03*
Y2357000D02*
D03*
X9689000Y2103000D02*
D03*
Y2357000D02*
D03*
X9943000Y2103000D02*
D03*
Y2357000D02*
D03*
X10197000Y2103000D02*
D03*
Y2357000D02*
D03*
X10451000Y2103000D02*
D03*
Y2357000D02*
D03*
X10705000Y2103000D02*
D03*
Y2357000D02*
D03*
X10959000Y2103000D02*
D03*
Y2357000D02*
D03*
X11213000Y2103000D02*
D03*
Y2357000D02*
D03*
X11467000Y2103000D02*
D03*
Y2357000D02*
D03*
X11721000Y2103000D02*
D03*
Y2357000D02*
D03*
X11975000Y2103000D02*
D03*
Y2357000D02*
D03*
X12229000Y2103000D02*
D03*
Y2357000D02*
D03*
X12483000Y2103000D02*
D03*
Y2357000D02*
D03*
X12737000Y2103000D02*
D03*
Y2357000D02*
D03*
X12991000Y2103000D02*
D03*
Y2357000D02*
D03*
X13245000Y2103000D02*
D03*
Y2357000D02*
D03*
X13499001Y2103000D02*
D03*
Y2357000D02*
D03*
X13753000Y2103000D02*
D03*
Y2357000D02*
D03*
D88*
X12160001Y8037998D02*
D03*
X13739998D02*
D03*
D89*
X12378502Y7733000D02*
D03*
X13521503D02*
D03*
D90*
X2598000Y9980000D02*
D03*
X2852000Y8964000D02*
D03*
X3106000D02*
D03*
X3360000D02*
D03*
X3614000D02*
D03*
Y9980000D02*
D03*
X3360000D02*
D03*
X3106000D02*
D03*
X2852000D02*
D03*
D91*
X2598000Y8964000D02*
D03*
D92*
X13180000Y11285003D02*
D03*
X13180000Y11535005D02*
D03*
X13180000Y11410001D02*
D03*
Y11660003D02*
D03*
Y11785002D02*
D03*
Y11910000D02*
D03*
X13179997Y12035002D02*
D03*
Y12160002D02*
D03*
Y12285002D02*
D03*
Y12410002D02*
D03*
D93*
X14680000Y8040000D02*
D03*
X7560000Y485000D02*
D03*
X6990000Y11820000D02*
D03*
X5167999Y9734502D02*
D03*
X6400000Y10900000D02*
D03*
X5085000Y10910000D02*
D03*
X13010001Y15160001D02*
D03*
X13110001Y14010001D02*
D03*
X2710000Y7310000D02*
D03*
X8426050Y1460000D02*
D03*
X9660000Y1160000D02*
D03*
X7610000D02*
D03*
X9480000Y3900000D02*
D03*
X13380000Y3130000D02*
D03*
X11760000Y13630000D02*
D03*
X13620000Y16520000D02*
D03*
X14010001Y15560001D02*
D03*
X13260004Y15400003D02*
D03*
X8585000Y15735001D02*
D03*
X9520000Y7430000D02*
D03*
X5530000Y9860000D02*
D03*
X9760000Y3900000D02*
D03*
X9620000Y3260000D02*
D03*
X11070000Y10905000D02*
D03*
X3150000Y15150000D02*
D03*
X2800000Y14680000D02*
D03*
X2630000D02*
D03*
X5050000Y12860001D02*
D03*
X5727500Y12030000D02*
D03*
X10912500Y15527499D02*
D03*
X2350000Y1210000D02*
D03*
X2560000D02*
D03*
Y610000D02*
D03*
X2350000D02*
D03*
X3050000Y1210000D02*
D03*
X3260000D02*
D03*
Y610000D02*
D03*
X3050000D02*
D03*
X7810000Y12389999D02*
D03*
X5167999Y9310000D02*
D03*
X6360000Y11360000D02*
D03*
X6460000Y15160001D02*
D03*
X8797500Y1650000D02*
D03*
X5160000Y11395000D02*
D03*
X10135000Y15747495D02*
D03*
X10867499Y14810001D02*
D03*
X10872499Y15060001D02*
D03*
X10720000Y15210001D02*
D03*
X14310001Y13610001D02*
D03*
X5860000Y14295003D02*
D03*
D94*
X8160000Y8680000D02*
D03*
Y8910000D02*
D03*
X14670000Y8310000D02*
D03*
X7421500Y6572511D02*
D03*
X6852489D02*
D03*
X9000000Y14575000D02*
D03*
X9200000D02*
D03*
X9550000D02*
D03*
X9750000D02*
D03*
X7760000Y950000D02*
D03*
X13670000Y13255000D02*
D03*
X13820000D02*
D03*
X13670000Y12705000D02*
D03*
X13820000D02*
D03*
X14030000Y13255000D02*
D03*
X14180000D02*
D03*
X14030000Y12705000D02*
D03*
X14180000D02*
D03*
X8070000Y9715000D02*
D03*
X8220000D02*
D03*
X8070000Y9165000D02*
D03*
X8220000D02*
D03*
X8700000Y9715000D02*
D03*
X8850000D02*
D03*
X8700000Y9165000D02*
D03*
X8850000D02*
D03*
X14400000Y9055000D02*
D03*
X14250000D02*
D03*
X14400000Y9605000D02*
D03*
X14250000D02*
D03*
X6110000Y4600500D02*
D03*
X6650000D02*
D03*
X6110000Y3900000D02*
D03*
X6645000Y3905000D02*
D03*
X5675000Y12650000D02*
D03*
X13210001Y7630000D02*
D03*
X4810000Y10160000D02*
D03*
Y10310000D02*
D03*
X4160000D02*
D03*
X4160000Y10160000D02*
D03*
X14660001Y8910000D02*
D03*
X910000Y13960001D02*
D03*
X10560000Y9110000D02*
D03*
X11210000D02*
D03*
X11385000Y11060000D02*
D03*
X11530000Y11070000D02*
D03*
X12080000Y6270000D02*
D03*
X12170000D02*
D03*
X6650000Y4060000D02*
D03*
X7340000Y2660000D02*
D03*
X7250000D02*
D03*
X9880000Y2600000D02*
D03*
X2810000Y12160000D02*
D03*
Y11960000D02*
D03*
Y12060000D02*
D03*
X7460000Y2685000D02*
D03*
X10685000Y3045000D02*
D03*
X1910000Y16060001D02*
D03*
X1760000D02*
D03*
X1310000D02*
D03*
X1460000D02*
D03*
X1610000D02*
D03*
Y15685001D02*
D03*
X1910000D02*
D03*
X1760000D02*
D03*
X1460000D02*
D03*
X1310000D02*
D03*
X7170000Y9020000D02*
D03*
X8550000Y8630000D02*
D03*
X8610000Y8690000D02*
D03*
X7600000Y8590001D02*
D03*
X6110000Y5360000D02*
D03*
X9623200Y3680000D02*
D03*
X8110000Y5032500D02*
D03*
X2660000Y13560001D02*
D03*
X2437500D02*
D03*
X2247500D02*
D03*
X2087500D02*
D03*
X11930000Y15020000D02*
D03*
X12270000D02*
D03*
X7620000Y13739999D02*
D03*
X10782500Y5585000D02*
D03*
X10602500D02*
D03*
X11325000Y10905000D02*
D03*
X12557500Y10980000D02*
D03*
X8792500Y4150000D02*
D03*
X8862500D02*
D03*
X8937500Y4255000D02*
D03*
X9040000Y4520000D02*
D03*
X9120000Y4400000D02*
D03*
X11830000Y5782500D02*
D03*
X12267500Y5597500D02*
D03*
X11030000Y7050001D02*
D03*
X8045000Y2980000D02*
D03*
X7932500Y4522500D02*
D03*
X6700000Y14280000D02*
D03*
X12040000Y6630000D02*
D03*
X11890000D02*
D03*
X11580000Y7120000D02*
D03*
X11060000Y7700000D02*
D03*
X11970000Y7200000D02*
D03*
X10610000Y6440000D02*
D03*
X11990000Y6770000D02*
D03*
Y6972500D02*
D03*
Y6837500D02*
D03*
Y6905000D02*
D03*
Y7040000D02*
D03*
X12290000Y7130000D02*
D03*
X11000000Y6420000D02*
D03*
X11650000Y6640000D02*
D03*
X1620000Y14780000D02*
D03*
X1200000D02*
D03*
X1490000D02*
D03*
X1350000D02*
D03*
X14030000Y8570000D02*
D03*
X14410001Y8660000D02*
D03*
X13900000Y2960000D02*
D03*
Y3060000D02*
D03*
Y3160000D02*
D03*
Y3260000D02*
D03*
Y3360000D02*
D03*
Y3460000D02*
D03*
Y3560000D02*
D03*
Y3660000D02*
D03*
Y3760000D02*
D03*
Y3860000D02*
D03*
Y3960000D02*
D03*
Y4060000D02*
D03*
Y4160000D02*
D03*
Y4260000D02*
D03*
Y4360000D02*
D03*
Y4460000D02*
D03*
X10815000Y7535000D02*
D03*
X12507500Y2927500D02*
D03*
X12989999Y5532500D02*
D03*
X11512499Y7535000D02*
D03*
X12140000Y2637500D02*
D03*
X8425000Y7587500D02*
D03*
X12937500Y6282500D02*
D03*
X13452499Y6630000D02*
D03*
X13300000D02*
D03*
X12602500Y6605000D02*
D03*
X12827499Y6915000D02*
D03*
X12800000Y7097500D02*
D03*
X12440000Y7130000D02*
D03*
X12630000D02*
D03*
X13439999Y6840000D02*
D03*
X13289999D02*
D03*
X11450000Y2760000D02*
D03*
X12510000Y5030000D02*
D03*
X12800000Y5450000D02*
D03*
X12600000Y5920000D02*
D03*
X13110001Y5950000D02*
D03*
X8830000Y6830000D02*
D03*
X10280000Y7130000D02*
D03*
X10320000Y7210000D02*
D03*
X10750000Y7130000D02*
D03*
X10980000Y7207500D02*
D03*
X9457500Y12480000D02*
D03*
X12020000Y14150000D02*
D03*
X11292500Y13987500D02*
D03*
X10900000Y13905000D02*
D03*
X11500000Y14422501D02*
D03*
X11575000Y14147501D02*
D03*
X11882500Y13352499D02*
D03*
X7902500Y11960000D02*
D03*
X11062500Y13085001D02*
D03*
X9265000Y12820000D02*
D03*
X11275000Y12920000D02*
D03*
X10947500Y12622500D02*
D03*
X10685000Y12620000D02*
D03*
X4580000Y10010000D02*
D03*
X4180000Y9820000D02*
D03*
X4050000D02*
D03*
X3970000Y8865000D02*
D03*
X4105000D02*
D03*
X11420000Y6120000D02*
D03*
X8600000Y6430000D02*
D03*
X11290000Y6130000D02*
D03*
X11480000Y5880000D02*
D03*
X11210000Y5420000D02*
D03*
X11000000Y5350000D02*
D03*
X8480000Y5500000D02*
D03*
Y5600000D02*
D03*
Y5700000D02*
D03*
Y5800000D02*
D03*
Y5910000D02*
D03*
Y6000000D02*
D03*
X9060000Y3890000D02*
D03*
X10720000Y6490000D02*
D03*
X10360000Y7490000D02*
D03*
X11550000Y11470000D02*
D03*
X10480000Y7690000D02*
D03*
X8480000Y6100000D02*
D03*
X8600000Y6570000D02*
D03*
X8910000Y6150000D02*
D03*
X9150000Y6440000D02*
D03*
X10170000Y6130000D02*
D03*
X11020000Y6110000D02*
D03*
X7240000Y6560000D02*
D03*
X8130000Y6530000D02*
D03*
X8000000Y6870000D02*
D03*
X11000000Y5500000D02*
D03*
X8520000Y3700000D02*
D03*
X7260000Y5780000D02*
D03*
X7430000Y5270000D02*
D03*
X7270000Y5180000D02*
D03*
X6650000Y5300000D02*
D03*
X6510000Y5310000D02*
D03*
X7500000Y5650000D02*
D03*
X7360000D02*
D03*
X7220000D02*
D03*
X7080000D02*
D03*
X6930000D02*
D03*
X6790000D02*
D03*
X12780000Y6140000D02*
D03*
X12730000Y6087500D02*
D03*
X13660001Y5810000D02*
D03*
X7540000Y5270000D02*
D03*
X7320000D02*
D03*
X7210000D02*
D03*
X7100000Y5180000D02*
D03*
X6990000Y5270000D02*
D03*
X6920000Y5180000D02*
D03*
X6840000D02*
D03*
X11700000Y2650000D02*
D03*
X11280000Y2520000D02*
D03*
X11400000Y2690000D02*
D03*
X10950000Y2620000D02*
D03*
X11170000Y2230000D02*
D03*
X10580000D02*
D03*
X12250000Y5150000D02*
D03*
X13330000Y2780000D02*
D03*
X12440000Y3810000D02*
D03*
X12989999Y2780000D02*
D03*
X13220000D02*
D03*
X13120000D02*
D03*
X12889999D02*
D03*
X9120000Y3800000D02*
D03*
X8920000D02*
D03*
X8990000D02*
D03*
X8840000D02*
D03*
X9310000Y2200000D02*
D03*
X11450000Y4360000D02*
D03*
X8420000Y3170000D02*
D03*
X11760000Y5900000D02*
D03*
X10290000Y3350000D02*
D03*
X8300000Y2850000D02*
D03*
X10560000Y2500000D02*
D03*
X9140000Y2520000D02*
D03*
X11730000Y4420000D02*
D03*
X11290000Y3980000D02*
D03*
X11230000Y3950000D02*
D03*
X8170000Y2900000D02*
D03*
X11600000Y2760000D02*
D03*
X9920000Y3350000D02*
D03*
X11350000Y2730000D02*
D03*
X11110000Y2680000D02*
D03*
X10990000Y7490000D02*
D03*
X10550000Y2600000D02*
D03*
X10300000D02*
D03*
X10070000Y2440000D02*
D03*
X10180000Y2600000D02*
D03*
X9950000Y2760000D02*
D03*
X3860000Y13460001D02*
D03*
X3660000D02*
D03*
X3239998Y15800002D02*
D03*
X3350000Y15800000D02*
D03*
X3460000D02*
D03*
X3239998Y16390002D02*
D03*
X3350000Y16389999D02*
D03*
X3460000D02*
D03*
X11750000Y11050000D02*
D03*
X7130000Y13980000D02*
D03*
X7400000Y13970000D02*
D03*
X7620000Y14580000D02*
D03*
X7621000Y14960001D02*
D03*
X7280000D02*
D03*
X11840000Y3635000D02*
D03*
X12635000Y2840000D02*
D03*
Y2685000D02*
D03*
X11840000Y2680000D02*
D03*
Y3257500D02*
D03*
X11110000D02*
D03*
X10960000D02*
D03*
X10820000Y3260000D02*
D03*
X10680000D02*
D03*
X11400000Y3690000D02*
D03*
X11260000D02*
D03*
X11110000Y3630000D02*
D03*
X10960000Y3625000D02*
D03*
X10820000Y3630000D02*
D03*
X11990000Y2940000D02*
D03*
X10660000Y2740000D02*
D03*
X12180000Y3400000D02*
D03*
Y3300000D02*
D03*
Y3200000D02*
D03*
Y3100000D02*
D03*
X10490000Y3260000D02*
D03*
X9730000Y8180000D02*
D03*
X8300000Y6610000D02*
D03*
X7730000Y6240000D02*
D03*
X11550000Y4190000D02*
D03*
Y2650000D02*
D03*
X8020000Y7320000D02*
D03*
X8050000Y7590000D02*
D03*
X8020000Y6247502D02*
D03*
X7870000Y6250002D02*
D03*
X7987378Y7022500D02*
D03*
X7895000Y7880000D02*
D03*
X7890000Y8030000D02*
D03*
X9350000Y7090000D02*
D03*
X13200000Y5820000D02*
D03*
X11860000Y4447500D02*
D03*
X11772500Y3925000D02*
D03*
X12590000Y4030000D02*
D03*
X12240000Y4810000D02*
D03*
X12372620Y5057500D02*
D03*
X12325000Y4517500D02*
D03*
Y4017500D02*
D03*
X13349998Y3300000D02*
D03*
X13205476D02*
D03*
X13048334D02*
D03*
X12891191D02*
D03*
X12734048D02*
D03*
X12594285D02*
D03*
X12459762D02*
D03*
X12320000D02*
D03*
X13379999Y3829999D02*
D03*
X12510000Y4660000D02*
D03*
X13360001Y5810000D02*
D03*
X12750000Y5710000D02*
D03*
X13015002Y6135002D02*
D03*
X11150000Y5300000D02*
D03*
X13645000Y8665000D02*
D03*
X13910001Y8860000D02*
D03*
X9040000Y4700000D02*
D03*
Y4600000D02*
D03*
X14510001Y8870000D02*
D03*
X14410001Y8569998D02*
D03*
X14410001Y8760001D02*
D03*
X12730002Y7630002D02*
D03*
X12951190Y9080000D02*
D03*
X12953810Y8917380D02*
D03*
X12607620Y8920000D02*
D03*
Y9082620D02*
D03*
X13300000Y8917380D02*
D03*
Y9080000D02*
D03*
X10750000Y2680000D02*
D03*
X7635000Y8310000D02*
D03*
X11830000Y5900000D02*
D03*
X9050000D02*
D03*
X9350000D02*
D03*
X9050000Y5700000D02*
D03*
X9350000D02*
D03*
X9200000Y5600000D02*
D03*
Y5800000D02*
D03*
X11500000Y6000000D02*
D03*
Y5600000D02*
D03*
X11350000Y5700000D02*
D03*
X11650000D02*
D03*
Y5900000D02*
D03*
X11350000D02*
D03*
X10220000Y3900000D02*
D03*
X10480000D02*
D03*
X10350000Y3800000D02*
D03*
Y3590000D02*
D03*
X9050000Y3500000D02*
D03*
X9200000Y3600000D02*
D03*
X9350000Y3300000D02*
D03*
X9050000Y5470000D02*
D03*
X9350000D02*
D03*
X8970000Y6120000D02*
D03*
Y6570000D02*
D03*
X9050000D02*
D03*
X8960000Y5900000D02*
D03*
X8930000Y5570000D02*
D03*
X8970000Y5400000D02*
D03*
Y5250000D02*
D03*
Y4900000D02*
D03*
Y5070000D02*
D03*
Y4790000D02*
D03*
X9210000Y5880000D02*
D03*
X9470000Y5900000D02*
D03*
X9530000Y7140000D02*
D03*
X9730000Y7130000D02*
D03*
X9950000D02*
D03*
X10180000D02*
D03*
X10380000D02*
D03*
X11570000Y7490000D02*
D03*
X10010000Y4640000D02*
D03*
X10190000D02*
D03*
X10370000D02*
D03*
X10550000D02*
D03*
X9050000Y3680000D02*
D03*
X9620000Y3460000D02*
D03*
X9200000Y3510000D02*
D03*
X10050000Y3350000D02*
D03*
X11550000Y4600000D02*
D03*
X11030000Y4280000D02*
D03*
X11290000D02*
D03*
X9250000Y4710000D02*
D03*
X9450000D02*
D03*
X9650000D02*
D03*
X10460000Y5300000D02*
D03*
Y5500000D02*
D03*
Y5700000D02*
D03*
X8970000Y6490000D02*
D03*
X9050000Y6440000D02*
D03*
X9250000D02*
D03*
X9350000D02*
D03*
X9450000D02*
D03*
X9550000D02*
D03*
X9650000D02*
D03*
X9750000D02*
D03*
X9850000D02*
D03*
X9950000D02*
D03*
X10050000D02*
D03*
X10150000D02*
D03*
X10250000D02*
D03*
X10350000D02*
D03*
X10450000D02*
D03*
X10550000D02*
D03*
X11850000Y6150000D02*
D03*
X11910000Y6100000D02*
D03*
Y6000000D02*
D03*
Y5100000D02*
D03*
Y4600000D02*
D03*
Y4500000D02*
D03*
X11730000Y4300000D02*
D03*
Y4240000D02*
D03*
X11840000Y3810000D02*
D03*
X12190000Y3600000D02*
D03*
Y3500000D02*
D03*
X11960000Y2750000D02*
D03*
X11170000Y2740000D02*
D03*
X11050000D02*
D03*
X10850000D02*
D03*
X10440000D02*
D03*
X9750000Y3060000D02*
D03*
X9650000D02*
D03*
X8500000Y3040000D02*
D03*
X8520000Y3600000D02*
D03*
Y3800000D02*
D03*
Y3900000D02*
D03*
X8860000Y3950000D02*
D03*
Y4060000D02*
D03*
X9010000Y4090000D02*
D03*
X9050000Y4030000D02*
D03*
X11377500Y13320000D02*
D03*
X11625000Y13377499D02*
D03*
X11445000Y11695000D02*
D03*
X10377500Y12650000D02*
D03*
X10277500Y12307500D02*
D03*
Y12077500D02*
D03*
Y11935000D02*
D03*
Y11575000D02*
D03*
X12050000Y12650000D02*
D03*
X12717500Y12367500D02*
D03*
X12050000Y12435000D02*
D03*
X12110000Y12385000D02*
D03*
X11062500Y11715000D02*
D03*
X11775000Y12849998D02*
D03*
X11675000Y12920003D02*
D03*
X8940000Y12405000D02*
D03*
X8925000Y12205000D02*
D03*
X11525000Y12849998D02*
D03*
X10352500Y10152500D02*
D03*
X10342500Y10602500D02*
D03*
X7462500Y13110001D02*
D03*
X8270000D02*
D03*
X7540000Y12390000D02*
D03*
X8080000Y12390000D02*
D03*
X7710000Y12050000D02*
D03*
X7760000D02*
D03*
X7910000D02*
D03*
X7860002Y12775003D02*
D03*
X7920000Y12760005D02*
D03*
X11570000Y12920003D02*
D03*
X11750000Y12920000D02*
D03*
X7970000Y12855003D02*
D03*
X7850000D02*
D03*
X7910000Y13210001D02*
D03*
X7370000Y13139999D02*
D03*
X7300000D02*
D03*
X7230000D02*
D03*
X7370000Y13080000D02*
D03*
X7300000D02*
D03*
X7230000D02*
D03*
X12055000Y11782500D02*
D03*
X12725000Y12737500D02*
D03*
X12775000Y12989999D02*
D03*
X12850000Y12740000D02*
D03*
X12720000Y12180000D02*
D03*
X12490000Y12100000D02*
D03*
X12110000Y12285000D02*
D03*
X12050000Y12335000D02*
D03*
Y12235000D02*
D03*
X12110000Y12185000D02*
D03*
X11625000Y11715000D02*
D03*
X11675000Y11672500D02*
D03*
X10770000Y11595000D02*
D03*
X12110000Y12485000D02*
D03*
X9925000Y13395000D02*
D03*
X9710000D02*
D03*
X9710000Y11087500D02*
D03*
X9322500Y11440000D02*
D03*
X10180000D02*
D03*
X9457500Y11630000D02*
D03*
X10180000D02*
D03*
X9457500Y11812500D02*
D03*
X10180000D02*
D03*
X9457500Y12002500D02*
D03*
X10180000D02*
D03*
X9457500Y12192500D02*
D03*
X10180000D02*
D03*
X9457500Y12372500D02*
D03*
X10180000D02*
D03*
X9457500Y12562500D02*
D03*
X10180000D02*
D03*
X9457500Y12752500D02*
D03*
X10267500Y12735000D02*
D03*
X9367500Y12930000D02*
D03*
X9457500Y13125000D02*
D03*
Y13300000D02*
D03*
X10180000D02*
D03*
X9457500Y11260000D02*
D03*
X10180000D02*
D03*
X9922500Y11160000D02*
D03*
X11275000Y11695000D02*
D03*
X11362500D02*
D03*
X10682500Y12380000D02*
D03*
Y12260000D02*
D03*
Y12150000D02*
D03*
Y11890000D02*
D03*
Y11820000D02*
D03*
Y11700000D02*
D03*
Y12070000D02*
D03*
X12050000Y12080000D02*
D03*
X10420000Y11180000D02*
D03*
X10360000Y11240000D02*
D03*
X10540000Y12850000D02*
D03*
X10430000D02*
D03*
X12050000Y12140000D02*
D03*
X10180000Y12927499D02*
D03*
Y13125000D02*
D03*
X10580000Y12440000D02*
D03*
X10632500Y11987500D02*
D03*
X12864999Y11575004D02*
D03*
X12515000D02*
D03*
X14087500Y8605000D02*
D03*
X14264999Y8827500D02*
D03*
X11325000Y12849998D02*
D03*
X11455000Y12937500D02*
D03*
X11382500D02*
D03*
X2900000Y14880000D02*
D03*
X2910000Y15030000D02*
D03*
X2150000Y15189999D02*
D03*
X2550000D02*
D03*
X2750000D02*
D03*
X1530000Y14080000D02*
D03*
X1870000D02*
D03*
X1530000Y14230000D02*
D03*
X770000Y13670000D02*
D03*
X1150000Y13939999D02*
D03*
X1350000D02*
D03*
X1550000D02*
D03*
X1750000D02*
D03*
X1950000D02*
D03*
X2150000D02*
D03*
X3150000D02*
D03*
X3350000D02*
D03*
X1200000Y15110001D02*
D03*
X1350000D02*
D03*
X1490000D02*
D03*
X1620000D02*
D03*
X1275000Y14527499D02*
D03*
X1420000D02*
D03*
X1557500D02*
D03*
X1840000Y13560001D02*
D03*
X2950000Y15189999D02*
D03*
X2805000Y12830000D02*
D03*
X2745000D02*
D03*
X2865000D02*
D03*
X2925000D02*
D03*
X11640000Y7700000D02*
D03*
X3000000Y12830000D02*
D03*
X12620000Y5430000D02*
D03*
X12589999Y5497500D02*
D03*
X7985000Y4465000D02*
D03*
X11340000Y3790000D02*
D03*
X11530000Y7720000D02*
D03*
Y8030000D02*
D03*
X11870000Y6730000D02*
D03*
X10975000Y7702500D02*
D03*
X10157500Y7775000D02*
D03*
X10380000Y7672500D02*
D03*
X3060000Y16660001D02*
D03*
X2860000D02*
D03*
X2660000D02*
D03*
X2460000D02*
D03*
X2260000D02*
D03*
X2060000D02*
D03*
X1860000D02*
D03*
X1660000D02*
D03*
X1460000D02*
D03*
X1260000D02*
D03*
X1060000D02*
D03*
X860000D02*
D03*
X660000D02*
D03*
X460000D02*
D03*
X260000D02*
D03*
Y16460001D02*
D03*
Y16260001D02*
D03*
Y16060001D02*
D03*
Y15860001D02*
D03*
Y15660001D02*
D03*
Y15460001D02*
D03*
Y15260001D02*
D03*
Y15060001D02*
D03*
Y14860001D02*
D03*
Y14660001D02*
D03*
Y14460001D02*
D03*
X3860000Y16460001D02*
D03*
Y16260001D02*
D03*
Y16060001D02*
D03*
Y15860001D02*
D03*
Y15660001D02*
D03*
Y15460001D02*
D03*
X260000Y13460001D02*
D03*
Y13660001D02*
D03*
X460000Y13460001D02*
D03*
X660000D02*
D03*
X860000D02*
D03*
X1060000D02*
D03*
X1260000D02*
D03*
X8140000Y11850000D02*
D03*
X11737500Y3845000D02*
D03*
X7460000Y12490000D02*
D03*
Y12290000D02*
D03*
X5650000Y12310000D02*
D03*
X6090000Y12490000D02*
D03*
X6100000Y12550000D02*
D03*
X11892500Y11050000D02*
D03*
X12142500Y11047500D02*
D03*
X12385001Y11575004D02*
D03*
X12542500Y11727500D02*
D03*
X7515000Y11850000D02*
D03*
X11592500Y8567500D02*
D03*
X12520004Y15020000D02*
D03*
X12400000D02*
D03*
X12055000Y14285001D02*
D03*
X7360000Y6010000D02*
D03*
X7502500D02*
D03*
X7617500Y5530000D02*
D03*
X10492500Y3045000D02*
D03*
X7717500Y2755000D02*
D03*
X6197500Y5627500D02*
D03*
X6292500Y5380000D02*
D03*
X11535000Y7205000D02*
D03*
X11530000Y8110000D02*
D03*
X3260000Y16660001D02*
D03*
X3460000D02*
D03*
X3660000D02*
D03*
X3860000D02*
D03*
Y15260001D02*
D03*
X3860000Y14060001D02*
D03*
Y14260001D02*
D03*
Y14460001D02*
D03*
Y14660001D02*
D03*
Y14860001D02*
D03*
Y15060001D02*
D03*
Y13860001D02*
D03*
X3860000Y13660001D02*
D03*
X3460000Y13460001D02*
D03*
X3260000D02*
D03*
X3060000D02*
D03*
X1460000D02*
D03*
X1660000D02*
D03*
X11110000Y4093160D02*
D03*
X11210000Y4090000D02*
D03*
D95*
X9532500Y15714999D02*
D03*
X9532500Y14892500D02*
D03*
X7570000Y15910001D02*
D03*
Y15960001D02*
D03*
Y16010001D02*
D03*
Y16060001D02*
D03*
Y16110001D02*
D03*
Y16160001D02*
D03*
Y16210001D02*
D03*
Y16260001D02*
D03*
Y16310001D02*
D03*
Y16360001D02*
D03*
X7470000Y15910001D02*
D03*
Y15960001D02*
D03*
Y16010001D02*
D03*
Y16060001D02*
D03*
Y16110001D02*
D03*
Y16160001D02*
D03*
Y16210001D02*
D03*
Y16260001D02*
D03*
Y16310001D02*
D03*
Y16360001D02*
D03*
X7370000Y15910001D02*
D03*
Y15960001D02*
D03*
Y16010001D02*
D03*
Y16060001D02*
D03*
Y16110001D02*
D03*
Y16160001D02*
D03*
Y16210001D02*
D03*
Y16260001D02*
D03*
Y16310001D02*
D03*
Y16360001D02*
D03*
X7270000Y15910001D02*
D03*
Y15960001D02*
D03*
Y16010001D02*
D03*
Y16060001D02*
D03*
Y16110001D02*
D03*
Y16160001D02*
D03*
Y16210001D02*
D03*
Y16260001D02*
D03*
Y16310001D02*
D03*
Y16360001D02*
D03*
X7170000Y15910001D02*
D03*
Y15960001D02*
D03*
Y16010001D02*
D03*
Y16060001D02*
D03*
Y16110001D02*
D03*
Y16160001D02*
D03*
Y16210001D02*
D03*
Y16260001D02*
D03*
Y16310001D02*
D03*
Y16360001D02*
D03*
X7070000Y15910001D02*
D03*
Y15960001D02*
D03*
Y16010001D02*
D03*
Y16060001D02*
D03*
Y16110001D02*
D03*
Y16160001D02*
D03*
Y16210001D02*
D03*
Y16260001D02*
D03*
Y16310001D02*
D03*
Y16360001D02*
D03*
X6970000D02*
D03*
Y16310001D02*
D03*
Y16260001D02*
D03*
Y16210001D02*
D03*
Y16160001D02*
D03*
Y16110001D02*
D03*
Y16060001D02*
D03*
Y16010001D02*
D03*
Y15960001D02*
D03*
Y15910001D02*
D03*
X11620000D02*
D03*
Y15960001D02*
D03*
Y16010001D02*
D03*
Y16060001D02*
D03*
Y16110001D02*
D03*
Y16160001D02*
D03*
Y16210001D02*
D03*
Y16260001D02*
D03*
Y16310001D02*
D03*
Y16360001D02*
D03*
X11720000D02*
D03*
Y16310001D02*
D03*
Y16260001D02*
D03*
Y16210001D02*
D03*
Y16160001D02*
D03*
Y16110001D02*
D03*
Y16060001D02*
D03*
Y16010001D02*
D03*
Y15960001D02*
D03*
Y15910001D02*
D03*
X11820000Y16360001D02*
D03*
Y16310001D02*
D03*
Y16260001D02*
D03*
Y16210001D02*
D03*
Y16160001D02*
D03*
Y16110001D02*
D03*
Y16060001D02*
D03*
Y16010001D02*
D03*
Y15960001D02*
D03*
Y15910001D02*
D03*
X11920000Y16360001D02*
D03*
Y16310001D02*
D03*
Y16260001D02*
D03*
Y16210001D02*
D03*
Y16160001D02*
D03*
Y16110001D02*
D03*
Y16060001D02*
D03*
Y16010001D02*
D03*
Y15960001D02*
D03*
Y15910001D02*
D03*
X12020000Y16360001D02*
D03*
Y16310001D02*
D03*
Y16260001D02*
D03*
Y16210001D02*
D03*
Y16160001D02*
D03*
Y16110001D02*
D03*
Y16060001D02*
D03*
Y16010001D02*
D03*
Y15960001D02*
D03*
Y15910001D02*
D03*
X12120000Y16360001D02*
D03*
Y16310001D02*
D03*
Y16260001D02*
D03*
Y16210001D02*
D03*
Y16160001D02*
D03*
Y16110001D02*
D03*
Y16060001D02*
D03*
Y16010001D02*
D03*
Y15960001D02*
D03*
Y15910001D02*
D03*
X12220000Y16360001D02*
D03*
Y16310001D02*
D03*
Y16260001D02*
D03*
Y16210001D02*
D03*
Y16160001D02*
D03*
Y16110001D02*
D03*
Y16060001D02*
D03*
Y16010001D02*
D03*
Y15960001D02*
D03*
Y15910001D02*
D03*
%TF.MD5,73f02b9edb8267ef32e5605fd355c6cf*%
M02*
