%TF.GenerationSoftware,Altium Limited,Altium Designer,18.0.9 (584)*%
G04 Layer_Color=32768*
%FSLAX45Y45*%
%MOMM*%
%TF.FileFunction,Other,Mechanical_15*%
%TF.Part,Single*%
G01*
G75*
%TA.AperFunction,NonConductor*%
%ADD65C,0.15000*%
%ADD171C,0.10000*%
%ADD172C,0.25400*%
%ADD174C,0.60000*%
%ADD308C,0.32000*%
%ADD309C,0.12700*%
%ADD311C,0.05000*%
%TA.AperFunction,OtherPad,Pad U5-0 (72.9mm,158.1mm)*%
%ADD313C,0.50000*%
%TA.AperFunction,OtherPad,Pad U15-0 (119.4mm,158.1mm)*%
%ADD314C,0.50000*%
%TA.AperFunction,NonConductor*%
%ADD315C,0.07620*%
D65*
X3455000Y16060001D02*
G03*
X3455000Y16060001I-10000J0D01*
G01*
X14724142Y8720000D02*
G03*
X14724142Y8720000I-14142J0D01*
G01*
Y8530000D02*
G03*
X14724142Y8530000I-14142J0D01*
G01*
X9586644Y15512503D02*
G03*
X9586644Y15512503I-14142J0D01*
G01*
X5912499Y4152000D02*
X6604999D01*
Y4674500D01*
X5912499D02*
X6604999D01*
X5912499Y4152000D02*
Y4674500D01*
X2700001Y6795002D02*
X3300000D01*
X2700001D02*
Y7244999D01*
X3300000D01*
Y6795002D02*
Y7244999D01*
X3485000Y16030000D02*
Y16130000D01*
X3295000Y16030000D02*
X3485000D01*
X3295000D02*
Y16130000D01*
X3485000D01*
X14739998Y8689999D02*
Y8829999D01*
X14439998D02*
X14739998D01*
X14439998Y8689999D02*
Y8829999D01*
Y8689999D02*
X14739998D01*
X14739998Y8500001D02*
Y8640001D01*
X14439999D02*
X14739998D01*
X14439999Y8500001D02*
Y8640001D01*
Y8500001D02*
X14739998D01*
X9462503Y15542505D02*
X9602503D01*
X9462503Y15242500D02*
Y15542505D01*
Y15242500D02*
X9602503D01*
Y15542505D01*
X5009999Y3871000D02*
Y4937018D01*
X5259999D01*
Y3871000D02*
Y4937018D01*
X5009999Y3871000D02*
X5259999D01*
X1510000Y4020000D02*
Y4800000D01*
X1210000Y4020000D02*
X1510000D01*
X1210000D02*
Y4800000D01*
X1510000D01*
X7879997Y13610002D02*
X9279999D01*
Y14310001D01*
X7879997D02*
X9279999D01*
X7879997Y13610002D02*
Y14310001D01*
X9439997Y13610001D02*
X10840000D01*
Y14309999D01*
X9439997D02*
X10840000D01*
X9439997Y13610001D02*
Y14309999D01*
X2710000Y5360000D02*
Y5560000D01*
X2610000Y5460000D02*
X2810000D01*
X2110001Y6795002D02*
X2709999D01*
X2110001D02*
Y7244999D01*
X2709999D01*
Y6795002D02*
Y7244999D01*
D171*
X6542071Y3880000D02*
G03*
X6542071Y3880000I-7071J0D01*
G01*
X5942071D02*
G03*
X5942071Y3880000I-7071J0D01*
G01*
X5212998Y12970000D02*
G03*
X5212998Y12970000I-25000J0D01*
G01*
Y13224001D02*
G03*
X5212998Y13224001I-25000J0D01*
G01*
Y11192000D02*
G03*
X5212998Y11192000I-25000J0D01*
G01*
Y11446000D02*
G03*
X5212998Y11446000I-25000J0D01*
G01*
X4437998Y10934000D02*
G03*
X4437998Y10934000I-25000J0D01*
G01*
X4691998D02*
G03*
X4691998Y10934000I-25000J0D01*
G01*
X5199998D02*
G03*
X5199998Y10934000I-25000J0D01*
G01*
X4945998D02*
G03*
X4945998Y10934000I-25000J0D01*
G01*
X4183998D02*
G03*
X4183998Y10934000I-25000J0D01*
G01*
X2164998Y11696000D02*
G03*
X2164998Y11696000I-25000J0D01*
G01*
X2164498Y10934000D02*
G03*
X2164498Y10934000I-25000J0D01*
G01*
Y10680000D02*
G03*
X2164498Y10680000I-25000J0D01*
G01*
Y11188000D02*
G03*
X2164498Y11188000I-25000J0D01*
G01*
X2164998Y11442000D02*
G03*
X2164998Y11442000I-25000J0D01*
G01*
Y11950000D02*
G03*
X2164998Y11950000I-25000J0D01*
G01*
X4183998Y10680000D02*
G03*
X4183998Y10680000I-25000J0D01*
G01*
X4437998D02*
G03*
X4437998Y10680000I-25000J0D01*
G01*
X4691998D02*
G03*
X4691998Y10680000I-25000J0D01*
G01*
X4945998D02*
G03*
X4945998Y10680000I-25000J0D01*
G01*
X5199998D02*
G03*
X5199998Y10680000I-25000J0D01*
G01*
X5345000Y5589500D02*
G03*
X5345000Y5589500I-25000J0D01*
G01*
X5447499Y4150000D02*
G03*
X5447499Y4150000I-20000J0D01*
G01*
X11432500Y7945000D02*
G03*
X11432500Y7945000I-2500J0D01*
G01*
X11047500Y7790000D02*
G03*
X11047500Y7790000I-10000J0D01*
G01*
X3590000Y16230000D02*
G03*
X3590000Y16230000I-10000J0D01*
G01*
X2014500Y3050000D02*
G03*
X2014500Y3050000I-25000J0D01*
G01*
X6784500Y13950000D02*
G03*
X6784500Y13950000I-25000J0D01*
G01*
X11675000Y14730499D02*
G03*
X11675000Y14730499I-25000J0D01*
G01*
X9572501Y15187502D02*
G03*
X9572501Y15187502I-10000J0D01*
G01*
X9542500Y730000D02*
G03*
X9542500Y730000I-10000J0D01*
G01*
X5000000Y11710000D02*
G03*
X5000000Y11710000I-15000J0D01*
G01*
X4642071Y11540000D02*
G03*
X4642071Y11540000I-7071J0D01*
G01*
X4400000Y11587500D02*
G03*
X4400000Y11587500I-10000J0D01*
G01*
X4000000D02*
G03*
X4000000Y11587500I-10000J0D01*
G01*
X7747500Y790000D02*
G03*
X7747500Y790000I-10000J0D01*
G01*
X1050000Y4610000D02*
G03*
X1050000Y4610000I-15000J0D01*
G01*
X4200000Y11587500D02*
G03*
X4200000Y11587500I-10000J0D01*
G01*
X6510000Y3855000D02*
X6610000D01*
X6510000D02*
Y4105000D01*
X6610000D01*
Y3855000D02*
Y4105000D01*
X6259999Y4360000D02*
Y4460000D01*
X6209999Y4410000D02*
X6309999D01*
X5910000Y3855000D02*
X6010000D01*
X5910000D02*
Y4105000D01*
X6010000D01*
Y3855000D02*
Y4105000D01*
X10800000Y11080000D02*
Y11280000D01*
X10700000Y11180000D02*
X10900000D01*
X2012498Y13514999D02*
X5314498D01*
X2012498Y10515000D02*
Y13514999D01*
Y10515000D02*
X5314498D01*
X5314999D02*
Y13514999D01*
X4004000Y11060500D02*
X5324000D01*
Y10560500D02*
Y11060500D01*
X4004000Y10560500D02*
Y11060500D01*
Y10560500D02*
X5324000D01*
X5150000Y5559500D02*
X5260000D01*
X5000000Y5629500D02*
X5100000Y5529500D01*
X5320000D02*
X5410000Y5619500D01*
X5100000Y5529500D02*
X5320000D01*
X5000000Y5629500D02*
Y6609500D01*
X5410000D01*
Y5619500D02*
Y6609500D01*
X5160000Y6108500D02*
X5260000D01*
X5210000Y6059500D02*
Y6159500D01*
X5397499Y4115000D02*
Y4755000D01*
X5822499D01*
Y4115000D02*
Y4755000D01*
X5397499Y4115000D02*
X5822499D01*
X8550000Y2800000D02*
Y6400000D01*
X12150000D01*
Y2800000D02*
Y6400000D01*
X8550000Y2800000D02*
X12150000D01*
X11400000Y8035000D02*
X11420000D01*
X11410000Y8025000D02*
Y8045000D01*
X11450000Y7935000D02*
Y8135000D01*
X11370000D02*
X11450000D01*
X11370000Y7935000D02*
Y8135000D01*
Y7935000D02*
X11390000Y7915000D01*
X11430000D01*
X11450000Y7935000D01*
X8859999Y16309999D02*
X9159999D01*
X8859999Y16010001D02*
Y16309999D01*
Y16010001D02*
X9159999D01*
Y16309999D01*
X1000000Y13639999D02*
Y15389999D01*
Y13639999D02*
X3700000D01*
Y15539999D01*
X1000000D02*
X3700000D01*
X1000000Y15389999D02*
Y15539999D01*
X559999Y13860001D02*
X659999D01*
X609999Y13810001D02*
Y13910001D01*
X10807500Y7760000D02*
X11067500D01*
X10807500D02*
Y7880000D01*
X11067500D01*
Y7760000D02*
Y7880000D01*
X3690000Y2630000D02*
X4630000D01*
X3690000Y190000D02*
X4630000D01*
Y2630000D01*
X3690000Y190000D02*
Y2630000D01*
X3410000Y260000D02*
Y1560000D01*
X1510000D02*
X3410000D01*
X1510000Y260000D02*
Y1560000D01*
Y260000D02*
X3410000D01*
X2210000Y910000D02*
X2710000D01*
X2460000Y660000D02*
Y1160000D01*
X11522498Y8837503D02*
X12022498D01*
Y7787503D02*
Y8837503D01*
X11522498Y7787503D02*
X12022498D01*
X11522498D02*
Y8837503D01*
X11647498Y8312503D02*
X11897498D01*
X11772498Y8187503D02*
Y8437503D01*
X1835000Y3420000D02*
X1935000D01*
X1885000Y3370000D02*
Y3469999D01*
X3510000Y3510000D02*
Y4109999D01*
X2010000D02*
X3510000D01*
X2010000Y3510000D02*
Y4109999D01*
Y3510000D02*
X3510000D01*
X4410002Y5209998D02*
Y6710000D01*
X3809998Y5209998D02*
X4410002D01*
X3809998D02*
Y6710000D01*
X4410002D01*
X4450002Y5084999D02*
X4550001D01*
X4499999Y5035002D02*
Y5135002D01*
X6910000Y7360000D02*
X8710000D01*
Y6660000D02*
Y7360000D01*
X7760000Y7010000D02*
X7860000D01*
X7810000Y6960000D02*
Y7060000D01*
X6912500Y6660000D02*
X8707500D01*
X6910000Y6662500D02*
X6912500Y6660000D01*
X6910000Y6662500D02*
Y7360000D01*
X4330001Y8460002D02*
X5109999D01*
Y10210001D01*
X4330001D02*
X5109999D01*
X4330001Y8460002D02*
Y10210001D01*
X4719998Y9284999D02*
Y9384999D01*
X4670000Y9335002D02*
X4770000D01*
X3500000Y16039999D02*
Y16242500D01*
Y16039999D02*
X3600000D01*
Y16242500D01*
X3500000D02*
X3600000D01*
X1959500Y3110000D02*
Y3220000D01*
X1929500Y3270000D02*
X2029500Y3370000D01*
X1929500Y3050000D02*
X2019500Y2960000D01*
X1929500Y3050000D02*
Y3270000D01*
X2029500Y3370000D02*
X3009500D01*
Y2960000D02*
Y3370000D01*
X2019500Y2960000D02*
X3009500D01*
X2508500Y3110000D02*
Y3210000D01*
X2459500Y3160000D02*
X2559500D01*
X7229500Y14060001D02*
X7329500D01*
X7278500Y14010001D02*
Y14110001D01*
X6789500Y13860001D02*
X7779500D01*
Y14270000D01*
X6799500D02*
X7779500D01*
X6699500Y13950000D02*
Y14170000D01*
Y13950000D02*
X6789500Y13860001D01*
X6699500Y14170000D02*
X6799500Y14270000D01*
X6729500Y14010001D02*
Y14120000D01*
X14089998Y8620001D02*
Y8720001D01*
X14040001Y8669998D02*
X14140001D01*
X11760000Y14160500D02*
Y14260500D01*
X11710000Y14211501D02*
X11810000D01*
X11560000Y13710500D02*
Y14700500D01*
Y13710500D02*
X11970000D01*
Y14690500D01*
X11650000Y14790500D02*
X11870000D01*
X11560000Y14700500D02*
X11650000Y14790500D01*
X11870000D02*
X11970000Y14690500D01*
X11709999Y14760500D02*
X11820000D01*
X2736501Y16079999D02*
X2850801D01*
X2800001Y16016499D02*
Y16130798D01*
X7222999Y5729998D02*
X7476999D01*
X7349999Y5602998D02*
Y5856998D01*
X10262500Y8490003D02*
X10517501D01*
Y7982500D02*
Y8490003D01*
X10264999Y7982500D02*
X10517501D01*
X10262998Y7982998D02*
Y8490998D01*
X3185002Y16207500D02*
X3265002D01*
X3185002Y16042499D02*
Y16207500D01*
Y16042499D02*
X3265002D01*
Y16207500D01*
X1985002Y2059998D02*
X2034999D01*
X2010001Y2034999D02*
Y2085002D01*
X1799998Y1750001D02*
Y2370000D01*
X2219998D01*
Y1750001D02*
Y2370000D01*
X1799998Y1750001D02*
X2219998D01*
X8009999Y16310001D02*
X8309999D01*
X8009999Y16010002D02*
Y16310001D01*
Y16010002D02*
X8309999D01*
Y16310001D01*
X9472502Y15217500D02*
X9592501D01*
X9472502Y14957501D02*
Y15217500D01*
Y14957501D02*
X9592501D01*
Y15217500D01*
X9562500Y700000D02*
Y820000D01*
X9302500D02*
X9562500D01*
X9302500Y700000D02*
Y820000D01*
Y700000D02*
X9562500D01*
X4084998Y9400001D02*
X4135000D01*
X4110002Y9375003D02*
Y9425000D01*
X9240499Y7294901D02*
Y7625101D01*
X8859499Y7294901D02*
Y7625101D01*
Y7294901D02*
X9240499D01*
X8859499Y7625101D02*
X9240499D01*
X9000002Y7460001D02*
X9100002D01*
X9049999Y7409998D02*
Y7509998D01*
X8580001Y13859999D02*
Y14059999D01*
X8480001Y13959999D02*
X8680001D01*
X10140001Y13859998D02*
Y14060002D01*
X10040001Y13960004D02*
X10240001D01*
X6260000Y2484000D02*
X13880000D01*
Y1976000D02*
Y2484000D01*
X6260000Y1976000D02*
X13880000D01*
X6260000D02*
Y2484000D01*
X12125000Y6650000D02*
Y8850001D01*
Y6650000D02*
X13774998D01*
Y8850001D01*
X12125000D02*
X13774998D01*
X12950002Y7624999D02*
Y7875002D01*
X12824998Y7749998D02*
X13075002D01*
X2442000Y10114000D02*
X3758000D01*
X2442000Y8804000D02*
X3758000D01*
Y10114000D01*
X2442000Y8804000D02*
Y10114000D01*
X3092000Y9731500D02*
X3192000D01*
X3142000Y9681500D02*
Y9781500D01*
X4785000Y11760000D02*
X5035000D01*
Y11260000D02*
Y11760000D01*
X4785000Y11260000D02*
X5035000D01*
X4785000D02*
Y11760000D01*
X4560000Y11565000D02*
X4660000D01*
Y11315000D02*
Y11565000D01*
X4560000Y11315000D02*
X4660000D01*
X4560000D02*
Y11565000D01*
X4420000Y11357500D02*
Y11617500D01*
X4300000Y11357500D02*
X4420000D01*
X4300000D02*
Y11617500D01*
X4420000D01*
X3900000D02*
X4020000D01*
X3900000Y11357500D02*
Y11617500D01*
Y11357500D02*
X4020000D01*
Y11617500D01*
X7707500Y820000D02*
X7967500D01*
Y700000D02*
Y820000D01*
X7707500Y700000D02*
X7967500D01*
X7707500D02*
Y820000D01*
X6010000Y11559999D02*
Y11997500D01*
X6210000D01*
Y11559999D02*
Y11997500D01*
X6010000Y11559999D02*
X6210000D01*
X9059999Y1060000D02*
Y1260000D01*
Y1060000D02*
X9497500D01*
Y1260000D01*
X9059999D02*
X9497500D01*
X8210001Y1060000D02*
Y1260000D01*
X7772500D02*
X8210001D01*
X7772500Y1060000D02*
Y1260000D01*
Y1060000D02*
X8210001D01*
X8860001D02*
Y1260000D01*
X8422500D02*
X8860001D01*
X8422500Y1060000D02*
Y1260000D01*
Y1060000D02*
X8860001D01*
X835000Y4660000D02*
X1085000D01*
Y4160000D02*
Y4660000D01*
X835000Y4160000D02*
X1085000D01*
X835000D02*
Y4660000D01*
X6360000Y12010001D02*
X6560000D01*
X6360000Y11572500D02*
Y12010001D01*
Y11572500D02*
X6560000D01*
Y12010001D01*
X4220000Y11357500D02*
Y11617500D01*
X4100000Y11357500D02*
X4220000D01*
X4100000D02*
Y11617500D01*
X4220000D01*
D172*
X6573859Y4202000D02*
G03*
X6573859Y4202000I-21360J0D01*
G01*
X8333848Y9430000D02*
G03*
X8333848Y9430000I-183848J0D01*
G01*
X5287156Y11016000D02*
G03*
X5287156Y11016000I-20156J0D01*
G01*
X3275000Y6850000D02*
G03*
X3275000Y6850000I-25000J0D01*
G01*
X8678284Y3100000D02*
G03*
X8678284Y3100000I-28284J0D01*
G01*
X1260000Y3635000D02*
G03*
X1260000Y3635000I-300000J0D01*
G01*
X1071803Y3760000D02*
G03*
X1071803Y3760000I-111803J0D01*
G01*
X3620710Y15389999D02*
G03*
X3620710Y15389999I-70711J0D01*
G01*
X4410000Y2160000D02*
G03*
X4410000Y2160000I-250000J0D01*
G01*
X5241301Y4024000D02*
G03*
X5241301Y4024000I-106302J0D01*
G01*
X10477868Y8103000D02*
G03*
X10477868Y8103000I-94868J0D01*
G01*
X3227502Y16170000D02*
G03*
X3227502Y16170000I-2500J0D01*
G01*
X2188463Y1790000D02*
G03*
X2188463Y1790000I-13463J0D01*
G01*
X4060000Y9075000D02*
G03*
X4060000Y9075000I-25000J0D01*
G01*
X9220361Y7333000D02*
G03*
X9220361Y7333000I-17961J0D01*
G01*
X8630000Y13684999D02*
G03*
X8630000Y13684999I-50000J0D01*
G01*
X10190000D02*
G03*
X10190000Y13684999I-50000J0D01*
G01*
X6474868Y2096000D02*
G03*
X6474868Y2096000I-94868J0D01*
G01*
X2729500Y8964000D02*
G03*
X2729500Y8964000I-132500J0D01*
G01*
X3550000Y2840000D02*
G03*
X3550000Y2840000I-25000J0D01*
G01*
X3065000Y2595000D02*
G03*
X3065000Y2595000I-25000J0D01*
G01*
X6130000Y11685000D02*
G03*
X6130000Y11685000I-20000J0D01*
G01*
X9205000Y1160000D02*
G03*
X9205000Y1160000I-20000J0D01*
G01*
X8105000Y1160000D02*
G03*
X8105000Y1160000I-20000J0D01*
G01*
X8755000D02*
G03*
X8755000Y1160000I-20000J0D01*
G01*
X4850000Y6590000D02*
G03*
X4850000Y6590000I-25000J0D01*
G01*
X2685000Y6850000D02*
G03*
X2685000Y6850000I-25000J0D01*
G01*
X7085000Y360000D02*
G03*
X7085000Y360000I-25000J0D01*
G01*
X6480000Y11885000D02*
G03*
X6480000Y11885000I-20000J0D01*
G01*
X6850000Y8880000D02*
Y13480000D01*
X14750000D01*
Y8880000D02*
Y13480000D01*
X6850000Y8880000D02*
X14750000D01*
X5560000Y11235000D02*
Y11810000D01*
X5960000D01*
Y11235000D02*
Y11810000D01*
X5560000Y11235000D02*
X5960000D01*
X3240000Y2880000D02*
X3580000D01*
Y1780000D02*
Y2880000D01*
X3240000Y1780000D02*
X3580000D01*
X3240000D02*
Y2880000D01*
X1980000D02*
X3080000D01*
X1980000Y2540000D02*
Y2880000D01*
Y2540000D02*
X3080000D01*
Y2880000D01*
X4540000Y6630000D02*
X4880000D01*
Y5530000D02*
Y6630000D01*
X4540000Y5530000D02*
X4880000D01*
X4540000D02*
Y6630000D01*
X6385000Y285000D02*
X7135000D01*
X6385000D02*
Y685000D01*
X7135000Y285000D02*
Y685000D01*
X6385000D02*
X7135000D01*
D174*
X1380000Y4910000D02*
G03*
X1380000Y4910000I-20000J0D01*
G01*
D308*
X7560000Y5280000D02*
G03*
X7560000Y5280000I-15000J0D01*
G01*
D309*
X6649985Y6495001D02*
X6742502D01*
X6959997D02*
X7312498D01*
X7532508Y6492491D02*
X8047498D01*
X6647486Y4971499D02*
Y5022512D01*
X6645002Y5249999D02*
Y6490012D01*
X8047498Y5130000D02*
Y6492491D01*
X6647486Y4971499D02*
X7920000D01*
X8175013Y7721999D02*
Y8405999D01*
X9744985D01*
Y7721999D02*
Y8405999D01*
X8175013Y7721999D02*
X9744985D01*
D311*
X474999Y13700000D02*
X744999D01*
Y14020000D01*
X474999Y13700000D02*
Y14020000D01*
X744999D01*
X13954997Y8829998D02*
X14224998D01*
X13954997Y8509998D02*
Y8829998D01*
X14224998Y8509998D02*
Y8829998D01*
X13954997Y8509998D02*
X14224998D01*
X2426001Y15706000D02*
Y16453998D01*
Y15706000D02*
X3174001D01*
Y16453998D01*
X2426001D02*
X3174001D01*
X3959999Y9000002D02*
X4259999D01*
X3959999Y9800000D02*
X4259999D01*
X3959999Y9000002D02*
Y9800000D01*
X4259999Y9000002D02*
Y9800000D01*
D313*
X7290000Y15810001D02*
D03*
D314*
X11940000D02*
D03*
D315*
X6630000Y15000000D02*
Y16850000D01*
Y15000000D02*
X7910000D01*
Y16850000D01*
X6630000D02*
X7910000D01*
X11280000D02*
X12560000D01*
Y15000000D02*
Y16850000D01*
X11280000Y15000000D02*
X12560000D01*
X11280000D02*
Y16850000D01*
%TF.MD5,ff5c24e72db2b33542eedd23b495c84c*%
M02*
