%TF.GenerationSoftware,Altium Limited,Altium Designer,18.0.9 (584)*%
G04 Layer_Physical_Order=4*
G04 Layer_Color=6736896*
%FSLAX45Y45*%
%MOMM*%
%TF.FileFunction,Copper,L4,Inr,Signal*%
%TF.Part,Single*%
G01*
G75*
%TA.AperFunction,Conductor*%
%ADD54C,0.15000*%
%ADD56C,0.21000*%
%ADD57C,1.00000*%
%ADD60C,0.50000*%
%ADD62C,0.25400*%
%TA.AperFunction,NonConductor*%
%ADD65C,0.15000*%
%TA.AperFunction,ComponentPad*%
G04:AMPARAMS|DCode=67|XSize=2.8mm|YSize=7mm|CornerRadius=0.7mm|HoleSize=0mm|Usage=FLASHONLY|Rotation=180.000|XOffset=0mm|YOffset=0mm|HoleType=Round|Shape=RoundedRectangle|*
%AMROUNDEDRECTD67*
21,1,2.80000,5.60000,0,0,180.0*
21,1,1.40000,7.00000,0,0,180.0*
1,1,1.40000,-0.70000,2.80000*
1,1,1.40000,0.70000,2.80000*
1,1,1.40000,0.70000,-2.80000*
1,1,1.40000,-0.70000,-2.80000*
%
%ADD67ROUNDEDRECTD67*%
%ADD68C,2.10000*%
%ADD69R,2.10000X2.10000*%
%ADD70C,1.60000*%
%ADD71C,3.00000*%
%ADD72R,3.00000X3.00000*%
G04:AMPARAMS|DCode=73|XSize=8mm|YSize=4mm|CornerRadius=1mm|HoleSize=0mm|Usage=FLASHONLY|Rotation=90.000|XOffset=0mm|YOffset=0mm|HoleType=Round|Shape=RoundedRectangle|*
%AMROUNDEDRECTD73*
21,1,8.00000,2.00000,0,0,90.0*
21,1,6.00000,4.00000,0,0,90.0*
1,1,2.00000,1.00000,3.00000*
1,1,2.00000,1.00000,-3.00000*
1,1,2.00000,-1.00000,-3.00000*
1,1,2.00000,-1.00000,3.00000*
%
%ADD73ROUNDEDRECTD73*%
G04:AMPARAMS|DCode=74|XSize=1mm|YSize=2mm|CornerRadius=0.25mm|HoleSize=0mm|Usage=FLASHONLY|Rotation=0.000|XOffset=0mm|YOffset=0mm|HoleType=Round|Shape=RoundedRectangle|*
%AMROUNDEDRECTD74*
21,1,1.00000,1.50000,0,0,0.0*
21,1,0.50000,2.00000,0,0,0.0*
1,1,0.50000,0.25000,-0.75000*
1,1,0.50000,-0.25000,-0.75000*
1,1,0.50000,-0.25000,0.75000*
1,1,0.50000,0.25000,0.75000*
%
%ADD74ROUNDEDRECTD74*%
%ADD75R,1.00000X2.00000*%
%ADD76C,1.40000*%
%ADD77O,1.50000X0.85000*%
%ADD78C,0.94000*%
%ADD79C,1.52000*%
%ADD80R,1.52000X1.52000*%
%ADD81C,2.20000*%
%ADD82C,5.00000*%
%ADD83R,1.40000X1.40000*%
%ADD84C,2.80000*%
%ADD85R,1.60000X1.60000*%
%ADD86R,1.80000X1.80000*%
%ADD87C,1.80000*%
%ADD88C,2.40000*%
%ADD89C,3.25000*%
%ADD90C,2.00000*%
%ADD91R,2.00000X2.00000*%
%ADD92C,1.00000*%
%TA.AperFunction,ViaPad*%
%ADD93C,0.45000*%
%ADD94C,1.50000*%
%ADD95C,0.35000*%
G36*
X9512162Y17331909D02*
X9538258D01*
Y17310254D01*
X9512162D01*
Y17264169D01*
X9488564D01*
Y17310254D01*
X9404999D01*
Y17331909D01*
X9493006Y17456284D01*
X9512162D01*
Y17331909D01*
D02*
G37*
G36*
X9370232Y17115169D02*
X9372176D01*
X9377451Y17114613D01*
X9383281Y17113782D01*
X9389388Y17112392D01*
X9396051Y17110727D01*
X9402159Y17108505D01*
X9402437D01*
X9402992Y17108228D01*
X9403825Y17107674D01*
X9404935Y17107118D01*
X9407711Y17105730D01*
X9411321Y17103230D01*
X9415485Y17100455D01*
X9419649Y17096846D01*
X9423536Y17092680D01*
X9427145Y17087962D01*
Y17087685D01*
X9427423Y17087407D01*
X9427978Y17086574D01*
X9428533Y17085741D01*
X9429921Y17082965D01*
X9431587Y17079355D01*
X9433530Y17074915D01*
X9434918Y17069640D01*
X9436307Y17064085D01*
X9436862Y17057979D01*
X9412431Y17056035D01*
Y17056313D01*
Y17056868D01*
X9412153Y17057701D01*
X9411876Y17059090D01*
X9411043Y17062143D01*
X9409932Y17066307D01*
X9408267Y17070749D01*
X9405768Y17075191D01*
X9402714Y17079355D01*
X9398828Y17083241D01*
X9398272Y17083521D01*
X9396884Y17084630D01*
X9394108Y17086296D01*
X9390499Y17087962D01*
X9385779Y17089627D01*
X9380227Y17091293D01*
X9373286Y17092404D01*
X9365513Y17092680D01*
X9361626D01*
X9359960Y17092404D01*
X9357739Y17092126D01*
X9352742Y17091571D01*
X9347190Y17090460D01*
X9341637Y17089072D01*
X9336363Y17086852D01*
X9334142Y17085463D01*
X9331921Y17084074D01*
X9331365Y17083797D01*
X9330255Y17082687D01*
X9328589Y17080743D01*
X9326923Y17078523D01*
X9324980Y17075468D01*
X9323314Y17072137D01*
X9322204Y17068251D01*
X9321649Y17063809D01*
Y17063252D01*
Y17062143D01*
X9321926Y17060201D01*
X9322481Y17057979D01*
X9323314Y17055202D01*
X9324702Y17052426D01*
X9326368Y17049651D01*
X9328867Y17046873D01*
X9329144Y17046596D01*
X9330533Y17045763D01*
X9331643Y17044930D01*
X9332753Y17044376D01*
X9334419Y17043542D01*
X9336363Y17042432D01*
X9338861Y17041599D01*
X9341637Y17040488D01*
X9344691Y17039378D01*
X9348300Y17037990D01*
X9352187Y17036879D01*
X9356629Y17035490D01*
X9361626Y17034381D01*
X9367179Y17032993D01*
X9367456D01*
X9368567Y17032715D01*
X9370232Y17032437D01*
X9372176Y17031882D01*
X9374674Y17031326D01*
X9377728Y17030495D01*
X9380782Y17029662D01*
X9384114Y17028828D01*
X9391332Y17026884D01*
X9398272Y17024942D01*
X9401604Y17023831D01*
X9404658Y17022720D01*
X9407434Y17021889D01*
X9409655Y17020776D01*
X9409932D01*
X9410488Y17020500D01*
X9411321Y17019943D01*
X9412431Y17019389D01*
X9415485Y17017723D01*
X9419094Y17015501D01*
X9423258Y17012450D01*
X9427423Y17009117D01*
X9431309Y17005231D01*
X9434641Y17001067D01*
X9434918Y17000511D01*
X9436029Y16999123D01*
X9437139Y16996625D01*
X9438805Y16993294D01*
X9440193Y16989406D01*
X9441581Y16984686D01*
X9442414Y16979411D01*
X9442692Y16973859D01*
Y16973581D01*
Y16973305D01*
Y16972472D01*
Y16971361D01*
X9442137Y16968307D01*
X9441581Y16964420D01*
X9440471Y16959978D01*
X9439083Y16955258D01*
X9436862Y16950261D01*
X9433808Y16944986D01*
Y16944708D01*
X9433530Y16944431D01*
X9432142Y16942764D01*
X9430199Y16940266D01*
X9427423Y16937491D01*
X9423814Y16934158D01*
X9419372Y16930550D01*
X9414374Y16927219D01*
X9408544Y16924165D01*
X9408267D01*
X9407711Y16923888D01*
X9406879Y16923610D01*
X9405768Y16923055D01*
X9404102Y16922499D01*
X9402159Y16921666D01*
X9397717Y16920557D01*
X9392442Y16919168D01*
X9386057Y16917780D01*
X9379116Y16916946D01*
X9371621Y16916669D01*
X9367179D01*
X9364958Y16916946D01*
X9362459D01*
X9359683Y16917224D01*
X9356351Y16917502D01*
X9349411Y16918613D01*
X9342193Y16919724D01*
X9334974Y16921666D01*
X9328034Y16924165D01*
X9327756D01*
X9327201Y16924442D01*
X9326368Y16924998D01*
X9325258Y16925552D01*
X9321926Y16927219D01*
X9318040Y16929716D01*
X9313598Y16933049D01*
X9308878Y16936935D01*
X9304436Y16941655D01*
X9300272Y16946930D01*
Y16947208D01*
X9299716Y16947763D01*
X9299439Y16948596D01*
X9298606Y16949706D01*
X9298051Y16951094D01*
X9297218Y16952760D01*
X9295275Y16956924D01*
X9293331Y16962199D01*
X9291665Y16968028D01*
X9290555Y16974692D01*
X9290000Y16981633D01*
X9313875Y16983855D01*
Y16983575D01*
Y16983298D01*
X9314153Y16982465D01*
Y16981355D01*
X9314708Y16978856D01*
X9315541Y16975247D01*
X9316651Y16971638D01*
X9317762Y16967474D01*
X9319705Y16963586D01*
X9321649Y16959978D01*
X9321926Y16959700D01*
X9322759Y16958591D01*
X9324147Y16956647D01*
X9326368Y16954703D01*
X9329144Y16952205D01*
X9332198Y16949706D01*
X9336363Y16947208D01*
X9340805Y16944986D01*
X9341082D01*
X9341360Y16944708D01*
X9342193Y16944431D01*
X9343026Y16944154D01*
X9345802Y16943321D01*
X9349411Y16942210D01*
X9353853Y16941100D01*
X9358850Y16940266D01*
X9364402Y16939713D01*
X9370510Y16939433D01*
X9373009D01*
X9375785Y16939713D01*
X9379116Y16939989D01*
X9383003Y16940544D01*
X9387445Y16941100D01*
X9391887Y16942210D01*
X9396051Y16943597D01*
X9396607Y16943877D01*
X9397995Y16944431D01*
X9399938Y16945541D01*
X9402437Y16946652D01*
X9404935Y16948596D01*
X9407711Y16950539D01*
X9410488Y16952760D01*
X9412709Y16955536D01*
X9412986Y16955814D01*
X9413541Y16956924D01*
X9414374Y16958311D01*
X9415485Y16960533D01*
X9416595Y16962753D01*
X9417428Y16965530D01*
X9417983Y16968584D01*
X9418261Y16971916D01*
Y16972192D01*
Y16973581D01*
X9417983Y16975247D01*
X9417706Y16977467D01*
X9416873Y16979689D01*
X9416040Y16982465D01*
X9414652Y16985242D01*
X9412709Y16987740D01*
X9412431Y16988017D01*
X9411598Y16988850D01*
X9410488Y16989961D01*
X9408544Y16991628D01*
X9406323Y16993294D01*
X9403269Y16995236D01*
X9399660Y16997179D01*
X9395496Y16998845D01*
X9395218Y16999123D01*
X9393830Y16999400D01*
X9391609Y17000233D01*
X9390221Y17000511D01*
X9388278Y17001067D01*
X9386335Y17001900D01*
X9383836Y17002454D01*
X9381060Y17003287D01*
X9377728Y17004120D01*
X9374397Y17004953D01*
X9370510Y17006062D01*
X9366068Y17007175D01*
X9361349Y17008284D01*
X9361071D01*
X9360238Y17008562D01*
X9358850Y17008839D01*
X9357184Y17009395D01*
X9354963Y17009950D01*
X9352465Y17010506D01*
X9346912Y17012170D01*
X9340805Y17014114D01*
X9334419Y17016058D01*
X9328867Y17018001D01*
X9326368Y17019112D01*
X9324147Y17020222D01*
X9323870D01*
X9323592Y17020500D01*
X9321926Y17021609D01*
X9319428Y17022998D01*
X9316651Y17025220D01*
X9313320Y17027718D01*
X9309988Y17030772D01*
X9306657Y17034381D01*
X9303881Y17038268D01*
X9303603Y17038823D01*
X9302770Y17040211D01*
X9301660Y17042432D01*
X9300549Y17045209D01*
X9299439Y17048817D01*
X9298328Y17052982D01*
X9297496Y17057423D01*
X9297218Y17062143D01*
Y17062421D01*
Y17062698D01*
Y17063531D01*
Y17064642D01*
X9297773Y17067418D01*
X9298328Y17071027D01*
X9299161Y17075191D01*
X9300549Y17079910D01*
X9302493Y17084630D01*
X9305269Y17089349D01*
Y17089627D01*
X9305547Y17089905D01*
X9306935Y17091571D01*
X9308878Y17093793D01*
X9311377Y17096568D01*
X9314708Y17099622D01*
X9318872Y17102953D01*
X9323870Y17106007D01*
X9329422Y17108783D01*
X9329700D01*
X9330255Y17109061D01*
X9331088Y17109338D01*
X9332198Y17109894D01*
X9333586Y17110449D01*
X9335530Y17111005D01*
X9339694Y17112115D01*
X9344969Y17113225D01*
X9351077Y17114336D01*
X9357462Y17115169D01*
X9364680Y17115446D01*
X9368289D01*
X9370232Y17115169D01*
D02*
G37*
G36*
X9647022D02*
X9649243D01*
X9654517Y17114613D01*
X9660347Y17113782D01*
X9666455Y17112392D01*
X9673118Y17110727D01*
X9679503Y17108505D01*
X9679781D01*
X9680336Y17108228D01*
X9681169Y17107951D01*
X9682280Y17107394D01*
X9685333Y17105730D01*
X9689220Y17103786D01*
X9693384Y17101010D01*
X9697826Y17097679D01*
X9701991Y17094069D01*
X9705877Y17089627D01*
X9706433Y17089072D01*
X9707543Y17087407D01*
X9709209Y17084908D01*
X9711430Y17081299D01*
X9713651Y17076857D01*
X9716149Y17071304D01*
X9718648Y17065198D01*
X9720591Y17058257D01*
X9697549Y17052148D01*
Y17052426D01*
X9697271Y17052704D01*
X9696994Y17053537D01*
X9696716Y17054646D01*
X9695883Y17057146D01*
X9694773Y17060477D01*
X9693107Y17064365D01*
X9691163Y17067973D01*
X9689220Y17071860D01*
X9686722Y17075191D01*
X9686444Y17075468D01*
X9685611Y17076579D01*
X9683945Y17077966D01*
X9682002Y17079910D01*
X9679503Y17082132D01*
X9676172Y17084354D01*
X9672563Y17086574D01*
X9668398Y17088518D01*
X9667843Y17088795D01*
X9666455Y17089349D01*
X9663957Y17090182D01*
X9660625Y17091293D01*
X9656738Y17092126D01*
X9652296Y17092960D01*
X9647299Y17093513D01*
X9642024Y17093793D01*
X9638971D01*
X9637582Y17093513D01*
X9635917D01*
X9631752Y17093237D01*
X9627033Y17092404D01*
X9621758Y17091571D01*
X9616761Y17090182D01*
X9611764Y17088239D01*
X9611208Y17087962D01*
X9609543Y17087407D01*
X9607322Y17086018D01*
X9604545Y17084630D01*
X9601214Y17082410D01*
X9597605Y17080188D01*
X9594273Y17077412D01*
X9591220Y17074358D01*
X9590942Y17074081D01*
X9589831Y17072971D01*
X9588443Y17071027D01*
X9586778Y17068806D01*
X9584834Y17066029D01*
X9582891Y17062698D01*
X9580948Y17059090D01*
X9579004Y17055202D01*
Y17054926D01*
X9578727Y17054369D01*
X9578449Y17053537D01*
X9577894Y17052148D01*
X9577338Y17050484D01*
X9576783Y17048540D01*
X9575950Y17046318D01*
X9575395Y17043820D01*
X9574007Y17037990D01*
X9572897Y17031326D01*
X9572064Y17024387D01*
X9571786Y17016612D01*
Y17016335D01*
Y17015501D01*
Y17014114D01*
X9572064Y17012450D01*
Y17010228D01*
X9572341Y17007451D01*
X9572619Y17004675D01*
X9572897Y17001620D01*
X9574007Y16994681D01*
X9575395Y16987463D01*
X9577616Y16980244D01*
X9580392Y16973305D01*
Y16973026D01*
X9580948Y16972472D01*
X9581225Y16971638D01*
X9582058Y16970528D01*
X9584001Y16967474D01*
X9587055Y16963586D01*
X9590664Y16959422D01*
X9595106Y16955258D01*
X9600381Y16951372D01*
X9606211Y16947763D01*
X9606489D01*
X9607044Y16947485D01*
X9607877Y16946930D01*
X9609265Y16946375D01*
X9610653Y16945819D01*
X9612596Y16945264D01*
X9617038Y16943597D01*
X9622591Y16942210D01*
X9628699Y16940822D01*
X9635361Y16939713D01*
X9642302Y16939433D01*
X9645078D01*
X9646744Y16939713D01*
X9648410D01*
X9652574Y16940266D01*
X9657571Y16940822D01*
X9662846Y16941933D01*
X9668676Y16943597D01*
X9674506Y16945541D01*
X9674784D01*
X9675339Y16945819D01*
X9675894Y16946097D01*
X9677005Y16946652D01*
X9680059Y16948039D01*
X9683390Y16949706D01*
X9687277Y16951649D01*
X9691441Y16953870D01*
X9695328Y16956369D01*
X9698659Y16959145D01*
Y16995236D01*
X9642024D01*
Y17018001D01*
X9723645D01*
Y16946652D01*
X9723368Y16946375D01*
X9722812Y16946097D01*
X9721702Y16945264D01*
X9720314Y16944154D01*
X9718648Y16943044D01*
X9716705Y16941655D01*
X9714206Y16939989D01*
X9711708Y16938324D01*
X9705877Y16934714D01*
X9699215Y16930827D01*
X9692274Y16927219D01*
X9684778Y16924165D01*
X9684501D01*
X9683945Y16923888D01*
X9682835Y16923610D01*
X9681447Y16923055D01*
X9679503Y16922499D01*
X9677282Y16921666D01*
X9674784Y16921111D01*
X9672285Y16920557D01*
X9666178Y16919168D01*
X9659237Y16917780D01*
X9651741Y16916946D01*
X9643968Y16916669D01*
X9641192D01*
X9639248Y16916946D01*
X9636750D01*
X9633696Y16917224D01*
X9630364Y16917780D01*
X9626755Y16918057D01*
X9618704Y16919724D01*
X9610098Y16921666D01*
X9601214Y16924719D01*
X9596772Y16926385D01*
X9592330Y16928607D01*
X9592052Y16928883D01*
X9591220Y16929163D01*
X9590109Y16929996D01*
X9588443Y16930827D01*
X9586500Y16932216D01*
X9584557Y16933604D01*
X9579282Y16937491D01*
X9573729Y16942488D01*
X9567899Y16948596D01*
X9562347Y16955536D01*
X9557350Y16963586D01*
Y16963866D01*
X9556794Y16964697D01*
X9556239Y16965808D01*
X9555406Y16967751D01*
X9554573Y16969695D01*
X9553741Y16972472D01*
X9552630Y16975247D01*
X9551520Y16978580D01*
X9550409Y16982188D01*
X9549299Y16986353D01*
X9548466Y16990517D01*
X9547633Y16994958D01*
X9546245Y17004675D01*
X9545690Y17014948D01*
Y17015225D01*
Y17016335D01*
Y17017723D01*
X9545967Y17019667D01*
Y17022165D01*
X9546245Y17025220D01*
X9546800Y17028273D01*
X9547078Y17031882D01*
X9547911Y17035770D01*
X9548466Y17039932D01*
X9550687Y17048817D01*
X9553463Y17057979D01*
X9557350Y17067140D01*
X9557627Y17067418D01*
X9557905Y17068251D01*
X9558460Y17069360D01*
X9559571Y17071027D01*
X9560681Y17073248D01*
X9562069Y17075468D01*
X9565956Y17080743D01*
X9570676Y17086852D01*
X9576506Y17092680D01*
X9583169Y17098511D01*
X9587055Y17101010D01*
X9590942Y17103510D01*
X9591220Y17103786D01*
X9592052Y17104063D01*
X9593163Y17104619D01*
X9594829Y17105452D01*
X9597050Y17106285D01*
X9599548Y17107394D01*
X9602324Y17108505D01*
X9605656Y17109616D01*
X9609265Y17110727D01*
X9613152Y17111560D01*
X9617316Y17112669D01*
X9621758Y17113503D01*
X9631475Y17114891D01*
X9636472Y17115446D01*
X9645356D01*
X9647022Y17115169D01*
D02*
G37*
G36*
X9819702Y17112669D02*
X9821923Y17112392D01*
X9824700Y17112115D01*
X9827754Y17111560D01*
X9830807Y17111005D01*
X9838026Y17109061D01*
X9845244Y17106285D01*
X9848853Y17104619D01*
X9852462Y17102676D01*
X9855793Y17100177D01*
X9858847Y17097401D01*
X9859125Y17097124D01*
X9859680Y17096846D01*
X9860235Y17095735D01*
X9861346Y17094624D01*
X9862734Y17093237D01*
X9864122Y17091293D01*
X9865510Y17089349D01*
X9867176Y17086852D01*
X9869952Y17081577D01*
X9872728Y17074915D01*
X9873839Y17071582D01*
X9874394Y17067696D01*
X9874949Y17063809D01*
X9875227Y17059644D01*
Y17059090D01*
Y17057701D01*
X9874949Y17055479D01*
X9874672Y17052426D01*
X9874116Y17049095D01*
X9873006Y17045209D01*
X9871895Y17041045D01*
X9870230Y17036879D01*
X9869952Y17036324D01*
X9869397Y17034937D01*
X9868286Y17032715D01*
X9866621Y17029662D01*
X9864400Y17026331D01*
X9861623Y17022165D01*
X9858292Y17018001D01*
X9854405Y17013281D01*
X9853850Y17012726D01*
X9852462Y17011060D01*
X9851074Y17009673D01*
X9849686Y17008284D01*
X9848020Y17006619D01*
X9845799Y17004398D01*
X9843578Y17002177D01*
X9840802Y16999678D01*
X9838026Y16996902D01*
X9834694Y16993848D01*
X9831085Y16990794D01*
X9827198Y16987186D01*
X9822756Y16983575D01*
X9818314Y16979689D01*
X9818037Y16979411D01*
X9817482Y16978856D01*
X9816371Y16978023D01*
X9814983Y16976913D01*
X9813317Y16975247D01*
X9811374Y16973581D01*
X9806932Y16969972D01*
X9802212Y16965808D01*
X9797770Y16961644D01*
X9793884Y16958035D01*
X9792218Y16956647D01*
X9790830Y16955258D01*
X9790552Y16954980D01*
X9789719Y16954147D01*
X9788609Y16953036D01*
X9787221Y16951372D01*
X9785833Y16949428D01*
X9784167Y16947485D01*
X9780835Y16942764D01*
X9875505D01*
Y16920000D01*
X9748076D01*
Y16920277D01*
Y16921388D01*
Y16923055D01*
X9748354Y16925275D01*
X9748631Y16927774D01*
X9749186Y16930550D01*
X9749742Y16933327D01*
X9750852Y16936380D01*
Y16936658D01*
X9751130Y16936935D01*
X9751685Y16938602D01*
X9752796Y16941100D01*
X9754461Y16944431D01*
X9756682Y16948318D01*
X9759459Y16952760D01*
X9762512Y16957202D01*
X9766399Y16961922D01*
Y16962199D01*
X9766954Y16962477D01*
X9768342Y16964142D01*
X9770841Y16966641D01*
X9774450Y16970250D01*
X9778614Y16974414D01*
X9783889Y16979411D01*
X9790275Y16984964D01*
X9797215Y16990794D01*
X9797493Y16991072D01*
X9798603Y16991905D01*
X9800269Y16993294D01*
X9802212Y16994958D01*
X9804711Y16997179D01*
X9807765Y16999678D01*
X9810819Y17002454D01*
X9814428Y17005508D01*
X9821368Y17012170D01*
X9828309Y17018834D01*
X9831640Y17022165D01*
X9834694Y17025497D01*
X9837470Y17028551D01*
X9839691Y17031604D01*
Y17031882D01*
X9840247Y17032159D01*
X9840802Y17032993D01*
X9841357Y17034103D01*
X9843300Y17037157D01*
X9845521Y17040765D01*
X9847465Y17045209D01*
X9849408Y17049928D01*
X9850519Y17055202D01*
X9851074Y17060201D01*
Y17060477D01*
Y17060754D01*
X9850796Y17062421D01*
X9850519Y17065198D01*
X9849686Y17068251D01*
X9848575Y17072137D01*
X9846632Y17076024D01*
X9844133Y17079910D01*
X9840802Y17083797D01*
X9840247Y17084354D01*
X9838858Y17085463D01*
X9836915Y17086852D01*
X9833861Y17088795D01*
X9829974Y17090460D01*
X9825533Y17092126D01*
X9820258Y17093237D01*
X9814428Y17093513D01*
X9812762D01*
X9811651Y17093237D01*
X9808320Y17092960D01*
X9804433Y17092126D01*
X9800269Y17091016D01*
X9795549Y17089072D01*
X9791107Y17086574D01*
X9786943Y17083241D01*
X9786388Y17082687D01*
X9785277Y17081299D01*
X9783612Y17079079D01*
X9781946Y17075746D01*
X9780003Y17071860D01*
X9778337Y17066862D01*
X9777226Y17061310D01*
X9776671Y17054926D01*
X9752518Y17057423D01*
Y17057701D01*
X9752796Y17058534D01*
Y17059921D01*
X9753073Y17061865D01*
X9753628Y17064085D01*
X9754184Y17066585D01*
X9755017Y17069640D01*
X9755849Y17072693D01*
X9758070Y17079355D01*
X9761402Y17086018D01*
X9763345Y17089349D01*
X9765844Y17092680D01*
X9768342Y17095735D01*
X9771119Y17098511D01*
X9771396Y17098788D01*
X9771951Y17099068D01*
X9772784Y17099899D01*
X9774172Y17100732D01*
X9775838Y17101843D01*
X9777782Y17102953D01*
X9780003Y17104341D01*
X9782779Y17105730D01*
X9785833Y17107118D01*
X9789164Y17108505D01*
X9792773Y17109616D01*
X9796660Y17110727D01*
X9800824Y17111560D01*
X9805266Y17112392D01*
X9809986Y17112669D01*
X9814983Y17112949D01*
X9817759D01*
X9819702Y17112669D01*
D02*
G37*
G36*
X9507378Y16920000D02*
X9481837D01*
Y17112115D01*
X9507378D01*
Y16920000D01*
D02*
G37*
%LPC*%
G36*
X9488564Y17417972D02*
X9428042Y17331909D01*
X9488564D01*
Y17417972D01*
D02*
G37*
%LPD*%
D54*
X1550000Y13939999D02*
X1570000D01*
X1490000Y14500000D02*
Y14789999D01*
X1750000Y13950000D02*
Y14370000D01*
X1620000Y14500000D02*
Y14789999D01*
X2440000Y13250000D02*
Y13560001D01*
X9910000Y3350000D02*
X10500000Y2760000D01*
X2805000Y12791005D02*
Y12830000D01*
Y12791005D02*
X5146005Y10450000D01*
X6724349D01*
X1902500Y13969675D02*
X1930325Y13997501D01*
X1902500Y13396523D02*
Y13969675D01*
X1930325Y13997501D02*
X3092500D01*
X3150000Y13939999D01*
X6140000Y12530000D02*
X7420000D01*
X6110000Y12560000D02*
X6140000Y12530000D01*
X7965200Y12974800D02*
X9892500Y11047500D01*
X2715200Y12974800D02*
X7965200D01*
X2440000Y13250000D02*
X2715200Y12974800D01*
X8920000Y12210000D02*
X8980000D01*
X9290000Y12985001D02*
X11610002D01*
X9030000Y12725000D02*
X9290000Y12985001D01*
X11610002D02*
X11675000Y12920003D01*
X11655000Y13014999D02*
X11750000Y12920000D01*
X9275000Y13014999D02*
X11655000D01*
X8940000Y12680000D02*
X9275000Y13014999D01*
X13177499Y11907500D02*
X13332500D01*
X11495000Y12847501D02*
X11600074D01*
X13045000Y12800000D02*
X13392500Y12452500D01*
X11912500Y12800000D02*
X13045000D01*
X11862500Y12750000D02*
X11912500Y12800000D01*
X13172501Y11785000D02*
X13302499D01*
X13057426Y12830000D02*
X13422501Y12464926D01*
X11900074Y12830000D02*
X13057426D01*
X11852574Y12782500D02*
X11900074Y12830000D01*
X12052500Y12232500D02*
X12055000Y12235000D01*
X13242500Y12550000D02*
X13360001Y12432500D01*
X12182648Y12332500D02*
X12400147Y12550000D01*
X13230074Y12520000D02*
X13330000Y12420074D01*
X12177574Y12285000D02*
X12412574Y12520000D01*
X12400147Y12550000D02*
X13242500D01*
X12412574Y12520000D02*
X13230074D01*
X13217648Y12490000D02*
X13297501Y12410148D01*
X12425000Y12490000D02*
X13217648D01*
X12170000Y12235000D02*
X12425000Y12490000D01*
X12394926Y12417500D02*
X13182500D01*
X12162426Y12185000D02*
X12394926Y12417500D01*
X11260000Y4010000D02*
X11290000Y3980000D01*
X10120000Y4010000D02*
X11260000D01*
X9705000Y3595000D02*
X10120000Y4010000D01*
X10650000Y2590000D02*
X10767175D01*
X11460000Y3282825D02*
Y4249780D01*
X10767175Y2590000D02*
X11460000Y3282825D01*
X10560000Y2500000D02*
X10650000Y2590000D01*
X11460000Y4249780D02*
X11710220Y4500000D01*
X8170000Y2900000D02*
X8730000D01*
X8729497Y2850000D02*
X9289497Y3410000D01*
X8730000Y2900000D02*
X9390000Y3560000D01*
X8045000Y2980000D02*
X8760000D01*
X9375000Y3595000D01*
X9705000D01*
X9390000Y3560000D02*
X9720000D01*
X10110000Y3950000D01*
X11944675Y6722500D02*
X12290502D01*
X11580000Y2230000D02*
X11720000Y2090000D01*
X12730000Y6087500D02*
Y6340000D01*
X11889675Y6777500D02*
X11944675Y6722500D01*
X11855325Y6777500D02*
X11889675D01*
X11429999Y7202825D02*
X11855325Y6777500D01*
X11395000Y7183995D02*
X11848994Y6730000D01*
X11395000Y7183995D02*
Y8594498D01*
X11182500Y8757500D02*
X11360000Y8580000D01*
Y7169497D02*
Y8580000D01*
Y7169497D02*
X11851997Y6677500D01*
X11325000Y7155000D02*
X11850000Y6630000D01*
X11325000Y7155000D02*
Y8355000D01*
X11190000Y8490000D02*
X11325000Y8355000D01*
X11290000Y7138995D02*
X11846494Y6582500D01*
X11290000Y7138995D02*
Y8290810D01*
X11210812Y8369998D02*
X11290000Y8290810D01*
X11831997Y6547500D02*
X12309675D01*
X11255000Y7124497D02*
X11831997Y6547500D01*
X11255000Y7124497D02*
Y8175000D01*
X11162502Y8267498D02*
X11255000Y8175000D01*
X12324172Y6582500D02*
X12502500Y6404172D01*
X11846494Y6582500D02*
X12324172D01*
X12286005Y6677500D02*
X12537500Y6426006D01*
Y6156997D02*
Y6426006D01*
X12572500Y6171495D02*
X13095000Y5648995D01*
X12572500Y6171495D02*
Y6440503D01*
X12290502Y6722500D02*
X12572500Y6440503D01*
X12537500Y6156997D02*
X13060001Y5634497D01*
Y4410000D02*
Y5634497D01*
X13095000Y4424497D02*
X13582500Y3936997D01*
X13095000Y4424497D02*
Y5648995D01*
X13060001Y4410000D02*
X13547501Y3922500D01*
Y2786998D02*
Y3922500D01*
X13330000Y2520000D02*
X13582500Y2772500D01*
Y3936997D01*
X13315501Y2555000D02*
X13547501Y2786998D01*
X12135000Y2555000D02*
X13315501D01*
X12229000Y2479000D02*
X12270000Y2520000D01*
X13330000D01*
X12140000Y2637500D02*
X13348505D01*
X13512500Y2801495D01*
Y3906997D01*
X12520000Y3022176D02*
X12832175Y2710000D01*
X12730000Y2672500D02*
X13334007D01*
X12843690Y3266309D02*
Y4966309D01*
X11830000Y5782500D02*
X12808691Y4803809D01*
Y2961309D02*
Y4803809D01*
X12878691Y4491309D02*
X13477499Y3892499D01*
X12878691Y4491309D02*
Y5715642D01*
X12502500Y6142500D02*
X12913690Y5731309D01*
Y4505807D02*
Y5731309D01*
Y4505807D02*
X13512500Y3906997D01*
X7768505Y8862500D02*
X11377500D01*
X7754008Y8827500D02*
X11211494D01*
X7739510Y8792500D02*
X11196997D01*
X7725013Y8757500D02*
X11182500D01*
X7723002Y8957500D02*
X11331997D01*
X7737499Y8992500D02*
X11346494D01*
X7234999Y9495000D02*
X7737499Y8992500D01*
X11346494D02*
X11757500Y8581495D01*
X7200000Y9480503D02*
X7723002Y8957500D01*
X11331997D02*
X11722500Y8566997D01*
X7165000Y9466005D02*
X7768505Y8862500D01*
X11377500D02*
X11687500Y8552500D01*
X7130000Y9451508D02*
X7754008Y8827500D01*
X11211494D02*
X11429999Y8608995D01*
X7095000Y9437011D02*
X7739510Y8792500D01*
X7060000Y9422513D02*
X7725013Y8757500D01*
X11196997Y8792500D02*
X11395000Y8594498D01*
X5160503Y10485000D02*
X6738847D01*
X5131508Y10415000D02*
X6709852D01*
X5117011Y10380000D02*
X6695355D01*
X5102514Y10345000D02*
X6680857D01*
X5088016Y10310000D02*
X6666360D01*
X5073519Y10275000D02*
X6651863D01*
X5059022Y10240000D02*
X6637365D01*
X5175000Y10520000D02*
X6753344D01*
X5190000Y10555000D02*
X6767841D01*
X3000000Y12745000D02*
X5190000Y10555000D01*
X6767841D02*
X7422841Y9900000D01*
X3000000Y12745000D02*
Y12830000D01*
X2925000Y12770000D02*
X5175000Y10520000D01*
X2925000Y12770000D02*
Y12830000D01*
X6753344Y10520000D02*
X7408344Y9865000D01*
X6637365Y10240000D02*
X6990000Y9887366D01*
X1902500Y13396523D02*
X5059022Y10240000D01*
X6651863Y10275000D02*
X7025000Y9901863D01*
X1950000Y13398518D02*
X5073519Y10275000D01*
X6666360Y10310000D02*
X7060000Y9916360D01*
X2090000Y13308017D02*
X5088016Y10310000D01*
X6680857Y10345000D02*
X7095000Y9930858D01*
X2150000Y13297514D02*
X5102514Y10345000D01*
X6695355Y10380000D02*
X7130000Y9945355D01*
X2250000Y13247011D02*
X5117011Y10380000D01*
X6709852Y10415000D02*
X7165000Y9959852D01*
X2745000Y12801508D02*
X5131508Y10415000D01*
X6724349Y10450000D02*
X7200000Y9974350D01*
X6738847Y10485000D02*
X7234999Y9988847D01*
X2865000Y12780503D02*
X5160503Y10485000D01*
X2865000Y12780503D02*
Y12830000D01*
X2745000Y12801508D02*
Y12830000D01*
X4395000Y9825000D02*
Y10800000D01*
X3035000Y12160000D02*
X4395000Y10800000D01*
X2810000Y12160000D02*
X3035000D01*
X4360000Y9810503D02*
Y10785000D01*
X3085000Y12060000D02*
X4360000Y10785000D01*
X2810000Y12060000D02*
X3085000D01*
X4325000Y9796005D02*
Y10770502D01*
X3135502Y11960000D02*
X4325000Y10770502D01*
X2810000Y11960000D02*
X3135502D01*
X1430000Y13819525D02*
X5665000Y9584525D01*
X2250000Y13247011D02*
Y13560001D01*
X2150000Y13297514D02*
Y13939999D01*
X2090000Y13308017D02*
Y13560001D01*
X1950000Y13398518D02*
Y13939999D01*
X1430000Y13819525D02*
Y14130000D01*
X11940000Y6970000D02*
X12000000D01*
X5665000Y6082500D02*
Y9584525D01*
X10370000Y2530000D02*
X10450000D01*
X10330000Y2490000D02*
X10370000Y2530000D01*
X12240000Y2000000D02*
Y2110000D01*
X4360000Y9810503D02*
X5392500Y8778003D01*
X4325000Y9796005D02*
X5357500Y8763505D01*
X4395000Y9825000D02*
X5427500Y8792500D01*
X5427500Y5542500D01*
X5357500Y8763505D02*
X5357500Y5513505D01*
X5427500Y5542500D02*
X6835000Y4135000D01*
X5357500Y5513505D02*
X6765000Y4106005D01*
X5392500Y8778003D02*
X5392500Y5528003D01*
X6800000Y4120503D01*
X5665000Y6082500D02*
X7785000Y3962500D01*
X6835000Y3310000D02*
Y4135000D01*
X6765000Y2233000D02*
Y4106005D01*
X6800000Y2706000D02*
Y4120503D01*
X6110000Y5297500D02*
X7052500Y4355000D01*
Y3420000D02*
Y4355000D01*
X6110000Y5297500D02*
Y5360000D01*
X6800000Y2706000D02*
X7149000Y2357000D01*
X6765000Y2233000D02*
X6895000Y2103000D01*
X7052500Y3420000D02*
X7717500Y2755000D01*
X6835000Y3310000D02*
X7460000Y2685000D01*
X7785000Y2030000D02*
Y3962500D01*
X9910000Y3350000D02*
X9910000D01*
X8300000Y2850000D02*
X8729497D01*
X10500000Y2580000D02*
Y2760000D01*
X10450000Y2530000D02*
X10500000Y2580000D01*
X11565000Y2985503D02*
X11660000Y2890503D01*
X11565000Y2985503D02*
Y4175000D01*
X11600000Y3000000D02*
Y4220000D01*
Y3000000D02*
X11700000Y2900000D01*
X11600000Y4220000D02*
X11680000Y4300000D01*
X11720000D01*
X11730000Y4290000D01*
X11700000Y2730000D02*
Y2900000D01*
X11572500Y2602500D02*
X11700000Y2730000D01*
X11660000Y2752825D02*
Y2890503D01*
X11557175Y2650000D02*
X11660000Y2752825D01*
X9289497Y3410000D02*
X10200000D01*
X10260000Y3350000D01*
X11940502Y6840000D02*
X11990000D01*
X11920000Y6910000D02*
X11990000D01*
X10240000Y6440000D02*
X10277500Y6402500D01*
X10700000Y2370000D02*
X10730000D01*
X10680000Y2350000D02*
X10700000Y2370000D01*
X11220400Y10967100D02*
X11715400D01*
X7850516Y8582500D02*
X9886997D01*
X7025000Y9408016D02*
X7850516Y8582500D01*
X9886997D02*
X9979497Y8490000D01*
X11190000D01*
X10187502Y8232498D02*
X11147502D01*
X9872500Y8547500D02*
X10187502Y8232498D01*
X7836019Y8547500D02*
X9872500D01*
X11757500Y7072501D02*
Y8581495D01*
X11722500Y7086998D02*
Y8566997D01*
X11687500Y7101495D02*
Y8552500D01*
X11429999Y7202825D02*
Y8608995D01*
X11079998Y8369998D02*
X11210812D01*
X6990000Y9393519D02*
X7836019Y8547500D01*
X10742486Y9865000D02*
X11792500Y8814986D01*
X7408344Y9865000D02*
X10742486D01*
X10756983Y9900000D02*
X11827500Y8829484D01*
X7422841Y9900000D02*
X10756983D01*
X9120000Y3800000D02*
X9360000Y4040000D01*
X10030000D01*
X10660000Y4670000D01*
X12843690Y3266309D02*
X13330000Y2780000D01*
X6762825Y14280000D02*
X9365325Y11677500D01*
X6700000Y14280000D02*
X6762825D01*
X8980000Y12210000D02*
X9030000Y12260000D01*
X13275002Y12035002D02*
X13360001Y12120000D01*
X13245003Y12285002D02*
X13297501Y12337500D01*
X13270003Y12160002D02*
X13330000Y12220000D01*
X13179997Y12035002D02*
X13275002D01*
X13179997Y12160002D02*
X13270003D01*
X13177499Y11545000D02*
Y11560000D01*
Y11540000D02*
Y11545000D01*
X7234999Y9495000D02*
Y9988847D01*
X7200000Y9480503D02*
Y9974350D01*
X7165000Y9466005D02*
Y9959852D01*
X7130000Y9451508D02*
Y9945355D01*
X7095000Y9437011D02*
Y9930858D01*
X7060000Y9422513D02*
Y9916360D01*
X7025000Y9408016D02*
Y9901863D01*
X6990000Y9393519D02*
Y9887366D01*
X12267500Y5542500D02*
Y5597500D01*
X10945000Y6725000D02*
X11100000Y6570000D01*
X10140000Y6440000D02*
X10150000D01*
X10085000Y6385000D02*
X10140000Y6440000D01*
X10085000Y4945503D02*
Y6385000D01*
X9064749Y3925252D02*
X10085000Y4945503D01*
X9064749Y3895252D02*
Y3925252D01*
X8920000Y3830000D02*
X10050000Y4960000D01*
X8920000Y3800000D02*
Y3830000D01*
X10050000Y4960000D02*
Y6440000D01*
X11550000Y4190000D02*
X11565000Y4175000D01*
X11100000Y5350000D02*
Y6570000D01*
X11961005Y6770000D02*
X11990000D01*
X11850000Y6630000D02*
X11890000D01*
X11650000Y6640000D02*
Y6680000D01*
X11220000Y7110000D02*
X11650000Y6680000D01*
X11220000Y7110000D02*
Y8160000D01*
X10832498Y8267498D02*
X11162502D01*
X11147502Y8232498D02*
X11220000Y8160000D01*
X11940000Y7040000D02*
X11990000D01*
X11880000Y6950000D02*
X11920000Y6910000D01*
X10815000Y7535000D02*
X10820000Y7540000D01*
X12507500Y2895000D02*
Y2925000D01*
Y2895000D02*
X12730000Y2672500D01*
X12100000Y2520000D02*
X12135000Y2555000D01*
X12100000Y2232000D02*
Y2520000D01*
X12502500Y6142500D02*
Y6404172D01*
X12730000Y6080000D02*
Y6087500D01*
X12467500Y6126833D02*
Y6389675D01*
X12309675Y6547500D02*
X12467500Y6389675D01*
X10729998Y8369998D02*
X10832498Y8267498D01*
X12137500Y2637500D02*
X12140000D01*
X13050000Y2710000D02*
X13120000Y2780000D01*
X12832175Y2710000D02*
X13050000D01*
X12520000Y3022176D02*
Y3730000D01*
X9030000Y12260000D02*
Y12725000D01*
X8940000Y12405000D02*
Y12680000D01*
X9930000Y12817500D02*
X9945000Y12802499D01*
X10559675D01*
X10607174Y12849998D01*
X11325000D01*
X9067175Y3830000D02*
X9407175Y4170000D01*
X9020000Y3830000D02*
X9067175D01*
X8990000Y3800000D02*
X9020000Y3830000D01*
X9407175Y4170000D02*
X9827175D01*
X10277500Y4620325D02*
Y6402500D01*
X9827175Y4170000D02*
X10277500Y4620325D01*
X8240000Y4121005D02*
Y5131005D01*
X7791005Y5580000D02*
X8240000Y5131005D01*
X6830000Y5580000D02*
X7791005D01*
X7710000Y5760000D02*
X8310000Y5160000D01*
X7420000Y5760000D02*
X7710000D01*
X8310000Y4150000D02*
Y5160000D01*
X6790000Y5620000D02*
Y5650000D01*
Y5620000D02*
X6830000Y5580000D01*
X8240000Y4121005D02*
X8461005Y3900000D01*
X8520000D01*
X8460503Y3950000D02*
X8860000D01*
X8275000Y4135503D02*
X8460503Y3950000D01*
X8275000Y4135503D02*
Y5145503D01*
X7770502Y5650000D02*
X8275000Y5145503D01*
X7510000Y5650000D02*
X7770502D01*
X8310000Y4150000D02*
X8400000Y4060000D01*
X7360000Y5650000D02*
Y5700000D01*
X7420000Y5760000D01*
X8400000Y4060000D02*
X8860000D01*
X6930000Y5650000D02*
X7060000Y5780000D01*
X7260000D01*
X8520000Y3900000D02*
X8530000D01*
X10879600Y2519600D02*
X11040103D01*
X10730000Y2370000D02*
X10879600Y2519600D01*
X11550000Y2650000D02*
X11557175D01*
X11172500Y2602500D02*
X11572500D01*
X11040103Y2519600D02*
X11163003Y2642500D01*
X11472500D01*
X11054600Y2484600D02*
X11172500Y2602500D01*
X11186997Y2567500D02*
X11704172D01*
X11790000Y2653327D01*
X10976497Y2357000D02*
X11186997Y2567500D01*
X11280000Y2500000D02*
Y2520000D01*
X11472500Y2642500D02*
X11590000Y2760000D01*
X11600000D01*
X11790000Y2653327D02*
Y3480000D01*
X10959000Y2357000D02*
X10976497D01*
X13320000Y2780000D02*
X13330000D01*
X12440000Y3810000D02*
X12520000Y3730000D01*
X11910000Y5100000D02*
X12137175D01*
X11900000D02*
X11910000D01*
X12137175D02*
X12660000Y4577175D01*
Y3010000D02*
Y4577175D01*
Y3010000D02*
X12889999Y2780000D01*
X12100000Y2232000D02*
X12229000Y2103000D01*
X11721000Y2357000D02*
X12390000Y3026000D01*
X12229000Y2357000D02*
Y2479000D01*
X10705000Y2135000D02*
X10840000Y2270000D01*
X10197000Y2127000D02*
X10330000Y2260000D01*
X11910000Y4600000D02*
X12030000D01*
X11900000D02*
X11910000D01*
X12030000D02*
X12110000Y4520000D01*
Y3940000D02*
Y4520000D01*
Y3940000D02*
X12390000Y3660000D01*
Y3026000D02*
Y3660000D01*
X10894600Y2484600D02*
X11054600D01*
X10840000Y2430000D02*
X10894600Y2484600D01*
X10840000Y2270000D02*
Y2430000D01*
X10705000Y2103000D02*
Y2135000D01*
X11790000Y3480000D02*
X11910000Y3600000D01*
X11280000Y2500000D02*
X11340000Y2440000D01*
Y2280000D02*
Y2440000D01*
X9820000Y2066901D02*
Y2450000D01*
Y2066901D02*
X9896401Y1990500D01*
X9820000Y2450000D02*
X9880000Y2510000D01*
Y2600000D01*
X9896401Y1990500D02*
X12230500D01*
X12240000Y2000000D01*
X11710220Y4500000D02*
X11910000D01*
X10260000Y3350000D02*
X10290000D01*
X10110000Y3950000D02*
X11230000D01*
X11910000Y3600000D02*
X12190000D01*
X10330000Y2260000D02*
Y2490000D01*
X10197000Y2103000D02*
Y2127000D01*
X11390000Y2230000D02*
X11580000D01*
X11340000Y2280000D02*
X11390000Y2230000D01*
X11100000Y5350000D02*
X11150000Y5300000D01*
X11675000Y12910002D02*
Y12920003D01*
X8940000Y12400000D02*
Y12405000D01*
X11625000Y11715000D02*
X11627500Y11717500D01*
X13180000Y11910000D02*
X13182500D01*
X13179997Y12285002D02*
X13245003D01*
X12055000Y12235000D02*
X12170000D01*
X12110000Y12185000D02*
X12162426D01*
X12112500Y12285000D02*
X12177574D01*
X13297501Y12337500D02*
Y12410148D01*
X13330000Y12220000D02*
Y12420074D01*
X13360001Y12120000D02*
Y12432500D01*
X13392500Y11967500D02*
Y12452500D01*
X13332500Y11907500D02*
X13392500Y11967500D01*
X13422501Y11905000D02*
Y12464926D01*
X13302499Y11785000D02*
X13422501Y11905000D01*
X9470000Y12192500D02*
X10165000D01*
X9467500Y12372500D02*
X10167500D01*
X9460000Y12562500D02*
X10172500D01*
X9460000Y12752500D02*
X10250000D01*
X10267500Y12735000D01*
X11962500Y11942500D02*
Y12467500D01*
X11980000Y12485000D01*
X12110000D01*
X12117500D01*
X10770000Y11595000D02*
X10775000Y11600000D01*
X11825000Y11805000D02*
X11962500Y11942500D01*
X10780000Y11602500D02*
X10840000D01*
X11042500Y11805000D01*
X11825000D01*
X10180000Y11630000D02*
X10250000Y11700000D01*
X10300000Y12190000D02*
X10600000Y11890000D01*
X10330000Y12370000D02*
X10550000Y12150000D01*
X10180000Y12562500D02*
X10277500D01*
X10580000Y12260000D01*
X10752426Y11640000D02*
X11420000Y12307574D01*
X10751360Y11640000D02*
X10752426D01*
X10420000Y11308640D02*
X10751360Y11640000D01*
X10420000Y11180000D02*
Y11308640D01*
X10360000Y11240000D02*
X10390000Y11270000D01*
Y11321066D01*
X11390000Y12321066D01*
X11697574Y12750000D02*
X11862500D01*
X11570000Y12920000D02*
X11707500Y12782500D01*
X11852574D01*
X11420000Y12307574D02*
Y12772500D01*
X11495000Y12847501D01*
X11600074D02*
X11697574Y12750000D01*
X11390000Y12321066D02*
Y12785000D01*
X11525000Y12920000D01*
X11570000D01*
X9058000Y1980000D02*
X9181000Y2103000D01*
X1570000Y13939999D02*
X1610000Y13980000D01*
X1490000Y14500000D02*
X1610000Y14380000D01*
Y13980000D02*
Y14380000D01*
X1620000Y14500000D02*
X1750000Y14370000D01*
X1150000Y13939999D02*
Y14450000D01*
X1200000Y14500000D01*
X1350000Y13939999D02*
Y14780000D01*
X12300000Y6770000D02*
X12730000Y6340000D01*
X12084800Y6985200D02*
Y7575200D01*
Y6985200D02*
X12300000Y6770000D01*
Y6770000D02*
Y6770000D01*
X11851997Y6677500D02*
X12286005D01*
X11848994Y6730000D02*
X11870000D01*
X12808691Y2961309D02*
X12989999Y2780000D01*
X12267500Y5542500D02*
X12843690Y4966309D01*
X13334007Y2672500D02*
X13477499Y2815992D01*
Y3892499D01*
X12467500Y6126833D02*
X12878691Y5715642D01*
X10660000Y4670000D02*
Y5290000D01*
X10350000Y6440000D02*
X10555000Y6235000D01*
Y5395000D02*
X10660000Y5290000D01*
X10555000Y5395000D02*
Y6235000D01*
X10580000Y12260000D02*
X10680000D01*
X10550000Y12150000D02*
X10682500D01*
X10685000D01*
X10600000Y11890000D02*
X10682500D01*
X10685000D01*
X10682500Y11820000D02*
X10685000D01*
X10250000Y11700000D02*
X10682500D01*
X10685000D01*
X9365325Y11677500D02*
X9477175D01*
X8300000Y6610000D02*
X8415000Y6725000D01*
X10945000D01*
X6090000Y12490000D02*
X7260000D01*
X7460000Y12290000D01*
X7420000Y12530000D02*
X7460000Y12490000D01*
X11635000Y11165000D02*
X11750000Y11050000D01*
X11895000Y11047500D02*
X12142500D01*
X11892500Y11050000D02*
X11895000Y11047500D01*
X11675000Y11667500D02*
Y11672500D01*
X11680000D02*
X13172501D01*
X11625000Y11647500D02*
Y11715000D01*
X13100000Y11622500D02*
X13177499Y11545000D01*
X11625000Y11647500D02*
X11650000Y11622500D01*
X13100000D01*
X11757500Y7072500D02*
X11880000Y6950000D01*
X11717323Y7063180D02*
Y7081820D01*
X11722500Y7086998D01*
X11682323Y7048683D02*
Y7096318D01*
X11687500Y7101495D01*
X11717323Y7063180D02*
X11940502Y6840000D01*
X11682323Y7048683D02*
X11961005Y6770000D01*
X11757500Y7072501D02*
X11757500Y7072500D01*
X11792500Y7117500D02*
X11940000Y6970000D01*
X11792500Y7117500D02*
Y8814986D01*
X11827500Y7152500D02*
X11940000Y7040000D01*
X11827500Y7152500D02*
Y8829484D01*
X11862500Y7797500D02*
X12084800Y7575200D01*
X11862500Y7797500D02*
Y10820000D01*
X11715400Y10967100D02*
X11862500Y10820000D01*
X7832500Y1980000D02*
X9058000D01*
X7785000Y2027500D02*
X7832500Y1980000D01*
X9892500Y11047500D02*
X11140000D01*
X11220400Y10967100D01*
X9477175Y11677500D02*
X10029675Y11125000D01*
X11157500D01*
X11197500Y11165000D01*
X11635000D01*
X10170000Y12370000D02*
X10330000D01*
X10320000Y7210000D02*
X10980000D01*
X12050000Y12332500D02*
X12182648D01*
X10180000Y11820000D02*
X10682500D01*
X13177499Y11545000D02*
X13185001Y11537500D01*
X10180000Y12190000D02*
X10300000D01*
X13172501Y11672500D02*
X13182500Y11662500D01*
X11675000Y11667500D02*
X11680000Y11672500D01*
X9265000Y12817500D02*
X9930000D01*
X1200000Y14500000D02*
Y14789999D01*
X1430000Y14130000D02*
X1530000Y14230000D01*
D56*
X7971000Y2834000D02*
Y4456000D01*
Y2834000D02*
X8065000Y2740000D01*
X7971000Y4456000D02*
X7980000Y4465000D01*
X7985000D01*
X7935000Y2819089D02*
Y4532500D01*
Y2819089D02*
X8050088Y2704000D01*
X12602500Y5519501D02*
Y5601588D01*
X12592000Y5498500D02*
X12602500Y5519501D01*
X12294000Y5910089D02*
X12602500Y5601588D01*
X12642500Y5442500D02*
Y5612500D01*
X12592000Y5498500D02*
X12592500Y5497500D01*
X12620000Y5420000D02*
X12642500Y5442500D01*
X8771500Y2738500D02*
X9060000Y2450000D01*
Y2236000D02*
Y2450000D01*
X8927000Y2103000D02*
X9060000Y2236000D01*
X8767411Y2738500D02*
X8771500D01*
X9058997Y8108997D02*
Y8195001D01*
X8858997Y8108503D02*
Y8195001D01*
X12330000Y5925000D02*
Y6350000D01*
X12274000Y6406000D02*
X12330000Y6350000D01*
X11640140Y6406000D02*
X12274000D01*
X8976000Y7177639D02*
Y8026000D01*
X9058997Y8108997D01*
X12330000Y5925000D02*
X12642500Y5612500D01*
X12294000Y5910089D02*
Y6335089D01*
X12259089Y6370000D02*
X12294000Y6335089D01*
X11075228Y6920000D02*
X11625228Y6370000D01*
X12259089D01*
X8976000Y7177639D02*
X9197639Y6956000D01*
X11090139D01*
X11640140Y6406000D01*
X9182728Y6920000D02*
X11075228D01*
X8940000Y7162728D02*
X9182728Y6920000D01*
X8940000Y7162728D02*
Y8027500D01*
X8858997Y8108503D02*
X8940000Y8027500D01*
X8050088Y2704000D02*
X8751000D01*
X8752500Y2702500D01*
X8065000Y2740000D02*
X8765911D01*
X8767411Y2738500D01*
X8752500Y2702500D02*
X8753860D01*
X8940000Y2516360D01*
Y2360000D02*
Y2516360D01*
D57*
X5050000Y12280000D02*
Y12860001D01*
X5300000Y12030000D02*
X5727500D01*
X5050000Y12280000D02*
X5300000Y12030000D01*
D60*
X10975000Y7125000D02*
X11070148D01*
X10900000Y7050000D02*
X10975000Y7125000D01*
X9390000Y7050000D02*
X10900000D01*
X11070148Y7125000D02*
X11705147Y6490000D01*
X9350000Y7090000D02*
X9390000Y7050000D01*
X12410000Y5967501D02*
X12457500Y5920000D01*
X12600000D01*
X7470000Y8310000D02*
X7635000D01*
X7380000Y8220000D02*
X7470000Y8310000D01*
X12410000Y5967501D02*
Y6360000D01*
X11705147Y6490000D02*
X12280000D01*
X12410000Y6360000D01*
D62*
X7979780Y13010001D02*
X9907080Y11082700D01*
X2750000Y13010001D02*
X7979780D01*
X2660000Y13100000D02*
X2750000Y13010001D01*
X10781755Y2554800D02*
X11495200Y3268245D01*
X10734800Y2554800D02*
X10781755D01*
X11495200Y3268245D02*
Y4235200D01*
X10230000Y2670000D02*
X10300000Y2600000D01*
X9350000Y2670000D02*
X10230000D01*
X9200000Y2520000D02*
X9350000Y2670000D01*
X12120000Y6999780D02*
X12765200Y6354580D01*
Y6154800D02*
Y6354580D01*
X11897699Y7812300D02*
X12120000Y7590000D01*
Y6999780D02*
Y7590000D01*
X11234980Y11002300D02*
X11730242D01*
X11495200Y4235200D02*
X11680000Y4420000D01*
X12765200Y6154800D02*
X12780000Y6140000D01*
X10580000Y2400000D02*
X10734800Y2554800D01*
X10580000Y2230000D02*
Y2400000D01*
X11680000Y4420000D02*
X11730000D01*
X10580000Y2210000D02*
Y2230000D01*
X9140000Y2520000D02*
X9200000D01*
X10500000Y2130000D02*
X10580000Y2210000D01*
X2660000Y13100000D02*
Y13560001D01*
X11897699Y7812300D02*
Y10834843D01*
X11730242Y11002300D02*
X11897699Y10834843D01*
X9907080Y11082700D02*
X11154580D01*
X11234980Y11002300D01*
D65*
X10459999Y17210001D02*
Y17510001D01*
X10059999Y17210001D02*
Y17510001D01*
X9659999Y17210001D02*
Y17510001D01*
X9260000Y17210001D02*
Y17510001D01*
X8860000Y17210001D02*
Y17510001D01*
X8460000Y17210001D02*
Y17510001D01*
X8060000Y17210001D02*
X10460000D01*
X8060000D02*
Y17510001D01*
X10460000D01*
X8060000D02*
X10460000D01*
X8060000Y17210001D02*
Y17510001D01*
Y17210001D02*
X10460000D01*
X8460000D02*
Y17510001D01*
X8860000Y17210001D02*
Y17510001D01*
X9260000Y17210001D02*
Y17510001D01*
X9659999Y17210001D02*
Y17510001D01*
X10059999Y17210001D02*
Y17510001D01*
X10459999Y17210001D02*
Y17510001D01*
X8060000D02*
X10460000D01*
X8060000Y17210001D02*
Y17510001D01*
Y17210001D02*
X10460000D01*
X8460000D02*
Y17510001D01*
X8860000Y17210001D02*
Y17510001D01*
X9260000Y17210001D02*
Y17510001D01*
X9659999Y17210001D02*
Y17510001D01*
X10059999Y17210001D02*
Y17510001D01*
X10459999Y17210001D02*
Y17510001D01*
X8060000D02*
X10460000D01*
X8060000Y17210001D02*
Y17510001D01*
Y17210001D02*
X10460000D01*
X8460000D02*
Y17510001D01*
X8860000Y17210001D02*
Y17510001D01*
X9260000Y17210001D02*
Y17510001D01*
X9659999Y17210001D02*
Y17510001D01*
X10059999Y17210001D02*
Y17510001D01*
X10459999Y17210001D02*
Y17510001D01*
X8060000D02*
X10460000D01*
X8060000Y17210001D02*
Y17510001D01*
Y17210001D02*
X10460000D01*
X8460000D02*
Y17510001D01*
X8860000Y17210001D02*
Y17510001D01*
X9260000Y17210001D02*
Y17510001D01*
X9659999Y17210001D02*
Y17510001D01*
X10059999Y17210001D02*
Y17510001D01*
X10459999Y17210001D02*
Y17510001D01*
D67*
X13750000Y12980000D02*
D03*
X8150000Y9440000D02*
D03*
X8780000D02*
D03*
X14110001Y12980000D02*
D03*
X14330000Y9330000D02*
D03*
D68*
X8419500Y490000D02*
D03*
X5460000D02*
D03*
X5079000D02*
D03*
D69*
X8800500D02*
D03*
X5841000D02*
D03*
D70*
X960000Y3760000D02*
D03*
Y3510000D02*
D03*
X10729998Y8369998D02*
D03*
Y8115998D02*
D03*
X11079998Y8369998D02*
D03*
Y8115998D02*
D03*
X1360000Y4910000D02*
D03*
Y3910000D02*
D03*
X8580001Y13660001D02*
D03*
Y14259998D02*
D03*
X10140001Y13659998D02*
D03*
Y14260002D02*
D03*
D71*
X4160000Y660000D02*
D03*
X3410000Y1960000D02*
D03*
Y2710000D02*
D03*
X2910000D02*
D03*
X2160000D02*
D03*
X4710000Y5710000D02*
D03*
Y6460000D02*
D03*
D72*
X4160000Y2160000D02*
D03*
D73*
X2460000Y910000D02*
D03*
X3160000D02*
D03*
D74*
X12018498Y8312503D02*
D03*
D75*
X11518498D02*
D03*
D76*
X3385000Y3809999D02*
D03*
X2135000D02*
D03*
X4110002Y5335002D02*
D03*
Y6585002D02*
D03*
X7060000Y7010000D02*
D03*
X8560000D02*
D03*
X4719998Y8960001D02*
D03*
Y9710002D02*
D03*
X8858997Y8195001D02*
D03*
X9058997D02*
D03*
X9309009D02*
D03*
X13394502Y8622000D02*
D03*
X13140501D02*
D03*
X12886502D02*
D03*
X12632502D02*
D03*
X12759502Y8368000D02*
D03*
X13013503D02*
D03*
X13267502D02*
D03*
D77*
X7358000Y7732500D02*
D03*
Y8447500D02*
D03*
D78*
X7280000Y8025000D02*
D03*
Y8155000D02*
D03*
X7380000Y8220000D02*
D03*
Y8090000D02*
D03*
Y7960000D02*
D03*
D79*
X5134999Y4277000D02*
D03*
Y4531000D02*
D03*
Y4785000D02*
D03*
D80*
Y4023000D02*
D03*
D81*
X2800006Y16080009D02*
D03*
X3054001Y15825999D02*
D03*
Y16334000D02*
D03*
X2546001D02*
D03*
Y15825999D02*
D03*
D82*
X660000Y2660000D02*
D03*
X11210000Y17160001D02*
D03*
X3709998Y17159999D02*
D03*
X14260001Y2660000D02*
D03*
X14260001Y660000D02*
D03*
X660000D02*
D03*
D83*
X8609010Y8195001D02*
D03*
X12505502Y8368000D02*
D03*
D84*
X9618000Y7925001D02*
D03*
X8302000Y7924999D02*
D03*
D85*
X10729998Y8623998D02*
D03*
X11079998D02*
D03*
D86*
X10389998Y8109998D02*
D03*
X6387000Y2103000D02*
D03*
D87*
X10389998Y8363998D02*
D03*
X6387000Y2357000D02*
D03*
X6641000Y2103000D02*
D03*
Y2357000D02*
D03*
X6895000Y2103000D02*
D03*
Y2357000D02*
D03*
X7149000Y2103000D02*
D03*
Y2357000D02*
D03*
X7403000Y2103000D02*
D03*
Y2357000D02*
D03*
X7657000Y2103000D02*
D03*
Y2357000D02*
D03*
X7911000Y2103000D02*
D03*
Y2357000D02*
D03*
X8165000Y2103000D02*
D03*
Y2357000D02*
D03*
X8419000Y2103000D02*
D03*
Y2357000D02*
D03*
X8673000Y2103000D02*
D03*
Y2357000D02*
D03*
X8927000Y2103000D02*
D03*
Y2357000D02*
D03*
X9181000Y2103000D02*
D03*
Y2357000D02*
D03*
X9435000Y2103000D02*
D03*
Y2357000D02*
D03*
X9689000Y2103000D02*
D03*
Y2357000D02*
D03*
X9943000Y2103000D02*
D03*
Y2357000D02*
D03*
X10197000Y2103000D02*
D03*
Y2357000D02*
D03*
X10451000Y2103000D02*
D03*
Y2357000D02*
D03*
X10705000Y2103000D02*
D03*
Y2357000D02*
D03*
X10959000Y2103000D02*
D03*
Y2357000D02*
D03*
X11213000Y2103000D02*
D03*
Y2357000D02*
D03*
X11467000Y2103000D02*
D03*
Y2357000D02*
D03*
X11721000Y2103000D02*
D03*
Y2357000D02*
D03*
X11975000Y2103000D02*
D03*
Y2357000D02*
D03*
X12229000Y2103000D02*
D03*
Y2357000D02*
D03*
X12483000Y2103000D02*
D03*
Y2357000D02*
D03*
X12737000Y2103000D02*
D03*
Y2357000D02*
D03*
X12991000Y2103000D02*
D03*
Y2357000D02*
D03*
X13245000Y2103000D02*
D03*
Y2357000D02*
D03*
X13499001Y2103000D02*
D03*
Y2357000D02*
D03*
X13753000Y2103000D02*
D03*
Y2357000D02*
D03*
D88*
X12160001Y8037998D02*
D03*
X13739998D02*
D03*
D89*
X12378502Y7733000D02*
D03*
X13521503D02*
D03*
D90*
X2598000Y9980000D02*
D03*
X2852000Y8964000D02*
D03*
X3106000D02*
D03*
X3360000D02*
D03*
X3614000D02*
D03*
Y9980000D02*
D03*
X3360000D02*
D03*
X3106000D02*
D03*
X2852000D02*
D03*
D91*
X2598000Y8964000D02*
D03*
D92*
X13180000Y11285003D02*
D03*
X13180000Y11535005D02*
D03*
X13180000Y11410001D02*
D03*
Y11660003D02*
D03*
Y11785002D02*
D03*
Y11910000D02*
D03*
X13179997Y12035002D02*
D03*
Y12160002D02*
D03*
Y12285002D02*
D03*
Y12410002D02*
D03*
D93*
X1750000Y13950000D02*
D03*
X12620000Y5420000D02*
D03*
X7932500Y4532500D02*
D03*
X10685000Y3055000D02*
D03*
X2805000Y12830000D02*
D03*
X1550000Y13950000D02*
D03*
X6110000Y12560000D02*
D03*
X7930000Y12760000D02*
D03*
X12070000Y12058750D02*
D03*
X11730000Y4230000D02*
D03*
Y4300000D02*
D03*
X10620000Y6460000D02*
D03*
X11030000Y7040000D02*
D03*
X8160000Y8680000D02*
D03*
Y8910000D02*
D03*
X14670000Y8310000D02*
D03*
X7421500Y6572511D02*
D03*
X6852489D02*
D03*
X9000000Y14575000D02*
D03*
X9200000D02*
D03*
X9550000D02*
D03*
X9750000D02*
D03*
X7760000Y950000D02*
D03*
X13670000Y13255000D02*
D03*
X13820000D02*
D03*
X13670000Y12705000D02*
D03*
X13820000D02*
D03*
X14030000Y13255000D02*
D03*
X14180000D02*
D03*
X14030000Y12705000D02*
D03*
X14180000D02*
D03*
X8070000Y9715000D02*
D03*
X8220000D02*
D03*
X8070000Y9165000D02*
D03*
X8220000D02*
D03*
X8700000Y9715000D02*
D03*
X8850000D02*
D03*
X8700000Y9165000D02*
D03*
X8850000D02*
D03*
X14400000Y9055000D02*
D03*
X14250000D02*
D03*
X14400000Y9605000D02*
D03*
X14250000D02*
D03*
X6110000Y4600500D02*
D03*
X6650000D02*
D03*
X6110000Y3900000D02*
D03*
X6645000Y3905000D02*
D03*
X5675000Y12650000D02*
D03*
X13210001Y7630000D02*
D03*
X4810000Y10160000D02*
D03*
Y10310000D02*
D03*
X4160000D02*
D03*
X4160000Y10160000D02*
D03*
X14660001Y8910000D02*
D03*
X910000Y13960001D02*
D03*
X10560000Y9110000D02*
D03*
X11210000D02*
D03*
X11385000Y11060000D02*
D03*
X11530000Y11070000D02*
D03*
X12080000Y6270000D02*
D03*
X12170000D02*
D03*
X6650000Y4060000D02*
D03*
X7340000Y2660000D02*
D03*
X7250000D02*
D03*
X9880000Y2600000D02*
D03*
X2810000Y12160000D02*
D03*
Y11960000D02*
D03*
Y12060000D02*
D03*
X7460000Y2685000D02*
D03*
X1910000Y16060001D02*
D03*
X1760000D02*
D03*
X1310000D02*
D03*
X1460000D02*
D03*
X1610000D02*
D03*
Y15685001D02*
D03*
X1910000D02*
D03*
X1760000D02*
D03*
X1460000D02*
D03*
X1310000D02*
D03*
X7170000Y9020000D02*
D03*
X8550000Y8630000D02*
D03*
X8610000Y8690000D02*
D03*
X7600000Y8590001D02*
D03*
X6110000Y5360000D02*
D03*
X9623200Y3680000D02*
D03*
X8110000Y5032500D02*
D03*
X2660000Y13560001D02*
D03*
X2437500D02*
D03*
X2247500D02*
D03*
X2087500D02*
D03*
X11930000Y15020000D02*
D03*
X12270000D02*
D03*
X7620000Y13739999D02*
D03*
X10782500Y5585000D02*
D03*
X10602500D02*
D03*
X11325000Y10905000D02*
D03*
X12557500Y10980000D02*
D03*
X8792500Y4150000D02*
D03*
X8862500D02*
D03*
X8937500Y4255000D02*
D03*
X9040000Y4520000D02*
D03*
X9120000Y4400000D02*
D03*
X11830000Y5782500D02*
D03*
X12267500Y5597500D02*
D03*
X8045000Y2980000D02*
D03*
X6700000Y14280000D02*
D03*
X12040000Y6630000D02*
D03*
X11890000D02*
D03*
X11580000Y7120000D02*
D03*
X11060000Y7700000D02*
D03*
X11970000Y7200000D02*
D03*
X11990000Y6770000D02*
D03*
Y6972500D02*
D03*
Y6837500D02*
D03*
Y6905000D02*
D03*
Y7040000D02*
D03*
X12290000Y7130000D02*
D03*
X11000000Y6420000D02*
D03*
X11650000Y6640000D02*
D03*
X1620000Y14780000D02*
D03*
X1200000D02*
D03*
X1490000D02*
D03*
X1350000D02*
D03*
X14030000Y8570000D02*
D03*
X14410001Y8660000D02*
D03*
X13900000Y2960000D02*
D03*
Y3060000D02*
D03*
Y3160000D02*
D03*
Y3260000D02*
D03*
Y3360000D02*
D03*
Y3460000D02*
D03*
Y3560000D02*
D03*
Y3660000D02*
D03*
Y3760000D02*
D03*
Y3860000D02*
D03*
Y3960000D02*
D03*
Y4060000D02*
D03*
Y4160000D02*
D03*
Y4260000D02*
D03*
Y4360000D02*
D03*
Y4460000D02*
D03*
X10815000Y7535000D02*
D03*
X12507500Y2927500D02*
D03*
X12989999Y5532500D02*
D03*
X11512499Y7535000D02*
D03*
X12140000Y2637500D02*
D03*
X8425000Y7587500D02*
D03*
X12937500Y6282500D02*
D03*
X13452499Y6630000D02*
D03*
X13300000D02*
D03*
X12602500Y6605000D02*
D03*
X12827499Y6915000D02*
D03*
X12800000Y7097500D02*
D03*
X12440000Y7130000D02*
D03*
X12630000D02*
D03*
X13439999Y6840000D02*
D03*
X13289999D02*
D03*
X11450000Y2760000D02*
D03*
X12510000Y5030000D02*
D03*
X12800000Y5450000D02*
D03*
X12600000Y5920000D02*
D03*
X13110001Y5950000D02*
D03*
X8830000Y6830000D02*
D03*
X10280000Y7130000D02*
D03*
X10320000Y7210000D02*
D03*
X10750000Y7130000D02*
D03*
X10980000Y7207500D02*
D03*
X9457500Y12480000D02*
D03*
X12020000Y14150000D02*
D03*
X11292500Y13987500D02*
D03*
X10900000Y13905000D02*
D03*
X11500000Y14422501D02*
D03*
X11575000Y14147501D02*
D03*
X11882500Y13352499D02*
D03*
X7902500Y11960000D02*
D03*
X11062500Y13085001D02*
D03*
X9265000Y12820000D02*
D03*
X11275000Y12920000D02*
D03*
X10947500Y12622500D02*
D03*
X10685000Y12620000D02*
D03*
X4580000Y10010000D02*
D03*
X4180000Y9820000D02*
D03*
X4050000D02*
D03*
X3970000Y8865000D02*
D03*
X4105000D02*
D03*
X11420000Y6120000D02*
D03*
X8600000Y6430000D02*
D03*
X11290000Y6130000D02*
D03*
X11480000Y5880000D02*
D03*
X11210000Y5420000D02*
D03*
X11000000Y5350000D02*
D03*
X8480000Y5500000D02*
D03*
Y5600000D02*
D03*
Y5700000D02*
D03*
Y5800000D02*
D03*
Y5910000D02*
D03*
Y6000000D02*
D03*
X9060000Y3890000D02*
D03*
X10720000Y6490000D02*
D03*
X10360000Y7490000D02*
D03*
X11550000Y11470000D02*
D03*
X10480000Y7690000D02*
D03*
X8480000Y6100000D02*
D03*
X8600000Y6570000D02*
D03*
X8910000Y6150000D02*
D03*
X9150000Y6440000D02*
D03*
X10170000Y6130000D02*
D03*
X11020000Y6110000D02*
D03*
X7240000Y6560000D02*
D03*
X8130000Y6530000D02*
D03*
X8000000Y6870000D02*
D03*
X11000000Y5500000D02*
D03*
X8520000Y3700000D02*
D03*
X7260000Y5780000D02*
D03*
X7430000Y5270000D02*
D03*
X7270000Y5180000D02*
D03*
X6650000Y5300000D02*
D03*
X6510000Y5310000D02*
D03*
X7500000Y5650000D02*
D03*
X7360000D02*
D03*
X7220000D02*
D03*
X7080000D02*
D03*
X6930000D02*
D03*
X6790000D02*
D03*
X12780000Y6140000D02*
D03*
X12730000Y6087500D02*
D03*
X13660001Y5810000D02*
D03*
X7540000Y5270000D02*
D03*
X7320000D02*
D03*
X7210000D02*
D03*
X7100000Y5180000D02*
D03*
X6990000Y5270000D02*
D03*
X6920000Y5180000D02*
D03*
X6840000D02*
D03*
X11700000Y2650000D02*
D03*
X11280000Y2520000D02*
D03*
X11400000Y2690000D02*
D03*
X10950000Y2620000D02*
D03*
X11170000Y2230000D02*
D03*
X10580000D02*
D03*
X12250000Y5150000D02*
D03*
X13330000Y2780000D02*
D03*
X12440000Y3810000D02*
D03*
X12989999Y2780000D02*
D03*
X13220000D02*
D03*
X13120000D02*
D03*
X12889999D02*
D03*
X9120000Y3800000D02*
D03*
X8920000D02*
D03*
X8990000D02*
D03*
X8840000D02*
D03*
X9310000Y2200000D02*
D03*
X11450000Y4360000D02*
D03*
X8420000Y3170000D02*
D03*
X11760000Y5900000D02*
D03*
X10290000Y3350000D02*
D03*
X8300000Y2850000D02*
D03*
X10560000Y2500000D02*
D03*
X9140000Y2520000D02*
D03*
X11730000Y4420000D02*
D03*
X11290000Y3980000D02*
D03*
X11230000Y3950000D02*
D03*
X8170000Y2900000D02*
D03*
X11600000Y2760000D02*
D03*
X9920000Y3350000D02*
D03*
X11350000Y2730000D02*
D03*
X11110000Y2680000D02*
D03*
X10990000Y7490000D02*
D03*
X10550000Y2600000D02*
D03*
X10300000D02*
D03*
X10070000Y2440000D02*
D03*
X10180000Y2600000D02*
D03*
X9950000Y2760000D02*
D03*
X3860000Y13460001D02*
D03*
X3660000D02*
D03*
X3239998Y15800002D02*
D03*
X3350000Y15800000D02*
D03*
X3460000D02*
D03*
X3239998Y16390002D02*
D03*
X3350000Y16389999D02*
D03*
X3460000D02*
D03*
X11750000Y11050000D02*
D03*
X7130000Y13980000D02*
D03*
X7400000Y13970000D02*
D03*
X7620000Y14580000D02*
D03*
X7621000Y14960001D02*
D03*
X7280000D02*
D03*
X11840000Y3635000D02*
D03*
X12635000Y2840000D02*
D03*
Y2685000D02*
D03*
X11840000Y2680000D02*
D03*
Y3257500D02*
D03*
X11110000D02*
D03*
X10960000D02*
D03*
X10820000Y3260000D02*
D03*
X10680000D02*
D03*
X11400000Y3690000D02*
D03*
X11260000D02*
D03*
X11110000Y3630000D02*
D03*
X10960000Y3625000D02*
D03*
X10820000Y3630000D02*
D03*
X11990000Y2940000D02*
D03*
X10660000Y2740000D02*
D03*
X12180000Y3400000D02*
D03*
Y3300000D02*
D03*
Y3200000D02*
D03*
Y3100000D02*
D03*
X10490000Y3260000D02*
D03*
X9730000Y8180000D02*
D03*
X8300000Y6610000D02*
D03*
X7730000Y6240000D02*
D03*
X11550000Y4190000D02*
D03*
Y2650000D02*
D03*
X8020000Y7320000D02*
D03*
X8050000Y7590000D02*
D03*
X8020000Y6247502D02*
D03*
X7870000Y6250002D02*
D03*
X7987378Y7022500D02*
D03*
X7895000Y7880000D02*
D03*
X7890000Y8030000D02*
D03*
X9350000Y7090000D02*
D03*
X13200000Y5820000D02*
D03*
X11860000Y4447500D02*
D03*
X11772500Y3925000D02*
D03*
X12590000Y4030000D02*
D03*
X12240000Y4810000D02*
D03*
X12372620Y5057500D02*
D03*
X12325000Y4517500D02*
D03*
Y4017500D02*
D03*
X13349998Y3300000D02*
D03*
X13205476D02*
D03*
X13048334D02*
D03*
X12891191D02*
D03*
X12734048D02*
D03*
X12594285D02*
D03*
X12459762D02*
D03*
X12320000D02*
D03*
X13379999Y3829999D02*
D03*
X12510000Y4660000D02*
D03*
X13360001Y5810000D02*
D03*
X12750000Y5710000D02*
D03*
X13015002Y6135002D02*
D03*
X11150000Y5300000D02*
D03*
X13645000Y8665000D02*
D03*
X13910001Y8860000D02*
D03*
X9040000Y4700000D02*
D03*
Y4600000D02*
D03*
X14510001Y8870000D02*
D03*
X14410001Y8569998D02*
D03*
X14410001Y8760001D02*
D03*
X12730002Y7630002D02*
D03*
X12951190Y9080000D02*
D03*
X12953810Y8917380D02*
D03*
X12607620Y8920000D02*
D03*
Y9082620D02*
D03*
X13300000Y8917380D02*
D03*
Y9080000D02*
D03*
X10750000Y2680000D02*
D03*
X7635000Y8310000D02*
D03*
X11830000Y5900000D02*
D03*
X9050000D02*
D03*
X9350000D02*
D03*
X9050000Y5700000D02*
D03*
X9350000D02*
D03*
X9200000Y5600000D02*
D03*
Y5800000D02*
D03*
X11500000Y6000000D02*
D03*
Y5600000D02*
D03*
X11350000Y5700000D02*
D03*
X11650000D02*
D03*
Y5900000D02*
D03*
X11350000D02*
D03*
X10220000Y3900000D02*
D03*
X10480000D02*
D03*
X10350000Y3800000D02*
D03*
Y3590000D02*
D03*
X9050000Y3500000D02*
D03*
X9200000Y3600000D02*
D03*
X9350000Y3300000D02*
D03*
X9050000Y5470000D02*
D03*
X9350000D02*
D03*
X8970000Y6120000D02*
D03*
Y6570000D02*
D03*
X9050000D02*
D03*
X8960000Y5900000D02*
D03*
X8930000Y5570000D02*
D03*
X8970000Y5400000D02*
D03*
Y5250000D02*
D03*
Y4900000D02*
D03*
Y5070000D02*
D03*
Y4790000D02*
D03*
X9210000Y5880000D02*
D03*
X9470000Y5900000D02*
D03*
X9530000Y7140000D02*
D03*
X9730000Y7130000D02*
D03*
X9950000D02*
D03*
X10180000D02*
D03*
X10380000D02*
D03*
X11570000Y7490000D02*
D03*
X10010000Y4640000D02*
D03*
X10190000D02*
D03*
X10370000D02*
D03*
X10550000D02*
D03*
X9050000Y3680000D02*
D03*
X9620000Y3460000D02*
D03*
X9200000Y3510000D02*
D03*
X10050000Y3350000D02*
D03*
X11550000Y4600000D02*
D03*
X11030000Y4280000D02*
D03*
X11290000D02*
D03*
X9250000Y4710000D02*
D03*
X9450000D02*
D03*
X9650000D02*
D03*
X10460000Y5300000D02*
D03*
Y5500000D02*
D03*
Y5700000D02*
D03*
X8970000Y6490000D02*
D03*
X9050000Y6440000D02*
D03*
X9250000D02*
D03*
X9350000D02*
D03*
X9450000D02*
D03*
X9550000D02*
D03*
X9650000D02*
D03*
X9750000D02*
D03*
X9850000D02*
D03*
X9950000D02*
D03*
X10050000D02*
D03*
X10150000D02*
D03*
X10250000D02*
D03*
X10350000D02*
D03*
X10450000D02*
D03*
X10550000D02*
D03*
X11850000Y6150000D02*
D03*
X11910000Y6100000D02*
D03*
Y6000000D02*
D03*
Y5100000D02*
D03*
Y4600000D02*
D03*
Y4500000D02*
D03*
X11840000Y3810000D02*
D03*
X12190000Y3600000D02*
D03*
Y3500000D02*
D03*
X11960000Y2750000D02*
D03*
X11170000Y2740000D02*
D03*
X11050000D02*
D03*
X10850000D02*
D03*
X10440000D02*
D03*
X9750000Y3060000D02*
D03*
X9650000D02*
D03*
X8500000Y3040000D02*
D03*
X8520000Y3600000D02*
D03*
Y3800000D02*
D03*
Y3900000D02*
D03*
X8860000Y3950000D02*
D03*
Y4060000D02*
D03*
X9010000Y4090000D02*
D03*
X9050000Y4030000D02*
D03*
X11377500Y13320000D02*
D03*
X11625000Y13377499D02*
D03*
X11445000Y11695000D02*
D03*
X10377500Y12650000D02*
D03*
X10277500Y12307500D02*
D03*
Y12077500D02*
D03*
Y11935000D02*
D03*
Y11575000D02*
D03*
X12050000Y12650000D02*
D03*
X12717500Y12367500D02*
D03*
X12050000Y12435000D02*
D03*
X12110000Y12385000D02*
D03*
X11062500Y11715000D02*
D03*
X11775000Y12849998D02*
D03*
X11675000Y12920003D02*
D03*
X8940000Y12405000D02*
D03*
X8925000Y12205000D02*
D03*
X11525000Y12849998D02*
D03*
X10352500Y10152500D02*
D03*
X10342500Y10602500D02*
D03*
X7462500Y13110001D02*
D03*
X8270000D02*
D03*
X7540000Y12390000D02*
D03*
X8080000Y12390000D02*
D03*
X7710000Y12050000D02*
D03*
X7760000D02*
D03*
X7910000D02*
D03*
X7860002Y12775003D02*
D03*
X11570000Y12920003D02*
D03*
X11750000Y12920000D02*
D03*
X7970000Y12855003D02*
D03*
X7850000D02*
D03*
X7910000Y13210001D02*
D03*
X7370000Y13139999D02*
D03*
X7300000D02*
D03*
X7230000D02*
D03*
X7370000Y13080000D02*
D03*
X7300000D02*
D03*
X7230000D02*
D03*
X12055000Y11782500D02*
D03*
X12725000Y12737500D02*
D03*
X12775000Y12989999D02*
D03*
X12850000Y12740000D02*
D03*
X12720000Y12180000D02*
D03*
X12490000Y12100000D02*
D03*
X12110000Y12285000D02*
D03*
X12050000Y12335000D02*
D03*
Y12235000D02*
D03*
X12110000Y12185000D02*
D03*
X11625000Y11715000D02*
D03*
X11675000Y11672500D02*
D03*
X10770000Y11595000D02*
D03*
X12110000Y12485000D02*
D03*
X9925000Y13395000D02*
D03*
X9710000D02*
D03*
X9710000Y11087500D02*
D03*
X9322500Y11440000D02*
D03*
X10180000D02*
D03*
X9457500Y11630000D02*
D03*
X10180000D02*
D03*
X9457500Y11812500D02*
D03*
X10180000D02*
D03*
X9457500Y12002500D02*
D03*
X10180000D02*
D03*
X9457500Y12192500D02*
D03*
X10180000D02*
D03*
X9457500Y12372500D02*
D03*
X10180000D02*
D03*
X9457500Y12562500D02*
D03*
X10180000D02*
D03*
X9457500Y12752500D02*
D03*
X10267500Y12735000D02*
D03*
X9367500Y12930000D02*
D03*
X9457500Y13125000D02*
D03*
Y13300000D02*
D03*
X10180000D02*
D03*
X9457500Y11260000D02*
D03*
X10180000D02*
D03*
X9922500Y11160000D02*
D03*
X11275000Y11695000D02*
D03*
X11362500D02*
D03*
X10682500Y12380000D02*
D03*
Y12260000D02*
D03*
Y12150000D02*
D03*
Y11890000D02*
D03*
Y11820000D02*
D03*
Y11700000D02*
D03*
Y12070000D02*
D03*
X10420000Y11180000D02*
D03*
X10360000Y11240000D02*
D03*
X10540000Y12850000D02*
D03*
X10430000D02*
D03*
X12050000Y12140000D02*
D03*
X10180000Y12927499D02*
D03*
Y13125000D02*
D03*
X10580000Y12440000D02*
D03*
X10632500Y11987500D02*
D03*
X12864999Y11575004D02*
D03*
X12515000D02*
D03*
X14087500Y8605000D02*
D03*
X14264999Y8827500D02*
D03*
X11325000Y12849998D02*
D03*
X11455000Y12937500D02*
D03*
X11382500D02*
D03*
X2900000Y14880000D02*
D03*
X2910000Y15030000D02*
D03*
X2150000Y15189999D02*
D03*
X2550000D02*
D03*
X2750000D02*
D03*
X1530000Y14080000D02*
D03*
X1870000D02*
D03*
X1530000Y14230000D02*
D03*
X770000Y13670000D02*
D03*
X1150000Y13950000D02*
D03*
X1350000D02*
D03*
X1950000D02*
D03*
X2150000D02*
D03*
X3150000Y13939999D02*
D03*
X3350000D02*
D03*
X1200000Y15110001D02*
D03*
X1350000D02*
D03*
X1490000D02*
D03*
X1620000D02*
D03*
X1275000Y14527499D02*
D03*
X1420000D02*
D03*
X1557500D02*
D03*
X1840000Y13560001D02*
D03*
X2950000Y15189999D02*
D03*
X2745000Y12830000D02*
D03*
X2865000D02*
D03*
X2925000D02*
D03*
X11640000Y7700000D02*
D03*
X3000000Y12830000D02*
D03*
X12589999Y5497500D02*
D03*
X7985000Y4465000D02*
D03*
X11340000Y3790000D02*
D03*
X11530000Y7720000D02*
D03*
Y8030000D02*
D03*
X11870000Y6730000D02*
D03*
X10975000Y7702500D02*
D03*
X10157500Y7775000D02*
D03*
X10380000Y7672500D02*
D03*
X3060000Y16660001D02*
D03*
X2860000D02*
D03*
X2660000D02*
D03*
X2460000D02*
D03*
X2260000D02*
D03*
X2060000D02*
D03*
X1860000D02*
D03*
X1660000D02*
D03*
X1460000D02*
D03*
X1260000D02*
D03*
X1060000D02*
D03*
X860000D02*
D03*
X660000D02*
D03*
X460000D02*
D03*
X260000D02*
D03*
Y16460001D02*
D03*
Y16260001D02*
D03*
Y16060001D02*
D03*
Y15860001D02*
D03*
Y15660001D02*
D03*
Y15460001D02*
D03*
Y15260001D02*
D03*
Y15060001D02*
D03*
Y14860001D02*
D03*
Y14660001D02*
D03*
Y14460001D02*
D03*
X3860000Y16460001D02*
D03*
Y16260001D02*
D03*
Y16060001D02*
D03*
Y15860001D02*
D03*
Y15660001D02*
D03*
Y15460001D02*
D03*
X260000Y13460001D02*
D03*
Y13660001D02*
D03*
X460000Y13460001D02*
D03*
X660000D02*
D03*
X860000D02*
D03*
X1060000D02*
D03*
X1260000D02*
D03*
X8140000Y11850000D02*
D03*
X11737500Y3845000D02*
D03*
X7460000Y12490000D02*
D03*
Y12290000D02*
D03*
X5650000Y12310000D02*
D03*
X6090000Y12490000D02*
D03*
X11892500Y11050000D02*
D03*
X12142500Y11047500D02*
D03*
X12385001Y11575004D02*
D03*
X12542500Y11727500D02*
D03*
X7515000Y11850000D02*
D03*
X11592500Y8567500D02*
D03*
X12520004Y15020000D02*
D03*
X12400000D02*
D03*
X12055000Y14285001D02*
D03*
X7360000Y6010000D02*
D03*
X7502500D02*
D03*
X7617500Y5530000D02*
D03*
X10492500Y3045000D02*
D03*
X7717500Y2755000D02*
D03*
X6197500Y5627500D02*
D03*
X6292500Y5380000D02*
D03*
X11535000Y7205000D02*
D03*
X11530000Y8110000D02*
D03*
X3260000Y16660001D02*
D03*
X3460000D02*
D03*
X3660000D02*
D03*
X3860000D02*
D03*
Y15260001D02*
D03*
X3860000Y14060001D02*
D03*
Y14260001D02*
D03*
Y14460001D02*
D03*
Y14660001D02*
D03*
Y14860001D02*
D03*
Y15060001D02*
D03*
Y13860001D02*
D03*
X3860000Y13660001D02*
D03*
X3460000Y13460001D02*
D03*
X3260000D02*
D03*
X3060000D02*
D03*
X1460000D02*
D03*
X1660000D02*
D03*
X11110000Y4093160D02*
D03*
X11210000Y4090000D02*
D03*
D94*
X14680000Y8040000D02*
D03*
X7560000Y485000D02*
D03*
X6990000Y11820000D02*
D03*
X5167999Y9734502D02*
D03*
X6400000Y10900000D02*
D03*
X5085000Y10910000D02*
D03*
X13010001Y15160001D02*
D03*
X13110001Y14010001D02*
D03*
X2710000Y7310000D02*
D03*
X8426050Y1460000D02*
D03*
X9660000Y1160000D02*
D03*
X7610000D02*
D03*
X9480000Y3900000D02*
D03*
X13380000Y3130000D02*
D03*
X11760000Y13630000D02*
D03*
X13620000Y16520000D02*
D03*
X14010001Y15560001D02*
D03*
X13260004Y15400003D02*
D03*
X8585000Y15735001D02*
D03*
X9520000Y7430000D02*
D03*
X5530000Y9860000D02*
D03*
X9760000Y3900000D02*
D03*
X9620000Y3260000D02*
D03*
X11070000Y10905000D02*
D03*
X3150000Y15150000D02*
D03*
X2800000Y14680000D02*
D03*
X2630000D02*
D03*
X5050000Y12860001D02*
D03*
X5727500Y12030000D02*
D03*
X10912500Y15527499D02*
D03*
X2350000Y1210000D02*
D03*
X2560000D02*
D03*
Y610000D02*
D03*
X2350000D02*
D03*
X3050000Y1210000D02*
D03*
X3260000D02*
D03*
Y610000D02*
D03*
X3050000D02*
D03*
X7810000Y12389999D02*
D03*
X5167999Y9310000D02*
D03*
X6360000Y11360000D02*
D03*
X6460000Y15160001D02*
D03*
X8797500Y1650000D02*
D03*
X5160000Y11395000D02*
D03*
X10135000Y15747495D02*
D03*
X10867499Y14810001D02*
D03*
X10872499Y15060001D02*
D03*
X10720000Y15210001D02*
D03*
X14310001Y13610001D02*
D03*
X5860000Y14295003D02*
D03*
D95*
X9532500Y15714999D02*
D03*
X9532500Y14892500D02*
D03*
X7570000Y15910001D02*
D03*
Y15960001D02*
D03*
Y16010001D02*
D03*
Y16060001D02*
D03*
Y16110001D02*
D03*
Y16160001D02*
D03*
Y16210001D02*
D03*
Y16260001D02*
D03*
Y16310001D02*
D03*
Y16360001D02*
D03*
X7470000Y15910001D02*
D03*
Y15960001D02*
D03*
Y16010001D02*
D03*
Y16060001D02*
D03*
Y16110001D02*
D03*
Y16160001D02*
D03*
Y16210001D02*
D03*
Y16260001D02*
D03*
Y16310001D02*
D03*
Y16360001D02*
D03*
X7370000Y15910001D02*
D03*
Y15960001D02*
D03*
Y16010001D02*
D03*
Y16060001D02*
D03*
Y16110001D02*
D03*
Y16160001D02*
D03*
Y16210001D02*
D03*
Y16260001D02*
D03*
Y16310001D02*
D03*
Y16360001D02*
D03*
X7270000Y15910001D02*
D03*
Y15960001D02*
D03*
Y16010001D02*
D03*
Y16060001D02*
D03*
Y16110001D02*
D03*
Y16160001D02*
D03*
Y16210001D02*
D03*
Y16260001D02*
D03*
Y16310001D02*
D03*
Y16360001D02*
D03*
X7170000Y15910001D02*
D03*
Y15960001D02*
D03*
Y16010001D02*
D03*
Y16060001D02*
D03*
Y16110001D02*
D03*
Y16160001D02*
D03*
Y16210001D02*
D03*
Y16260001D02*
D03*
Y16310001D02*
D03*
Y16360001D02*
D03*
X7070000Y15910001D02*
D03*
Y15960001D02*
D03*
Y16010001D02*
D03*
Y16060001D02*
D03*
Y16110001D02*
D03*
Y16160001D02*
D03*
Y16210001D02*
D03*
Y16260001D02*
D03*
Y16310001D02*
D03*
Y16360001D02*
D03*
X6970000D02*
D03*
Y16310001D02*
D03*
Y16260001D02*
D03*
Y16210001D02*
D03*
Y16160001D02*
D03*
Y16110001D02*
D03*
Y16060001D02*
D03*
Y16010001D02*
D03*
Y15960001D02*
D03*
Y15910001D02*
D03*
X11620000D02*
D03*
Y15960001D02*
D03*
Y16010001D02*
D03*
Y16060001D02*
D03*
Y16110001D02*
D03*
Y16160001D02*
D03*
Y16210001D02*
D03*
Y16260001D02*
D03*
Y16310001D02*
D03*
Y16360001D02*
D03*
X11720000D02*
D03*
Y16310001D02*
D03*
Y16260001D02*
D03*
Y16210001D02*
D03*
Y16160001D02*
D03*
Y16110001D02*
D03*
Y16060001D02*
D03*
Y16010001D02*
D03*
Y15960001D02*
D03*
Y15910001D02*
D03*
X11820000Y16360001D02*
D03*
Y16310001D02*
D03*
Y16260001D02*
D03*
Y16210001D02*
D03*
Y16160001D02*
D03*
Y16110001D02*
D03*
Y16060001D02*
D03*
Y16010001D02*
D03*
Y15960001D02*
D03*
Y15910001D02*
D03*
X11920000Y16360001D02*
D03*
Y16310001D02*
D03*
Y16260001D02*
D03*
Y16210001D02*
D03*
Y16160001D02*
D03*
Y16110001D02*
D03*
Y16060001D02*
D03*
Y16010001D02*
D03*
Y15960001D02*
D03*
Y15910001D02*
D03*
X12020000Y16360001D02*
D03*
Y16310001D02*
D03*
Y16260001D02*
D03*
Y16210001D02*
D03*
Y16160001D02*
D03*
Y16110001D02*
D03*
Y16060001D02*
D03*
Y16010001D02*
D03*
Y15960001D02*
D03*
Y15910001D02*
D03*
X12120000Y16360001D02*
D03*
Y16310001D02*
D03*
Y16260001D02*
D03*
Y16210001D02*
D03*
Y16160001D02*
D03*
Y16110001D02*
D03*
Y16060001D02*
D03*
Y16010001D02*
D03*
Y15960001D02*
D03*
Y15910001D02*
D03*
X12220000Y16360001D02*
D03*
Y16310001D02*
D03*
Y16260001D02*
D03*
Y16210001D02*
D03*
Y16160001D02*
D03*
Y16110001D02*
D03*
Y16060001D02*
D03*
Y16010001D02*
D03*
Y15960001D02*
D03*
Y15910001D02*
D03*
%TF.MD5,a6cb5bbfca8fa0d0446cf1da02746eb8*%
M02*
