%TF.GenerationSoftware,Altium Limited,Altium Designer,18.0.9 (584)*%
G04 Layer_Color=16711935*
%FSLAX45Y45*%
%MOMM*%
%TF.FileFunction,Soldermask,Bot*%
%TF.Part,Single*%
G01*
G75*
%TA.AperFunction,ComponentPad*%
%ADD68C,2.10000*%
%ADD81C,2.20000*%
%TA.AperFunction,SMDPad,CuDef*%
%ADD131R,0.75000X0.75000*%
%ADD183R,0.90000X1.15000*%
%ADD197R,0.90000X0.90000*%
%ADD198R,0.90000X0.90000*%
%TA.AperFunction,NonConductor*%
%ADD210R,24.25000X3.35000*%
%ADD211R,7.35000X2.20000*%
%TA.AperFunction,SMDPad,CuDef*%
%ADD212C,0.90000*%
%ADD213R,0.95000X0.95000*%
%ADD214R,1.10000X0.65000*%
%ADD215R,2.84300X2.25900*%
%ADD216R,0.95000X0.95000*%
%ADD217R,2.28000X1.62000*%
%ADD218R,1.62400X1.11600*%
%ADD219R,1.62400X2.13200*%
%ADD220R,2.13200X1.62400*%
%ADD221R,1.11600X1.62400*%
%ADD222R,2.25900X2.84300*%
%ADD223R,1.10000X1.35000*%
%ADD224R,1.35000X1.10000*%
%ADD225R,2.20000X2.40000*%
%ADD226C,3.00000*%
%ADD227R,1.50000X0.95000*%
%ADD228R,1.60000X4.10000*%
%ADD229R,2.10000X3.70000*%
%ADD230R,5.80000X1.90000*%
%ADD231R,1.05000X0.80000*%
%ADD232R,0.80000X1.05000*%
%ADD233R,0.65000X1.10000*%
%ADD234R,1.60000X1.10000*%
%ADD235R,2.15000X3.00000*%
%ADD236R,1.34460X3.27500*%
%ADD237R,2.90000X1.00000*%
%ADD238R,0.95000X0.50000*%
%ADD239R,1.10000X0.70000*%
%ADD240R,1.10000X1.10000*%
%ADD241R,1.10000X1.10000*%
%ADD242O,0.80000X0.35000*%
%ADD243O,0.35000X0.80000*%
%ADD244O,0.40000X2.00000*%
%ADD245O,2.00000X0.40000*%
%ADD246R,0.70000X1.60000*%
%ADD247R,0.70000X1.10000*%
%ADD248R,4.60000X2.10000*%
%ADD249R,0.90000X0.60000*%
%ADD250R,3.85000X2.10000*%
%ADD251R,1.00000X3.90000*%
%ADD252R,0.65000X0.65000*%
%ADD253R,1.10000X1.90000*%
%TA.AperFunction,ComponentPad*%
G04:AMPARAMS|DCode=254|XSize=2.9mm|YSize=7.1mm|CornerRadius=0.75mm|HoleSize=0mm|Usage=FLASHONLY|Rotation=180.000|XOffset=0mm|YOffset=0mm|HoleType=Round|Shape=RoundedRectangle|*
%AMROUNDEDRECTD254*
21,1,2.90000,5.60000,0,0,180.0*
21,1,1.40000,7.10000,0,0,180.0*
1,1,1.50000,-0.70000,2.80000*
1,1,1.50000,0.70000,2.80000*
1,1,1.50000,0.70000,-2.80000*
1,1,1.50000,-0.70000,-2.80000*
%
%ADD254ROUNDEDRECTD254*%
G04:AMPARAMS|DCode=255|XSize=0.1mm|YSize=0.1mm|CornerRadius=0mm|HoleSize=0mm|Usage=FLASHONLY|Rotation=270.000|XOffset=0mm|YOffset=0mm|HoleType=Round|Shape=RoundedRectangle|*
%AMROUNDEDRECTD255*
21,1,0.10000,0.10000,0,0,270.0*
21,1,0.10000,0.10000,0,0,270.0*
1,1,0.00000,-0.05000,-0.05000*
1,1,0.00000,-0.05000,0.05000*
1,1,0.00000,0.05000,0.05000*
1,1,0.00000,0.05000,-0.05000*
%
%ADD255ROUNDEDRECTD255*%
%ADD256R,2.20000X2.20000*%
%ADD257C,1.70000*%
%ADD258C,3.10000*%
%ADD259R,3.10000X3.10000*%
G04:AMPARAMS|DCode=260|XSize=8.1mm|YSize=4.1mm|CornerRadius=1.05mm|HoleSize=0mm|Usage=FLASHONLY|Rotation=90.000|XOffset=0mm|YOffset=0mm|HoleType=Round|Shape=RoundedRectangle|*
%AMROUNDEDRECTD260*
21,1,8.10000,2.00000,0,0,90.0*
21,1,6.00000,4.10000,0,0,90.0*
1,1,2.10000,1.00000,3.00000*
1,1,2.10000,1.00000,-3.00000*
1,1,2.10000,-1.00000,-3.00000*
1,1,2.10000,-1.00000,3.00000*
%
%ADD260ROUNDEDRECTD260*%
G04:AMPARAMS|DCode=261|XSize=1.1mm|YSize=2.1mm|CornerRadius=0.3mm|HoleSize=0mm|Usage=FLASHONLY|Rotation=0.000|XOffset=0mm|YOffset=0mm|HoleType=Round|Shape=RoundedRectangle|*
%AMROUNDEDRECTD261*
21,1,1.10000,1.50000,0,0,0.0*
21,1,0.50000,2.10000,0,0,0.0*
1,1,0.60000,0.25000,-0.75000*
1,1,0.60000,-0.25000,-0.75000*
1,1,0.60000,-0.25000,0.75000*
1,1,0.60000,0.25000,0.75000*
%
%ADD261ROUNDEDRECTD261*%
%ADD262R,1.10000X2.10000*%
%ADD263C,1.50000*%
%ADD264O,1.60000X0.95000*%
%ADD265C,1.04000*%
%ADD266C,1.62000*%
%ADD267R,1.62000X1.62000*%
%ADD268C,2.30000*%
%ADD269C,5.10000*%
%ADD270R,1.50000X1.50000*%
%ADD271C,2.90000*%
%ADD272R,1.70000X1.70000*%
%ADD273R,1.90000X1.90000*%
%ADD274C,1.90000*%
%ADD275C,2.50000*%
%ADD276C,3.35000*%
%ADD277R,2.10000X2.10000*%
%ADD278C,1.10000*%
%TA.AperFunction,ViaPad*%
%ADD279C,0.20000*%
%ADD280C,0.70000*%
%ADD281C,1.20000*%
D68*
X2598000Y9980000D02*
D03*
X2852000Y8964000D02*
D03*
X3106000D02*
D03*
X3360000D02*
D03*
X3614000D02*
D03*
Y9980000D02*
D03*
X3360000D02*
D03*
X3106000D02*
D03*
X2852000D02*
D03*
D81*
X8419500Y490000D02*
D03*
X5460000D02*
D03*
X5079000D02*
D03*
D131*
X12640002Y6745001D02*
D03*
Y6534999D02*
D03*
D183*
X12800000Y11282503D02*
D03*
X12864999Y11487502D02*
D03*
X12735002D02*
D03*
X12450000Y11282503D02*
D03*
X12514999Y11487502D02*
D03*
X12385001D02*
D03*
D197*
X13659999Y5730000D02*
D03*
Y5570001D02*
D03*
D198*
X12989999Y5860002D02*
D03*
X12830000D02*
D03*
D210*
X9257499Y17352499D02*
D03*
D211*
X9602499Y17010001D02*
D03*
D212*
X12250000Y12424996D02*
D03*
Y12284996D02*
D03*
Y12154996D02*
D03*
Y12024996D02*
D03*
X10769998Y12378124D02*
D03*
Y12265936D02*
D03*
Y12490312D02*
D03*
Y12153748D02*
D03*
Y11929371D02*
D03*
Y12041559D02*
D03*
Y11817183D02*
D03*
Y11704995D02*
D03*
X11265005Y11600000D02*
D03*
X11407502D02*
D03*
X7759998Y11660001D02*
D03*
X11550000Y11600000D02*
D03*
X7909998Y11660001D02*
D03*
X8357496Y12815004D02*
D03*
Y12611670D02*
D03*
Y12205004D02*
D03*
Y12408337D02*
D03*
X5779998Y12759998D02*
D03*
X5789999Y12169997D02*
D03*
D213*
X1460000Y15780000D02*
D03*
Y15935001D02*
D03*
X1760000Y15780000D02*
D03*
Y15935001D02*
D03*
X1910000Y15780000D02*
D03*
Y15935001D02*
D03*
X1610000Y15780000D02*
D03*
Y15935001D02*
D03*
X1310000Y15780000D02*
D03*
Y15935001D02*
D03*
X11840000Y3000000D02*
D03*
Y3155000D02*
D03*
X11700000Y3355000D02*
D03*
Y3510000D02*
D03*
X11400000Y3355000D02*
D03*
Y3510000D02*
D03*
X11110000Y3355000D02*
D03*
Y3510000D02*
D03*
X10820000Y3360000D02*
D03*
Y3515000D02*
D03*
X11700000Y3155000D02*
D03*
Y3000000D02*
D03*
X11400000Y3150000D02*
D03*
Y2995000D02*
D03*
X11110000D02*
D03*
Y3150000D02*
D03*
X10820000Y2995000D02*
D03*
Y3150000D02*
D03*
X12385000Y2685000D02*
D03*
Y2840000D02*
D03*
X12520000D02*
D03*
Y2685000D02*
D03*
X2409999Y13710001D02*
D03*
Y13864999D02*
D03*
X2010000Y13710001D02*
D03*
Y13864999D02*
D03*
X1810000Y13710001D02*
D03*
Y13864999D02*
D03*
X11260000Y8860000D02*
D03*
Y9015000D02*
D03*
X10510000D02*
D03*
Y8860000D02*
D03*
X11160000Y7540000D02*
D03*
Y7695000D02*
D03*
X9550000Y14450000D02*
D03*
Y14295000D02*
D03*
X9750000Y14450000D02*
D03*
Y14295000D02*
D03*
X9200000Y14450000D02*
D03*
Y14295000D02*
D03*
X9000000Y14450000D02*
D03*
Y14295000D02*
D03*
X1350000Y14680000D02*
D03*
Y14525000D02*
D03*
X1490000Y14680000D02*
D03*
Y14525000D02*
D03*
X1200000Y14680000D02*
D03*
Y14525000D02*
D03*
X1620000Y14680000D02*
D03*
Y14525000D02*
D03*
X1200000Y14870000D02*
D03*
Y15025000D02*
D03*
X1620000Y14870000D02*
D03*
Y15025000D02*
D03*
X1350000Y14870000D02*
D03*
Y15025000D02*
D03*
X1490000Y14870000D02*
D03*
Y15025000D02*
D03*
X12440000Y6905000D02*
D03*
Y7060000D02*
D03*
X14060001Y13810001D02*
D03*
Y13964999D02*
D03*
X11550000Y3355000D02*
D03*
Y3510000D02*
D03*
X10960000Y3355000D02*
D03*
Y3510000D02*
D03*
X11260000Y3355000D02*
D03*
Y3510000D02*
D03*
X10960000Y3000000D02*
D03*
Y3155000D02*
D03*
X11840000Y3355000D02*
D03*
Y3510000D02*
D03*
X12250000Y2685000D02*
D03*
Y2840000D02*
D03*
X11550000Y3150000D02*
D03*
Y2995000D02*
D03*
X10680000Y3360000D02*
D03*
Y3515000D02*
D03*
X11260000Y2995000D02*
D03*
Y3150000D02*
D03*
X11500000Y14160001D02*
D03*
Y14314999D02*
D03*
X11650000D02*
D03*
Y14160001D02*
D03*
X3730000Y8260000D02*
D03*
Y8105000D02*
D03*
X9960000Y10305000D02*
D03*
Y10460000D02*
D03*
X11380000Y13229997D02*
D03*
Y13074998D02*
D03*
X11970000Y11785000D02*
D03*
Y11940000D02*
D03*
X13439999Y6912500D02*
D03*
Y7067500D02*
D03*
X13289999D02*
D03*
Y6912500D02*
D03*
X11760000Y7540000D02*
D03*
Y7695000D02*
D03*
X10590000Y7540000D02*
D03*
Y7695000D02*
D03*
X12000000Y4195000D02*
D03*
Y4350000D02*
D03*
X13349998Y3392500D02*
D03*
Y3547500D02*
D03*
X12320000D02*
D03*
Y3392500D02*
D03*
X12594285D02*
D03*
Y3547500D02*
D03*
X7857380Y7022500D02*
D03*
Y6867500D02*
D03*
X8020000Y6532500D02*
D03*
Y6377500D02*
D03*
X13200000Y5445000D02*
D03*
Y5290000D02*
D03*
X12989999D02*
D03*
Y5445000D02*
D03*
X12060000Y7310000D02*
D03*
Y7155000D02*
D03*
X11730000Y6585000D02*
D03*
Y6430000D02*
D03*
Y6185000D02*
D03*
Y6030000D02*
D03*
Y5630000D02*
D03*
Y5785000D02*
D03*
Y5230000D02*
D03*
Y5385000D02*
D03*
X9110000Y5980000D02*
D03*
Y6135000D02*
D03*
X9530000Y6795000D02*
D03*
Y6950000D02*
D03*
X9290000Y5980000D02*
D03*
Y6135000D02*
D03*
X9730000Y6795000D02*
D03*
Y6950000D02*
D03*
X9470000Y6135000D02*
D03*
Y5980000D02*
D03*
X10010000Y4885000D02*
D03*
Y4730000D02*
D03*
X9950000Y6950000D02*
D03*
Y6795000D02*
D03*
X10190000Y4885000D02*
D03*
Y4730000D02*
D03*
X10180000Y6950000D02*
D03*
Y6795000D02*
D03*
X10370000Y4885000D02*
D03*
Y4730000D02*
D03*
X10380000Y6950000D02*
D03*
Y6795000D02*
D03*
X10550000Y4885000D02*
D03*
Y4730000D02*
D03*
X10600000Y6950000D02*
D03*
Y6795000D02*
D03*
X10782500Y5350000D02*
D03*
Y5505000D02*
D03*
X10830000Y6950000D02*
D03*
Y6795000D02*
D03*
X10602500Y5350000D02*
D03*
Y5505000D02*
D03*
X11030000Y6950000D02*
D03*
Y6795000D02*
D03*
X12762501Y15045001D02*
D03*
Y14890001D02*
D03*
Y14605000D02*
D03*
Y14760001D02*
D03*
X4510000Y8185000D02*
D03*
Y8340000D02*
D03*
X10100000Y10460000D02*
D03*
Y10305000D02*
D03*
X11460000Y11150000D02*
D03*
Y11305000D02*
D03*
X12630000Y7060000D02*
D03*
Y6905000D02*
D03*
X12290000Y7060000D02*
D03*
Y6905000D02*
D03*
X12440000Y6580000D02*
D03*
Y6425000D02*
D03*
X11642502Y3890000D02*
D03*
Y3735000D02*
D03*
X11720000Y8280000D02*
D03*
Y8435000D02*
D03*
X7500000Y5405000D02*
D03*
Y5560000D02*
D03*
X7360000D02*
D03*
Y5405000D02*
D03*
X7220000D02*
D03*
Y5560000D02*
D03*
X7080000D02*
D03*
Y5405000D02*
D03*
X6930000D02*
D03*
Y5560000D02*
D03*
X6790000D02*
D03*
Y5405000D02*
D03*
X6510000D02*
D03*
Y5560000D02*
D03*
X6650000D02*
D03*
Y5405000D02*
D03*
X10740000Y7535000D02*
D03*
Y7690000D02*
D03*
X11860000Y4200000D02*
D03*
Y4355000D02*
D03*
X12690000Y4030000D02*
D03*
Y4185000D02*
D03*
X12734048Y3550000D02*
D03*
Y3395000D02*
D03*
X13510001Y5730000D02*
D03*
Y5575000D02*
D03*
X12459762Y3395000D02*
D03*
Y3550000D02*
D03*
X7230000Y7030000D02*
D03*
Y6875000D02*
D03*
X7870000Y6380000D02*
D03*
Y6535000D02*
D03*
X12372620Y4965000D02*
D03*
Y4810000D02*
D03*
X11605000Y11305000D02*
D03*
Y11150000D02*
D03*
X11750000D02*
D03*
Y11305000D02*
D03*
X2609999Y13710001D02*
D03*
Y13864999D02*
D03*
X2210000D02*
D03*
Y13710001D02*
D03*
X1610000Y13864999D02*
D03*
Y13710001D02*
D03*
X10380005Y7790000D02*
D03*
Y7945000D02*
D03*
X11530000Y7790000D02*
D03*
Y7945000D02*
D03*
X10975000Y7790000D02*
D03*
Y7945000D02*
D03*
X11892500Y11305000D02*
D03*
Y11150000D02*
D03*
X7359880Y5780000D02*
D03*
Y5935000D02*
D03*
X7502619Y5780000D02*
D03*
Y5935000D02*
D03*
D214*
X11295000Y6385000D02*
D03*
Y6575000D02*
D03*
X11552500Y6485000D02*
D03*
Y6105000D02*
D03*
X11295000Y6195000D02*
D03*
Y6005000D02*
D03*
Y5635000D02*
D03*
Y5825000D02*
D03*
X11552500Y5735000D02*
D03*
X11882500Y7115000D02*
D03*
X11625000Y7205000D02*
D03*
Y7015000D02*
D03*
X11295000Y6785000D02*
D03*
Y6975000D02*
D03*
X11552500Y6885000D02*
D03*
X11295000Y5235000D02*
D03*
Y5425000D02*
D03*
X11552500Y5335000D02*
D03*
X12325000Y4235000D02*
D03*
Y4425000D02*
D03*
X12582500Y4335000D02*
D03*
Y3835000D02*
D03*
X12325000Y3925000D02*
D03*
Y3735000D02*
D03*
X11865000D02*
D03*
Y3925000D02*
D03*
X12122500Y3835000D02*
D03*
X7662500Y6935000D02*
D03*
X7405000Y7025000D02*
D03*
Y6835000D02*
D03*
X7665000Y6595000D02*
D03*
Y6405000D02*
D03*
X7407500Y6495000D02*
D03*
D215*
X10900000Y14464999D02*
D03*
Y14055002D02*
D03*
D216*
X11005000Y14810001D02*
D03*
X11160000D02*
D03*
X12640000Y12740000D02*
D03*
X12485000D02*
D03*
X11165000Y15060001D02*
D03*
X11010000D02*
D03*
X11160000Y15210001D02*
D03*
X11005000D02*
D03*
X14495000Y8580000D02*
D03*
X14650000D02*
D03*
X10260000Y10600000D02*
D03*
X10105000D02*
D03*
Y10150000D02*
D03*
X10260000D02*
D03*
X1620000Y14080000D02*
D03*
X1775000D02*
D03*
X12055002Y10905009D02*
D03*
X11900002D02*
D03*
X11552502Y10905008D02*
D03*
X11397502D02*
D03*
X7657510Y10565001D02*
D03*
X7502510D02*
D03*
X7657510Y10245000D02*
D03*
X7502510D02*
D03*
X13755000Y4360000D02*
D03*
X13600000D02*
D03*
Y4500000D02*
D03*
X13755000D02*
D03*
Y3210000D02*
D03*
X13600000D02*
D03*
Y3640000D02*
D03*
X13755000D02*
D03*
Y4220000D02*
D03*
X13600000D02*
D03*
Y3780000D02*
D03*
X13755000D02*
D03*
Y3490000D02*
D03*
X13600000D02*
D03*
Y3930000D02*
D03*
X13755000D02*
D03*
Y3350000D02*
D03*
X13600000D02*
D03*
Y4070000D02*
D03*
X13755000D02*
D03*
Y3060000D02*
D03*
X13600000D02*
D03*
X13200000Y9082620D02*
D03*
X13045000D02*
D03*
Y8917380D02*
D03*
X13200000D02*
D03*
X8155000Y10245000D02*
D03*
X8310000D02*
D03*
Y10565001D02*
D03*
X8155000D02*
D03*
X7560000Y13110001D02*
D03*
X7715000D02*
D03*
X8005000D02*
D03*
X8160000D02*
D03*
X12485000Y12180000D02*
D03*
X12640000D02*
D03*
X10372500Y12080000D02*
D03*
X10527500D02*
D03*
X10372500Y11940000D02*
D03*
X10527500D02*
D03*
X8824996Y12205000D02*
D03*
X8669996D02*
D03*
Y12405004D02*
D03*
X8824996D02*
D03*
X12485000Y12370000D02*
D03*
X12640000D02*
D03*
X3150000Y14880000D02*
D03*
X2995000D02*
D03*
Y15030000D02*
D03*
X3150000D02*
D03*
X12995000Y5710000D02*
D03*
X12839999D02*
D03*
X13360001D02*
D03*
X13205000D02*
D03*
X7640000Y7880000D02*
D03*
X7795000D02*
D03*
X7635000Y8220000D02*
D03*
X7790000D02*
D03*
X10980000Y7130000D02*
D03*
X10825000D02*
D03*
X11180000D02*
D03*
X11335000D02*
D03*
X10090000Y8170000D02*
D03*
X9935000D02*
D03*
X10455000Y6350000D02*
D03*
X10300000D02*
D03*
X8695000Y4250000D02*
D03*
X8850000D02*
D03*
Y4400000D02*
D03*
X8695000D02*
D03*
Y4570000D02*
D03*
X8850000D02*
D03*
Y4750000D02*
D03*
X8695000D02*
D03*
X8850000Y4900000D02*
D03*
X8695000D02*
D03*
Y5070000D02*
D03*
X8850000D02*
D03*
Y5250000D02*
D03*
X8695000D02*
D03*
Y5400000D02*
D03*
X8850000D02*
D03*
Y5570000D02*
D03*
X8695000D02*
D03*
Y5740000D02*
D03*
X8850000D02*
D03*
Y5900000D02*
D03*
X8695000D02*
D03*
Y6070000D02*
D03*
X8850000D02*
D03*
Y6240000D02*
D03*
X8695000D02*
D03*
Y6400000D02*
D03*
X8850000D02*
D03*
Y6570000D02*
D03*
X8695000D02*
D03*
Y6720000D02*
D03*
X8850000D02*
D03*
X12860001Y9080000D02*
D03*
X12705000D02*
D03*
Y8920000D02*
D03*
X12860001D02*
D03*
X14495000Y8440000D02*
D03*
X14650000D02*
D03*
X12210000Y14407500D02*
D03*
X12055000D02*
D03*
X4340000Y10010000D02*
D03*
X4495000D02*
D03*
X3575000Y7890000D02*
D03*
X3730000D02*
D03*
X4490000Y9860000D02*
D03*
X4335000D02*
D03*
X2765000Y8750000D02*
D03*
X2920000D02*
D03*
X8005000Y10245000D02*
D03*
X7850000D02*
D03*
X8005000Y10565001D02*
D03*
X7850000D02*
D03*
X8060000Y11850000D02*
D03*
X7905000D02*
D03*
X7770000D02*
D03*
X7615000D02*
D03*
X13800000Y8570000D02*
D03*
X13645000D02*
D03*
X9925000Y13300000D02*
D03*
X10080000D02*
D03*
Y13120000D02*
D03*
X9925000D02*
D03*
Y12930000D02*
D03*
X10080000D02*
D03*
Y12740000D02*
D03*
X9925000D02*
D03*
Y12560000D02*
D03*
X10080000D02*
D03*
Y12370000D02*
D03*
X9925000D02*
D03*
Y12190000D02*
D03*
X10080000D02*
D03*
Y12000000D02*
D03*
X9925000D02*
D03*
Y11810000D02*
D03*
X10080000D02*
D03*
Y11630000D02*
D03*
X9925000D02*
D03*
Y11440000D02*
D03*
X10080000D02*
D03*
Y11260000D02*
D03*
X9925000D02*
D03*
X13645000Y8760000D02*
D03*
X13800000D02*
D03*
X9710000Y13300000D02*
D03*
X9555000D02*
D03*
Y13120000D02*
D03*
X9710000D02*
D03*
Y12930000D02*
D03*
X9555000D02*
D03*
Y12740000D02*
D03*
X9710000D02*
D03*
Y12560000D02*
D03*
X9555000D02*
D03*
Y12370000D02*
D03*
X9710000D02*
D03*
Y12190000D02*
D03*
X9555000D02*
D03*
Y12000000D02*
D03*
X9710000D02*
D03*
Y11810000D02*
D03*
X9555000D02*
D03*
Y11630000D02*
D03*
X9710000D02*
D03*
Y11440000D02*
D03*
X9555000D02*
D03*
Y11260000D02*
D03*
X9710000D02*
D03*
X13450000Y6717379D02*
D03*
X13295000D02*
D03*
X13010001Y6040000D02*
D03*
X12855000D02*
D03*
X13205000Y5590000D02*
D03*
X13360001D02*
D03*
X7384880Y7340000D02*
D03*
X7229880D02*
D03*
X7635000Y8030000D02*
D03*
X7790000D02*
D03*
X1622500Y14230000D02*
D03*
X1777500D02*
D03*
X5780000Y12320000D02*
D03*
X5935000D02*
D03*
Y12650000D02*
D03*
X5780000D02*
D03*
X12557502Y10905008D02*
D03*
X12402502D02*
D03*
X8270000Y8870001D02*
D03*
X8425000D02*
D03*
X8050000D02*
D03*
X7895000D02*
D03*
X8270000Y8720000D02*
D03*
X8425000D02*
D03*
X8050000D02*
D03*
X7895000D02*
D03*
X4715000Y10160000D02*
D03*
X4560000D02*
D03*
X4715000Y10310000D02*
D03*
X4560000D02*
D03*
D217*
X6990000Y12573950D02*
D03*
Y12206050D02*
D03*
D218*
X10630000Y3160000D02*
D03*
Y2956800D02*
D03*
X9980000Y3476800D02*
D03*
Y3680000D02*
D03*
X10480000D02*
D03*
Y3476800D02*
D03*
X10230000Y3480000D02*
D03*
Y3683200D02*
D03*
X7960000Y14293201D02*
D03*
Y14089999D02*
D03*
X11625000Y13284998D02*
D03*
Y13081798D02*
D03*
X12850000Y12640000D02*
D03*
Y12436800D02*
D03*
D219*
X12929700Y4660000D02*
D03*
X12650300D02*
D03*
X11697199Y15257500D02*
D03*
X11417799D02*
D03*
X7669700Y13360001D02*
D03*
X7390300D02*
D03*
X8299700D02*
D03*
X8020300D02*
D03*
X2860300Y14430000D02*
D03*
X3139700D02*
D03*
X12929700Y5030000D02*
D03*
X12650300D02*
D03*
X7610300Y7590000D02*
D03*
X7889700D02*
D03*
Y7330000D02*
D03*
X7610300D02*
D03*
X13809700Y2640000D02*
D03*
X13530299D02*
D03*
D220*
X9480000Y3460300D02*
D03*
Y3739700D02*
D03*
X9760000Y3460600D02*
D03*
Y3740000D02*
D03*
X7710000Y14409700D02*
D03*
Y14130299D02*
D03*
X7450000D02*
D03*
Y14409700D02*
D03*
X8210000D02*
D03*
Y14130299D02*
D03*
X11290000Y14150301D02*
D03*
Y14429700D02*
D03*
X11840000D02*
D03*
Y14150301D02*
D03*
X11057500Y11534700D02*
D03*
Y11255300D02*
D03*
D221*
X10585700Y12310000D02*
D03*
X10382500D02*
D03*
X12684999Y12989999D02*
D03*
X12481799D02*
D03*
X10583200Y11580000D02*
D03*
X10380000D02*
D03*
X3138200Y14680000D02*
D03*
X2935000D02*
D03*
X13770000Y2880000D02*
D03*
X13566800D02*
D03*
D222*
X12534999Y15252502D02*
D03*
X12125003D02*
D03*
D223*
X5598000Y12130000D02*
D03*
X5262000D02*
D03*
X5262000Y12310000D02*
D03*
X5598000D02*
D03*
X3442000Y7700000D02*
D03*
X3778000D02*
D03*
X3942000Y8347500D02*
D03*
X4278000D02*
D03*
X5598000Y12830000D02*
D03*
X5262000D02*
D03*
X5598000Y12650000D02*
D03*
X5262000D02*
D03*
D224*
X7240000Y10318000D02*
D03*
Y9982000D02*
D03*
Y10818000D02*
D03*
Y10482000D02*
D03*
D225*
X3417497Y8542502D02*
D03*
X2967501D02*
D03*
D226*
X460000Y14910002D02*
D03*
X13060001Y3110002D02*
D03*
D227*
X13750000Y13947499D02*
D03*
Y13772501D02*
D03*
D228*
X11772499Y14820000D02*
D03*
X11412499D02*
D03*
D229*
X8900001Y10110000D02*
D03*
X8560002D02*
D03*
X8900001Y10700002D02*
D03*
X8560002D02*
D03*
D230*
X9460002Y10169999D02*
D03*
Y10629998D02*
D03*
D231*
X10377499Y12550000D02*
D03*
X10542498D02*
D03*
X12660000D02*
D03*
X12495001D02*
D03*
D232*
X11880001Y13089998D02*
D03*
Y13255000D02*
D03*
D233*
X4105000Y8772500D02*
D03*
X4015000Y8515000D02*
D03*
X4205000D02*
D03*
X7105000Y14087500D02*
D03*
X7195000Y14345000D02*
D03*
X7005000D02*
D03*
X12244998Y14555002D02*
D03*
Y14824998D02*
D03*
X12055001D02*
D03*
X12150002D02*
D03*
X12055001Y14555002D02*
D03*
D234*
X13224998Y5945000D02*
D03*
Y6135002D02*
D03*
D235*
X13452502Y6045000D02*
D03*
D236*
X9378770Y7440000D02*
D03*
X8741230D02*
D03*
D237*
X3397500Y7495000D02*
D03*
Y7025000D02*
D03*
X3012498Y6310000D02*
D03*
Y6780000D02*
D03*
Y5590000D02*
D03*
Y6060000D02*
D03*
Y5250000D02*
D03*
Y4780000D02*
D03*
D238*
X10705002Y6285001D02*
D03*
Y6350000D02*
D03*
Y6414998D02*
D03*
X10894999D02*
D03*
Y6285001D02*
D03*
X6102500Y5625000D02*
D03*
Y5495000D02*
D03*
X6292499D02*
D03*
Y5560000D02*
D03*
Y5625000D02*
D03*
D239*
X12839996Y7535001D02*
D03*
Y7630002D02*
D03*
Y7724998D02*
D03*
X13080002D02*
D03*
Y7630002D02*
D03*
Y7535001D02*
D03*
D240*
X7734999Y12465000D02*
D03*
X7885001Y12315003D02*
D03*
D241*
X7734999D02*
D03*
X7885001Y12465000D02*
D03*
D242*
X8009999Y12289999D02*
D03*
Y12340001D02*
D03*
Y12389999D02*
D03*
Y12440001D02*
D03*
Y12489998D02*
D03*
X7610000D02*
D03*
Y12440001D02*
D03*
Y12389999D02*
D03*
Y12340001D02*
D03*
Y12289999D02*
D03*
D243*
X7910000Y12589998D02*
D03*
X7860002D02*
D03*
X7810000D02*
D03*
X7760003D02*
D03*
X7710000D02*
D03*
Y12189999D02*
D03*
X7760003D02*
D03*
X7810000D02*
D03*
X7860002D02*
D03*
X7910000D02*
D03*
D244*
X11775000Y11890000D02*
D03*
X11725000D02*
D03*
X11675000D02*
D03*
X11625000D02*
D03*
X11575000D02*
D03*
X11525000D02*
D03*
X11475000D02*
D03*
X11425000D02*
D03*
X11375000D02*
D03*
X11325000D02*
D03*
X11275000D02*
D03*
X11225000D02*
D03*
Y12730000D02*
D03*
X11275000D02*
D03*
X11325000D02*
D03*
X11375000D02*
D03*
X11425000D02*
D03*
X11475000D02*
D03*
X11525000D02*
D03*
X11575000D02*
D03*
X11625000D02*
D03*
X11675000D02*
D03*
X11725000D02*
D03*
X11775000D02*
D03*
D245*
X11080000Y12035000D02*
D03*
Y12085000D02*
D03*
Y12135000D02*
D03*
Y12185000D02*
D03*
Y12235000D02*
D03*
Y12285000D02*
D03*
Y12335000D02*
D03*
Y12385000D02*
D03*
Y12435000D02*
D03*
Y12485000D02*
D03*
Y12535000D02*
D03*
Y12585000D02*
D03*
X11920000D02*
D03*
Y12535000D02*
D03*
Y12485000D02*
D03*
Y12435000D02*
D03*
Y12385000D02*
D03*
Y12335000D02*
D03*
Y12285000D02*
D03*
Y12235000D02*
D03*
Y12185000D02*
D03*
Y12135000D02*
D03*
Y12085000D02*
D03*
Y12035000D02*
D03*
D246*
X12996501Y4369998D02*
D03*
X12869501D02*
D03*
Y3829999D02*
D03*
X13123502D02*
D03*
X12996501D02*
D03*
X13250500Y4369998D02*
D03*
X13123502D02*
D03*
X13250500Y3829999D02*
D03*
D247*
X7695000Y8669999D02*
D03*
X7599999D02*
D03*
X7504998D02*
D03*
Y8909998D02*
D03*
X7599999D02*
D03*
X7695000D02*
D03*
D248*
X11552502Y10565009D02*
D03*
X12402502D02*
D03*
D249*
X13070001Y6914998D02*
D03*
Y7005000D02*
D03*
Y7094997D02*
D03*
Y7185000D02*
D03*
X12950002Y6914998D02*
D03*
Y7005000D02*
D03*
Y7094997D02*
D03*
Y7185000D02*
D03*
D250*
X3012495Y4510002D02*
D03*
Y3660001D02*
D03*
D251*
X2892500Y10527500D02*
D03*
X3332499D02*
D03*
D252*
X11285000Y4093160D02*
D03*
Y4210000D02*
D03*
X11035000Y4093160D02*
D03*
Y4210000D02*
D03*
D253*
X11035000Y4410000D02*
D03*
X11285000D02*
D03*
D254*
X13750000Y12980000D02*
D03*
X8150000Y9440000D02*
D03*
X8780000D02*
D03*
X14110001Y12980000D02*
D03*
X14330000Y9330000D02*
D03*
D255*
X9660000Y5970000D02*
D03*
X10190000Y5200000D02*
D03*
X9650000Y4900000D02*
D03*
X9660000Y5700000D02*
D03*
X10950000Y5970000D02*
D03*
X10450000D02*
D03*
X10190000D02*
D03*
X9920000D02*
D03*
D256*
X8800500Y490000D02*
D03*
X5841000D02*
D03*
D257*
X960000Y3760000D02*
D03*
Y3510000D02*
D03*
X10729998Y8369998D02*
D03*
Y8115998D02*
D03*
X11079998Y8369998D02*
D03*
Y8115998D02*
D03*
X1360000Y4910000D02*
D03*
Y3910000D02*
D03*
X8580001Y13660001D02*
D03*
Y14259998D02*
D03*
X10140001Y13659998D02*
D03*
Y14260002D02*
D03*
D258*
X4160000Y660000D02*
D03*
X3410000Y1960000D02*
D03*
Y2710000D02*
D03*
X2910000D02*
D03*
X2160000D02*
D03*
X4710000Y5710000D02*
D03*
Y6460000D02*
D03*
D259*
X4160000Y2160000D02*
D03*
D260*
X2460000Y910000D02*
D03*
X3160000D02*
D03*
D261*
X12018498Y8312503D02*
D03*
D262*
X11518498D02*
D03*
D263*
X3385000Y3809999D02*
D03*
X2135000D02*
D03*
X4110002Y5335002D02*
D03*
Y6585002D02*
D03*
X7060000Y7010000D02*
D03*
X8560000D02*
D03*
X4719998Y8960001D02*
D03*
Y9710002D02*
D03*
X8858997Y8195001D02*
D03*
X9058997D02*
D03*
X9309009D02*
D03*
X13394502Y8622000D02*
D03*
X13140501D02*
D03*
X12886502D02*
D03*
X12632502D02*
D03*
X12759502Y8368000D02*
D03*
X13013503D02*
D03*
X13267502D02*
D03*
D264*
X7358000Y7732500D02*
D03*
Y8447500D02*
D03*
D265*
X7280000Y8025000D02*
D03*
Y8155000D02*
D03*
X7380000Y8220000D02*
D03*
Y8090000D02*
D03*
Y7960000D02*
D03*
D266*
X5134999Y4277000D02*
D03*
Y4531000D02*
D03*
Y4785000D02*
D03*
D267*
Y4023000D02*
D03*
D268*
X2800006Y16080009D02*
D03*
X3054001Y15825999D02*
D03*
Y16334000D02*
D03*
X2546001D02*
D03*
Y15825999D02*
D03*
D269*
X660000Y2660000D02*
D03*
X11210000Y17160001D02*
D03*
X3709998Y17159999D02*
D03*
X14260001Y2660000D02*
D03*
X14260001Y660000D02*
D03*
X660000D02*
D03*
D270*
X8609010Y8195001D02*
D03*
X12505502Y8368000D02*
D03*
D271*
X9618000Y7925001D02*
D03*
X8302000Y7924999D02*
D03*
D272*
X10729998Y8623998D02*
D03*
X11079998D02*
D03*
D273*
X10389998Y8109998D02*
D03*
X6387000Y2103000D02*
D03*
D274*
X10389998Y8363998D02*
D03*
X6387000Y2357000D02*
D03*
X6641000Y2103000D02*
D03*
Y2357000D02*
D03*
X6895000Y2103000D02*
D03*
Y2357000D02*
D03*
X7149000Y2103000D02*
D03*
Y2357000D02*
D03*
X7403000Y2103000D02*
D03*
Y2357000D02*
D03*
X7657000Y2103000D02*
D03*
Y2357000D02*
D03*
X7911000Y2103000D02*
D03*
Y2357000D02*
D03*
X8165000Y2103000D02*
D03*
Y2357000D02*
D03*
X8419000Y2103000D02*
D03*
Y2357000D02*
D03*
X8673000Y2103000D02*
D03*
Y2357000D02*
D03*
X8927000Y2103000D02*
D03*
Y2357000D02*
D03*
X9181000Y2103000D02*
D03*
Y2357000D02*
D03*
X9435000Y2103000D02*
D03*
Y2357000D02*
D03*
X9689000Y2103000D02*
D03*
Y2357000D02*
D03*
X9943000Y2103000D02*
D03*
Y2357000D02*
D03*
X10197000Y2103000D02*
D03*
Y2357000D02*
D03*
X10451000Y2103000D02*
D03*
Y2357000D02*
D03*
X10705000Y2103000D02*
D03*
Y2357000D02*
D03*
X10959000Y2103000D02*
D03*
Y2357000D02*
D03*
X11213000Y2103000D02*
D03*
Y2357000D02*
D03*
X11467000Y2103000D02*
D03*
Y2357000D02*
D03*
X11721000Y2103000D02*
D03*
Y2357000D02*
D03*
X11975000Y2103000D02*
D03*
Y2357000D02*
D03*
X12229000Y2103000D02*
D03*
Y2357000D02*
D03*
X12483000Y2103000D02*
D03*
Y2357000D02*
D03*
X12737000Y2103000D02*
D03*
Y2357000D02*
D03*
X12991000Y2103000D02*
D03*
Y2357000D02*
D03*
X13245000Y2103000D02*
D03*
Y2357000D02*
D03*
X13499001Y2103000D02*
D03*
Y2357000D02*
D03*
X13753000Y2103000D02*
D03*
Y2357000D02*
D03*
D275*
X12160001Y8037998D02*
D03*
X13739998D02*
D03*
D276*
X12378502Y7733000D02*
D03*
X13521503D02*
D03*
D277*
X2598000Y8964000D02*
D03*
D278*
X13180000Y11285003D02*
D03*
X13180000Y11535005D02*
D03*
X13180000Y11410001D02*
D03*
Y11660003D02*
D03*
Y11785002D02*
D03*
Y11910000D02*
D03*
X13179997Y12035002D02*
D03*
Y12160002D02*
D03*
Y12285002D02*
D03*
Y12410002D02*
D03*
D279*
X1750000Y13950000D02*
D03*
X12620000Y5420000D02*
D03*
X7932500Y4532500D02*
D03*
X10685000Y3055000D02*
D03*
X2805000Y12830000D02*
D03*
X1550000Y13950000D02*
D03*
X6110000Y12560000D02*
D03*
X7930000Y12760000D02*
D03*
X12070000Y12058750D02*
D03*
X11730000Y4230000D02*
D03*
Y4300000D02*
D03*
X10620000Y6460000D02*
D03*
X11030000Y7040000D02*
D03*
X8160000Y8680000D02*
D03*
Y8910000D02*
D03*
X14670000Y8310000D02*
D03*
X7421500Y6572511D02*
D03*
X6852489D02*
D03*
X9000000Y14575000D02*
D03*
X9200000D02*
D03*
X9550000D02*
D03*
X9750000D02*
D03*
X7760000Y950000D02*
D03*
X13670000Y13255000D02*
D03*
X13820000D02*
D03*
X13670000Y12705000D02*
D03*
X13820000D02*
D03*
X14030000Y13255000D02*
D03*
X14180000D02*
D03*
X14030000Y12705000D02*
D03*
X14180000D02*
D03*
X8070000Y9715000D02*
D03*
X8220000D02*
D03*
X8070000Y9165000D02*
D03*
X8220000D02*
D03*
X8700000Y9715000D02*
D03*
X8850000D02*
D03*
X8700000Y9165000D02*
D03*
X8850000D02*
D03*
X14400000Y9055000D02*
D03*
X14250000D02*
D03*
X14400000Y9605000D02*
D03*
X14250000D02*
D03*
X6110000Y4600500D02*
D03*
X6650000D02*
D03*
X6110000Y3900000D02*
D03*
X6645000Y3905000D02*
D03*
X5675000Y12650000D02*
D03*
X13210001Y7630000D02*
D03*
X4810000Y10160000D02*
D03*
Y10310000D02*
D03*
X4160000D02*
D03*
X4160000Y10160000D02*
D03*
X14660001Y8910000D02*
D03*
X910000Y13960001D02*
D03*
X10560000Y9110000D02*
D03*
X11210000D02*
D03*
X11385000Y11060000D02*
D03*
X11530000Y11070000D02*
D03*
X12080000Y6270000D02*
D03*
X12170000D02*
D03*
X6650000Y4060000D02*
D03*
X7340000Y2660000D02*
D03*
X7250000D02*
D03*
X9880000Y2600000D02*
D03*
X2810000Y12160000D02*
D03*
Y11960000D02*
D03*
Y12060000D02*
D03*
X7460000Y2685000D02*
D03*
X1910000Y16060001D02*
D03*
X1760000D02*
D03*
X1310000D02*
D03*
X1460000D02*
D03*
X1610000D02*
D03*
Y15685001D02*
D03*
X1910000D02*
D03*
X1760000D02*
D03*
X1460000D02*
D03*
X1310000D02*
D03*
X7170000Y9020000D02*
D03*
X8550000Y8630000D02*
D03*
X8610000Y8690000D02*
D03*
X7600000Y8590001D02*
D03*
X6110000Y5360000D02*
D03*
X9623200Y3680000D02*
D03*
X8110000Y5032500D02*
D03*
X2660000Y13560001D02*
D03*
X2437500D02*
D03*
X2247500D02*
D03*
X2087500D02*
D03*
X11930000Y15020000D02*
D03*
X12270000D02*
D03*
X7620000Y13739999D02*
D03*
X10782500Y5585000D02*
D03*
X10602500D02*
D03*
X11325000Y10905000D02*
D03*
X12557500Y10980000D02*
D03*
X8792500Y4150000D02*
D03*
X8862500D02*
D03*
X8937500Y4255000D02*
D03*
X9040000Y4520000D02*
D03*
X9120000Y4400000D02*
D03*
X11830000Y5782500D02*
D03*
X12267500Y5597500D02*
D03*
X8045000Y2980000D02*
D03*
X6700000Y14280000D02*
D03*
X12040000Y6630000D02*
D03*
X11890000D02*
D03*
X11580000Y7120000D02*
D03*
X11060000Y7700000D02*
D03*
X11970000Y7200000D02*
D03*
X11990000Y6770000D02*
D03*
Y6972500D02*
D03*
Y6837500D02*
D03*
Y6905000D02*
D03*
Y7040000D02*
D03*
X12290000Y7130000D02*
D03*
X11000000Y6420000D02*
D03*
X11650000Y6640000D02*
D03*
X1620000Y14780000D02*
D03*
X1200000D02*
D03*
X1490000D02*
D03*
X1350000D02*
D03*
X14030000Y8570000D02*
D03*
X14410001Y8660000D02*
D03*
X13900000Y2960000D02*
D03*
Y3060000D02*
D03*
Y3160000D02*
D03*
Y3260000D02*
D03*
Y3360000D02*
D03*
Y3460000D02*
D03*
Y3560000D02*
D03*
Y3660000D02*
D03*
Y3760000D02*
D03*
Y3860000D02*
D03*
Y3960000D02*
D03*
Y4060000D02*
D03*
Y4160000D02*
D03*
Y4260000D02*
D03*
Y4360000D02*
D03*
Y4460000D02*
D03*
X10815000Y7535000D02*
D03*
X12507500Y2927500D02*
D03*
X12989999Y5532500D02*
D03*
X11512499Y7535000D02*
D03*
X12140000Y2637500D02*
D03*
X8425000Y7587500D02*
D03*
X12937500Y6282500D02*
D03*
X13452499Y6630000D02*
D03*
X13300000D02*
D03*
X12602500Y6605000D02*
D03*
X12827499Y6915000D02*
D03*
X12800000Y7097500D02*
D03*
X12440000Y7130000D02*
D03*
X12630000D02*
D03*
X13439999Y6840000D02*
D03*
X13289999D02*
D03*
X11450000Y2760000D02*
D03*
X12510000Y5030000D02*
D03*
X12800000Y5450000D02*
D03*
X12600000Y5920000D02*
D03*
X13110001Y5950000D02*
D03*
X8830000Y6830000D02*
D03*
X10280000Y7130000D02*
D03*
X10320000Y7210000D02*
D03*
X10750000Y7130000D02*
D03*
X10980000Y7207500D02*
D03*
X9457500Y12480000D02*
D03*
X12020000Y14150000D02*
D03*
X11292500Y13987500D02*
D03*
X10900000Y13905000D02*
D03*
X11500000Y14422501D02*
D03*
X11575000Y14147501D02*
D03*
X11882500Y13352499D02*
D03*
X7902500Y11960000D02*
D03*
X11062500Y13085001D02*
D03*
X9265000Y12820000D02*
D03*
X11275000Y12920000D02*
D03*
X10947500Y12622500D02*
D03*
X10685000Y12620000D02*
D03*
X4580000Y10010000D02*
D03*
X4180000Y9820000D02*
D03*
X4050000D02*
D03*
X3970000Y8865000D02*
D03*
X4105000D02*
D03*
X11420000Y6120000D02*
D03*
X8600000Y6430000D02*
D03*
X11290000Y6130000D02*
D03*
X11480000Y5880000D02*
D03*
X11210000Y5420000D02*
D03*
X11000000Y5350000D02*
D03*
X8480000Y5500000D02*
D03*
Y5600000D02*
D03*
Y5700000D02*
D03*
Y5800000D02*
D03*
Y5910000D02*
D03*
Y6000000D02*
D03*
X9060000Y3890000D02*
D03*
X10720000Y6490000D02*
D03*
X10360000Y7490000D02*
D03*
X11550000Y11470000D02*
D03*
X10480000Y7690000D02*
D03*
X8480000Y6100000D02*
D03*
X8600000Y6570000D02*
D03*
X8910000Y6150000D02*
D03*
X9150000Y6440000D02*
D03*
X10170000Y6130000D02*
D03*
X11020000Y6110000D02*
D03*
X7240000Y6560000D02*
D03*
X8130000Y6530000D02*
D03*
X8000000Y6870000D02*
D03*
X11000000Y5500000D02*
D03*
X8520000Y3700000D02*
D03*
X7260000Y5780000D02*
D03*
X7430000Y5270000D02*
D03*
X7270000Y5180000D02*
D03*
X6650000Y5300000D02*
D03*
X6510000Y5310000D02*
D03*
X7500000Y5650000D02*
D03*
X7360000D02*
D03*
X7220000D02*
D03*
X7080000D02*
D03*
X6930000D02*
D03*
X6790000D02*
D03*
X12780000Y6140000D02*
D03*
X12730000Y6087500D02*
D03*
X13660001Y5810000D02*
D03*
X7540000Y5270000D02*
D03*
X7320000D02*
D03*
X7210000D02*
D03*
X7100000Y5180000D02*
D03*
X6990000Y5270000D02*
D03*
X6920000Y5180000D02*
D03*
X6840000D02*
D03*
X11700000Y2650000D02*
D03*
X11280000Y2520000D02*
D03*
X11400000Y2690000D02*
D03*
X10950000Y2620000D02*
D03*
X11170000Y2230000D02*
D03*
X10580000D02*
D03*
X12250000Y5150000D02*
D03*
X13330000Y2780000D02*
D03*
X12440000Y3810000D02*
D03*
X12989999Y2780000D02*
D03*
X13220000D02*
D03*
X13120000D02*
D03*
X12889999D02*
D03*
X9120000Y3800000D02*
D03*
X8920000D02*
D03*
X8990000D02*
D03*
X8840000D02*
D03*
X9310000Y2200000D02*
D03*
X11450000Y4360000D02*
D03*
X8420000Y3170000D02*
D03*
X11760000Y5900000D02*
D03*
X10290000Y3350000D02*
D03*
X8300000Y2850000D02*
D03*
X10560000Y2500000D02*
D03*
X9140000Y2520000D02*
D03*
X11730000Y4420000D02*
D03*
X11290000Y3980000D02*
D03*
X11230000Y3950000D02*
D03*
X8170000Y2900000D02*
D03*
X11600000Y2760000D02*
D03*
X9920000Y3350000D02*
D03*
X11350000Y2730000D02*
D03*
X11110000Y2680000D02*
D03*
X10990000Y7490000D02*
D03*
X10550000Y2600000D02*
D03*
X10300000D02*
D03*
X10070000Y2440000D02*
D03*
X10180000Y2600000D02*
D03*
X9950000Y2760000D02*
D03*
X3860000Y13460001D02*
D03*
X3660000D02*
D03*
X3239998Y15800002D02*
D03*
X3350000Y15800000D02*
D03*
X3460000D02*
D03*
X3239998Y16390002D02*
D03*
X3350000Y16389999D02*
D03*
X3460000D02*
D03*
X11750000Y11050000D02*
D03*
X7130000Y13980000D02*
D03*
X7400000Y13970000D02*
D03*
X7620000Y14580000D02*
D03*
X7621000Y14960001D02*
D03*
X7280000D02*
D03*
X11840000Y3635000D02*
D03*
X12635000Y2840000D02*
D03*
Y2685000D02*
D03*
X11840000Y2680000D02*
D03*
Y3257500D02*
D03*
X11110000D02*
D03*
X10960000D02*
D03*
X10820000Y3260000D02*
D03*
X10680000D02*
D03*
X11400000Y3690000D02*
D03*
X11260000D02*
D03*
X11110000Y3630000D02*
D03*
X10960000Y3625000D02*
D03*
X10820000Y3630000D02*
D03*
X11990000Y2940000D02*
D03*
X10660000Y2740000D02*
D03*
X12180000Y3400000D02*
D03*
Y3300000D02*
D03*
Y3200000D02*
D03*
Y3100000D02*
D03*
X10490000Y3260000D02*
D03*
X9730000Y8180000D02*
D03*
X8300000Y6610000D02*
D03*
X7730000Y6240000D02*
D03*
X11550000Y4190000D02*
D03*
Y2650000D02*
D03*
X8020000Y7320000D02*
D03*
X8050000Y7590000D02*
D03*
X8020000Y6247502D02*
D03*
X7870000Y6250002D02*
D03*
X7987378Y7022500D02*
D03*
X7895000Y7880000D02*
D03*
X7890000Y8030000D02*
D03*
X9350000Y7090000D02*
D03*
X13200000Y5820000D02*
D03*
X11860000Y4447500D02*
D03*
X11772500Y3925000D02*
D03*
X12590000Y4030000D02*
D03*
X12240000Y4810000D02*
D03*
X12372620Y5057500D02*
D03*
X12325000Y4517500D02*
D03*
Y4017500D02*
D03*
X13349998Y3300000D02*
D03*
X13205476D02*
D03*
X13048334D02*
D03*
X12891191D02*
D03*
X12734048D02*
D03*
X12594285D02*
D03*
X12459762D02*
D03*
X12320000D02*
D03*
X13379999Y3829999D02*
D03*
X12510000Y4660000D02*
D03*
X13360001Y5810000D02*
D03*
X12750000Y5710000D02*
D03*
X13015002Y6135002D02*
D03*
X11150000Y5300000D02*
D03*
X13645000Y8665000D02*
D03*
X13910001Y8860000D02*
D03*
X9040000Y4700000D02*
D03*
Y4600000D02*
D03*
X14510001Y8870000D02*
D03*
X14410001Y8569998D02*
D03*
X14410001Y8760001D02*
D03*
X12730002Y7630002D02*
D03*
X12951190Y9080000D02*
D03*
X12953810Y8917380D02*
D03*
X12607620Y8920000D02*
D03*
Y9082620D02*
D03*
X13300000Y8917380D02*
D03*
Y9080000D02*
D03*
X10750000Y2680000D02*
D03*
X7635000Y8310000D02*
D03*
X11830000Y5900000D02*
D03*
X9050000D02*
D03*
X9350000D02*
D03*
X9050000Y5700000D02*
D03*
X9350000D02*
D03*
X9200000Y5600000D02*
D03*
Y5800000D02*
D03*
X11500000Y6000000D02*
D03*
Y5600000D02*
D03*
X11350000Y5700000D02*
D03*
X11650000D02*
D03*
Y5900000D02*
D03*
X11350000D02*
D03*
X10220000Y3900000D02*
D03*
X10480000D02*
D03*
X10350000Y3800000D02*
D03*
Y3590000D02*
D03*
X9050000Y3500000D02*
D03*
X9200000Y3600000D02*
D03*
X9350000Y3300000D02*
D03*
X9050000Y5470000D02*
D03*
X9350000D02*
D03*
X8970000Y6120000D02*
D03*
Y6570000D02*
D03*
X9050000D02*
D03*
X8960000Y5900000D02*
D03*
X8930000Y5570000D02*
D03*
X8970000Y5400000D02*
D03*
Y5250000D02*
D03*
Y4900000D02*
D03*
Y5070000D02*
D03*
Y4790000D02*
D03*
X9210000Y5880000D02*
D03*
X9470000Y5900000D02*
D03*
X9530000Y7140000D02*
D03*
X9730000Y7130000D02*
D03*
X9950000D02*
D03*
X10180000D02*
D03*
X10380000D02*
D03*
X11570000Y7490000D02*
D03*
X10010000Y4640000D02*
D03*
X10190000D02*
D03*
X10370000D02*
D03*
X10550000D02*
D03*
X9050000Y3680000D02*
D03*
X9620000Y3460000D02*
D03*
X9200000Y3510000D02*
D03*
X10050000Y3350000D02*
D03*
X11550000Y4600000D02*
D03*
X11030000Y4280000D02*
D03*
X11290000D02*
D03*
X9250000Y4710000D02*
D03*
X9450000D02*
D03*
X9650000D02*
D03*
X10460000Y5300000D02*
D03*
Y5500000D02*
D03*
Y5700000D02*
D03*
X8970000Y6490000D02*
D03*
X9050000Y6440000D02*
D03*
X9250000D02*
D03*
X9350000D02*
D03*
X9450000D02*
D03*
X9550000D02*
D03*
X9650000D02*
D03*
X9750000D02*
D03*
X9850000D02*
D03*
X9950000D02*
D03*
X10050000D02*
D03*
X10150000D02*
D03*
X10250000D02*
D03*
X10350000D02*
D03*
X10450000D02*
D03*
X10550000D02*
D03*
X11850000Y6150000D02*
D03*
X11910000Y6100000D02*
D03*
Y6000000D02*
D03*
Y5100000D02*
D03*
Y4600000D02*
D03*
Y4500000D02*
D03*
X11840000Y3810000D02*
D03*
X12190000Y3600000D02*
D03*
Y3500000D02*
D03*
X11960000Y2750000D02*
D03*
X11170000Y2740000D02*
D03*
X11050000D02*
D03*
X10850000D02*
D03*
X10440000D02*
D03*
X9750000Y3060000D02*
D03*
X9650000D02*
D03*
X8500000Y3040000D02*
D03*
X8520000Y3600000D02*
D03*
Y3800000D02*
D03*
Y3900000D02*
D03*
X8860000Y3950000D02*
D03*
Y4060000D02*
D03*
X9010000Y4090000D02*
D03*
X9050000Y4030000D02*
D03*
X11377500Y13320000D02*
D03*
X11625000Y13377499D02*
D03*
X11445000Y11695000D02*
D03*
X10377500Y12650000D02*
D03*
X10277500Y12307500D02*
D03*
Y12077500D02*
D03*
Y11935000D02*
D03*
Y11575000D02*
D03*
X12050000Y12650000D02*
D03*
X12717500Y12367500D02*
D03*
X12050000Y12435000D02*
D03*
X12110000Y12385000D02*
D03*
X11062500Y11715000D02*
D03*
X11775000Y12849998D02*
D03*
X11675000Y12920003D02*
D03*
X8940000Y12405000D02*
D03*
X8925000Y12205000D02*
D03*
X11525000Y12849998D02*
D03*
X10352500Y10152500D02*
D03*
X10342500Y10602500D02*
D03*
X7462500Y13110001D02*
D03*
X8270000D02*
D03*
X7540000Y12390000D02*
D03*
X8080000Y12390000D02*
D03*
X7710000Y12050000D02*
D03*
X7760000D02*
D03*
X7910000D02*
D03*
X7860002Y12775003D02*
D03*
X11570000Y12920003D02*
D03*
X11750000Y12920000D02*
D03*
X7970000Y12855003D02*
D03*
X7850000D02*
D03*
X7910000Y13210001D02*
D03*
X7370000Y13139999D02*
D03*
X7300000D02*
D03*
X7230000D02*
D03*
X7370000Y13080000D02*
D03*
X7300000D02*
D03*
X7230000D02*
D03*
X12055000Y11782500D02*
D03*
X12725000Y12737500D02*
D03*
X12775000Y12989999D02*
D03*
X12850000Y12740000D02*
D03*
X12720000Y12180000D02*
D03*
X12490000Y12100000D02*
D03*
X12110000Y12285000D02*
D03*
X12050000Y12335000D02*
D03*
Y12235000D02*
D03*
X12110000Y12185000D02*
D03*
X11625000Y11715000D02*
D03*
X11675000Y11672500D02*
D03*
X10770000Y11595000D02*
D03*
X12110000Y12485000D02*
D03*
X9925000Y13395000D02*
D03*
X9710000D02*
D03*
X9710000Y11087500D02*
D03*
X9322500Y11440000D02*
D03*
X10180000D02*
D03*
X9457500Y11630000D02*
D03*
X10180000D02*
D03*
X9457500Y11812500D02*
D03*
X10180000D02*
D03*
X9457500Y12002500D02*
D03*
X10180000D02*
D03*
X9457500Y12192500D02*
D03*
X10180000D02*
D03*
X9457500Y12372500D02*
D03*
X10180000D02*
D03*
X9457500Y12562500D02*
D03*
X10180000D02*
D03*
X9457500Y12752500D02*
D03*
X10267500Y12735000D02*
D03*
X9367500Y12930000D02*
D03*
X9457500Y13125000D02*
D03*
Y13300000D02*
D03*
X10180000D02*
D03*
X9457500Y11260000D02*
D03*
X10180000D02*
D03*
X9922500Y11160000D02*
D03*
X11275000Y11695000D02*
D03*
X11362500D02*
D03*
X10682500Y12380000D02*
D03*
Y12260000D02*
D03*
Y12150000D02*
D03*
Y11890000D02*
D03*
Y11820000D02*
D03*
Y11700000D02*
D03*
Y12070000D02*
D03*
X10420000Y11180000D02*
D03*
X10360000Y11240000D02*
D03*
X10540000Y12850000D02*
D03*
X10430000D02*
D03*
X12050000Y12140000D02*
D03*
X10180000Y12927499D02*
D03*
Y13125000D02*
D03*
X10580000Y12440000D02*
D03*
X10632500Y11987500D02*
D03*
X12864999Y11575004D02*
D03*
X12515000D02*
D03*
X14087500Y8605000D02*
D03*
X14264999Y8827500D02*
D03*
X11325000Y12849998D02*
D03*
X11455000Y12937500D02*
D03*
X11382500D02*
D03*
X2900000Y14880000D02*
D03*
X2910000Y15030000D02*
D03*
X2150000Y15189999D02*
D03*
X2550000D02*
D03*
X2750000D02*
D03*
X1530000Y14080000D02*
D03*
X1870000D02*
D03*
X1530000Y14230000D02*
D03*
X770000Y13670000D02*
D03*
X1150000Y13950000D02*
D03*
X1350000D02*
D03*
X1950000D02*
D03*
X2150000D02*
D03*
X3150000Y13939999D02*
D03*
X3350000D02*
D03*
X1200000Y15110001D02*
D03*
X1350000D02*
D03*
X1490000D02*
D03*
X1620000D02*
D03*
X1275000Y14527499D02*
D03*
X1420000D02*
D03*
X1557500D02*
D03*
X1840000Y13560001D02*
D03*
X2950000Y15189999D02*
D03*
X2745000Y12830000D02*
D03*
X2865000D02*
D03*
X2925000D02*
D03*
X11640000Y7700000D02*
D03*
X3000000Y12830000D02*
D03*
X12589999Y5497500D02*
D03*
X7985000Y4465000D02*
D03*
X11340000Y3790000D02*
D03*
X11530000Y7720000D02*
D03*
Y8030000D02*
D03*
X11870000Y6730000D02*
D03*
X10975000Y7702500D02*
D03*
X10157500Y7775000D02*
D03*
X10380000Y7672500D02*
D03*
X3060000Y16660001D02*
D03*
X2860000D02*
D03*
X2660000D02*
D03*
X2460000D02*
D03*
X2260000D02*
D03*
X2060000D02*
D03*
X1860000D02*
D03*
X1660000D02*
D03*
X1460000D02*
D03*
X1260000D02*
D03*
X1060000D02*
D03*
X860000D02*
D03*
X660000D02*
D03*
X460000D02*
D03*
X260000D02*
D03*
Y16460001D02*
D03*
Y16260001D02*
D03*
Y16060001D02*
D03*
Y15860001D02*
D03*
Y15660001D02*
D03*
Y15460001D02*
D03*
Y15260001D02*
D03*
Y15060001D02*
D03*
Y14860001D02*
D03*
Y14660001D02*
D03*
Y14460001D02*
D03*
X3860000Y16460001D02*
D03*
Y16260001D02*
D03*
Y16060001D02*
D03*
Y15860001D02*
D03*
Y15660001D02*
D03*
Y15460001D02*
D03*
X260000Y13460001D02*
D03*
Y13660001D02*
D03*
X460000Y13460001D02*
D03*
X660000D02*
D03*
X860000D02*
D03*
X1060000D02*
D03*
X1260000D02*
D03*
X8140000Y11850000D02*
D03*
X11737500Y3845000D02*
D03*
X7460000Y12490000D02*
D03*
Y12290000D02*
D03*
X5650000Y12310000D02*
D03*
X6090000Y12490000D02*
D03*
X11892500Y11050000D02*
D03*
X12142500Y11047500D02*
D03*
X12385001Y11575004D02*
D03*
X12542500Y11727500D02*
D03*
X7515000Y11850000D02*
D03*
X11592500Y8567500D02*
D03*
X12520004Y15020000D02*
D03*
X12400000D02*
D03*
X9532500Y15714999D02*
D03*
X9532500Y14892500D02*
D03*
X12055000Y14285001D02*
D03*
X7360000Y6010000D02*
D03*
X7502500D02*
D03*
X7617500Y5530000D02*
D03*
X10492500Y3045000D02*
D03*
X7717500Y2755000D02*
D03*
X6197500Y5627500D02*
D03*
X6292500Y5380000D02*
D03*
X11535000Y7205000D02*
D03*
X11530000Y8110000D02*
D03*
X7570000Y15910001D02*
D03*
Y15960001D02*
D03*
Y16010001D02*
D03*
Y16060001D02*
D03*
Y16110001D02*
D03*
Y16160001D02*
D03*
Y16210001D02*
D03*
Y16260001D02*
D03*
Y16310001D02*
D03*
Y16360001D02*
D03*
X7470000Y15910001D02*
D03*
Y15960001D02*
D03*
Y16010001D02*
D03*
Y16060001D02*
D03*
Y16110001D02*
D03*
Y16160001D02*
D03*
Y16210001D02*
D03*
Y16260001D02*
D03*
Y16310001D02*
D03*
Y16360001D02*
D03*
X7370000Y15910001D02*
D03*
Y15960001D02*
D03*
Y16010001D02*
D03*
Y16060001D02*
D03*
Y16110001D02*
D03*
Y16160001D02*
D03*
Y16210001D02*
D03*
Y16260001D02*
D03*
Y16310001D02*
D03*
Y16360001D02*
D03*
X7270000Y15910001D02*
D03*
Y15960001D02*
D03*
Y16010001D02*
D03*
Y16060001D02*
D03*
Y16110001D02*
D03*
Y16160001D02*
D03*
Y16210001D02*
D03*
Y16260001D02*
D03*
Y16310001D02*
D03*
Y16360001D02*
D03*
X7170000Y15910001D02*
D03*
Y15960001D02*
D03*
Y16010001D02*
D03*
Y16060001D02*
D03*
Y16110001D02*
D03*
Y16160001D02*
D03*
Y16210001D02*
D03*
Y16260001D02*
D03*
Y16310001D02*
D03*
Y16360001D02*
D03*
X7070000Y15910001D02*
D03*
Y15960001D02*
D03*
Y16010001D02*
D03*
Y16060001D02*
D03*
Y16110001D02*
D03*
Y16160001D02*
D03*
Y16210001D02*
D03*
Y16260001D02*
D03*
Y16310001D02*
D03*
Y16360001D02*
D03*
X6970000D02*
D03*
Y16310001D02*
D03*
Y16260001D02*
D03*
Y16210001D02*
D03*
Y16160001D02*
D03*
Y16110001D02*
D03*
Y16060001D02*
D03*
Y16010001D02*
D03*
Y15960001D02*
D03*
Y15910001D02*
D03*
X11620000D02*
D03*
Y15960001D02*
D03*
Y16010001D02*
D03*
Y16060001D02*
D03*
Y16110001D02*
D03*
Y16160001D02*
D03*
Y16210001D02*
D03*
Y16260001D02*
D03*
Y16310001D02*
D03*
Y16360001D02*
D03*
X11720000D02*
D03*
Y16310001D02*
D03*
Y16260001D02*
D03*
Y16210001D02*
D03*
Y16160001D02*
D03*
Y16110001D02*
D03*
Y16060001D02*
D03*
Y16010001D02*
D03*
Y15960001D02*
D03*
Y15910001D02*
D03*
X11820000Y16360001D02*
D03*
Y16310001D02*
D03*
Y16260001D02*
D03*
Y16210001D02*
D03*
Y16160001D02*
D03*
Y16110001D02*
D03*
Y16060001D02*
D03*
Y16010001D02*
D03*
Y15960001D02*
D03*
Y15910001D02*
D03*
X11920000Y16360001D02*
D03*
Y16310001D02*
D03*
Y16260001D02*
D03*
Y16210001D02*
D03*
Y16160001D02*
D03*
Y16110001D02*
D03*
Y16060001D02*
D03*
Y16010001D02*
D03*
Y15960001D02*
D03*
Y15910001D02*
D03*
X12020000Y16360001D02*
D03*
Y16310001D02*
D03*
Y16260001D02*
D03*
Y16210001D02*
D03*
Y16160001D02*
D03*
Y16110001D02*
D03*
Y16060001D02*
D03*
Y16010001D02*
D03*
Y15960001D02*
D03*
Y15910001D02*
D03*
X12120000Y16360001D02*
D03*
Y16310001D02*
D03*
Y16260001D02*
D03*
Y16210001D02*
D03*
Y16160001D02*
D03*
Y16110001D02*
D03*
Y16060001D02*
D03*
Y16010001D02*
D03*
Y15960001D02*
D03*
Y15910001D02*
D03*
X12220000Y16360001D02*
D03*
Y16310001D02*
D03*
Y16260001D02*
D03*
Y16210001D02*
D03*
Y16160001D02*
D03*
Y16110001D02*
D03*
Y16060001D02*
D03*
Y16010001D02*
D03*
Y15960001D02*
D03*
Y15910001D02*
D03*
X3260000Y16660001D02*
D03*
X3460000D02*
D03*
X3660000D02*
D03*
X3860000D02*
D03*
Y15260001D02*
D03*
X3860000Y14060001D02*
D03*
Y14260001D02*
D03*
Y14460001D02*
D03*
Y14660001D02*
D03*
Y14860001D02*
D03*
Y15060001D02*
D03*
Y13860001D02*
D03*
X3860000Y13660001D02*
D03*
X3460000Y13460001D02*
D03*
X3260000D02*
D03*
X3060000D02*
D03*
X1460000D02*
D03*
X1660000D02*
D03*
X11110000Y4093160D02*
D03*
X11210000Y4090000D02*
D03*
D280*
X14680000Y8040000D02*
D03*
X7560000Y485000D02*
D03*
X6990000Y11820000D02*
D03*
X5167999Y9734502D02*
D03*
X6400000Y10900000D02*
D03*
X5085000Y10910000D02*
D03*
X13010001Y15160001D02*
D03*
X13110001Y14010001D02*
D03*
X2710000Y7310000D02*
D03*
X8426050Y1460000D02*
D03*
X9660000Y1160000D02*
D03*
X7610000D02*
D03*
X9480000Y3900000D02*
D03*
X13380000Y3130000D02*
D03*
X11760000Y13630000D02*
D03*
X13620000Y16520000D02*
D03*
X14010001Y15560001D02*
D03*
X13260004Y15400003D02*
D03*
X8585000Y15735001D02*
D03*
X9520000Y7430000D02*
D03*
X5530000Y9860000D02*
D03*
X9760000Y3900000D02*
D03*
X9620000Y3260000D02*
D03*
X11070000Y10905000D02*
D03*
X3150000Y15150000D02*
D03*
X2800000Y14680000D02*
D03*
X2630000D02*
D03*
X5050000Y12860001D02*
D03*
X5727500Y12030000D02*
D03*
X10912500Y15527499D02*
D03*
X2350000Y1210000D02*
D03*
X2560000D02*
D03*
Y610000D02*
D03*
X2350000D02*
D03*
X3050000Y1210000D02*
D03*
X3260000D02*
D03*
Y610000D02*
D03*
X3050000D02*
D03*
X5167999Y9310000D02*
D03*
X6360000Y11360000D02*
D03*
X6460000Y15160001D02*
D03*
X8797500Y1650000D02*
D03*
X5160000Y11395000D02*
D03*
X10135000Y15747495D02*
D03*
X10867499Y14810001D02*
D03*
X10872499Y15060001D02*
D03*
X10720000Y15210001D02*
D03*
X14310001Y13610001D02*
D03*
X5860000Y14295003D02*
D03*
D281*
X7810000Y12389999D02*
D03*
%TF.MD5,26ab736a7adf8b1e33ff2c2843c17fb2*%
M02*
