%TF.GenerationSoftware,Altium Limited,Altium Designer,18.0.9 (584)*%
G04 Layer_Color=0*
%FSLAX45Y45*%
%MOMM*%
%TF.FileFunction,Other,Mechanical_16*%
%TF.Part,Single*%
G01*
G75*
%TA.AperFunction,NonConductor*%
%ADD65C,0.15000*%
%ADD171C,0.10000*%
%ADD172C,0.25400*%
%ADD311C,0.05000*%
D65*
X13714142Y5530000D02*
G03*
X13714142Y5530000I-14142J0D01*
G01*
X12804143Y5820000D02*
G03*
X12804143Y5820000I-14142J0D01*
G01*
X2844997Y8752499D02*
X3539996D01*
X2844997Y8332500D02*
Y8752499D01*
Y8332500D02*
X3539996D01*
X3540002D02*
Y8752499D01*
X13590002Y5499998D02*
X13730002D01*
X13590002D02*
Y5799998D01*
X13730002D01*
Y5499998D02*
Y5799998D01*
X12759998Y5790000D02*
Y5929999D01*
X13059998D01*
Y5790000D02*
Y5929999D01*
X12759998Y5790000D02*
X13059998D01*
X12795500Y4447499D02*
X13317999D01*
X12795500Y3754998D02*
Y4447499D01*
Y3754998D02*
X13317999D01*
Y4447499D01*
X2812500Y10302502D02*
X3412499D01*
Y10752504D01*
X2812500D02*
X3412499D01*
X2812500Y10302502D02*
Y10752504D01*
D171*
X1440000Y15957500D02*
G03*
X1440000Y15957500I-10000J0D01*
G01*
X1740000D02*
G03*
X1740000Y15957500I-10000J0D01*
G01*
X1890000D02*
G03*
X1890000Y15957500I-10000J0D01*
G01*
X1590000D02*
G03*
X1590000Y15957500I-10000J0D01*
G01*
X1290000D02*
G03*
X1290000Y15957500I-10000J0D01*
G01*
X10737500Y14545000D02*
G03*
X10737500Y14545000I-20000J0D01*
G01*
X11192500Y14839999D02*
G03*
X11192500Y14839999I-10000J0D01*
G01*
X12672071Y12765000D02*
G03*
X12672071Y12765000I-7071J0D01*
G01*
X11872071Y2975000D02*
G03*
X11872071Y2975000I-7071J0D01*
G01*
X11682071Y3535000D02*
G03*
X11682071Y3535000I-7071J0D01*
G01*
X11382071D02*
G03*
X11382071Y3535000I-7071J0D01*
G01*
X11092071D02*
G03*
X11092071Y3535000I-7071J0D01*
G01*
X10852071Y3335000D02*
G03*
X10852071Y3335000I-7071J0D01*
G01*
X11732071Y2975000D02*
G03*
X11732071Y2975000I-7071J0D01*
G01*
X11382071Y3175000D02*
G03*
X11382071Y3175000I-7071J0D01*
G01*
X11092071D02*
G03*
X11092071Y3175000I-7071J0D01*
G01*
X10802071D02*
G03*
X10802071Y3175000I-7071J0D01*
G01*
X10570000Y3210000D02*
G03*
X10570000Y3210000I-10000J0D01*
G01*
X12367071Y2865000D02*
G03*
X12367071Y2865000I-7071J0D01*
G01*
X12502071D02*
G03*
X12502071Y2865000I-7071J0D01*
G01*
X12605000Y4585000D02*
G03*
X12605000Y4585000I-15000J0D01*
G01*
X10992071Y15035001D02*
G03*
X10992071Y15035001I-7071J0D01*
G01*
X10987071Y15185001D02*
G03*
X10987071Y15185001I-7071J0D01*
G01*
X2449999Y13687500D02*
G03*
X2449999Y13687500I-10000J0D01*
G01*
X2050000D02*
G03*
X2050000Y13687500I-10000J0D01*
G01*
X1850000D02*
G03*
X1850000Y13687500I-10000J0D01*
G01*
X14682500Y8610000D02*
G03*
X14682500Y8610000I-10000J0D01*
G01*
X11300000Y8837500D02*
G03*
X11300000Y8837500I-10000J0D01*
G01*
X10550000D02*
G03*
X10550000Y8837500I-10000J0D01*
G01*
X11192071Y7515000D02*
G03*
X11192071Y7515000I-7071J0D01*
G01*
X10292071Y10625000D02*
G03*
X10292071Y10625000I-7071J0D01*
G01*
Y10175000D02*
G03*
X10292071Y10175000I-7071J0D01*
G01*
X1602071Y14055000D02*
G03*
X1602071Y14055000I-7071J0D01*
G01*
X9532071Y14475000D02*
G03*
X9532071Y14475000I-7071J0D01*
G01*
X9732071D02*
G03*
X9732071Y14475000I-7071J0D01*
G01*
X9182071D02*
G03*
X9182071Y14475000I-7071J0D01*
G01*
X8982071D02*
G03*
X8982071Y14475000I-7071J0D01*
G01*
X12087502Y10935009D02*
G03*
X12087502Y10935009I-10000J0D01*
G01*
X11584573Y10930008D02*
G03*
X11584573Y10930008I-7071J0D01*
G01*
X1330000Y14702499D02*
G03*
X1330000Y14702499I-10000J0D01*
G01*
X1470000Y14702499D02*
G03*
X1470000Y14702499I-10000J0D01*
G01*
X1180000D02*
G03*
X1180000Y14702499I-10000J0D01*
G01*
X1600000D02*
G03*
X1600000Y14702499I-10000J0D01*
G01*
X1240000Y14847501D02*
G03*
X1240000Y14847501I-10000J0D01*
G01*
X1660000D02*
G03*
X1660000Y14847501I-10000J0D01*
G01*
X1390000Y14847501D02*
G03*
X1390000Y14847501I-10000J0D01*
G01*
X1530000Y14847501D02*
G03*
X1530000Y14847501I-10000J0D01*
G01*
X12420000Y7082500D02*
G03*
X12420000Y7082500I-10000J0D01*
G01*
X7490010Y10535001D02*
G03*
X7490010Y10535001I-10000J0D01*
G01*
Y10215000D02*
G03*
X7490010Y10215000I-10000J0D01*
G01*
X14092072Y13785001D02*
G03*
X14092072Y13785001I-7071J0D01*
G01*
X13787071Y4385000D02*
G03*
X13787071Y4385000I-7071J0D01*
G01*
Y4525000D02*
G03*
X13787071Y4525000I-7071J0D01*
G01*
Y3235000D02*
G03*
X13787071Y3235000I-7071J0D01*
G01*
Y3665000D02*
G03*
X13787071Y3665000I-7071J0D01*
G01*
Y4245000D02*
G03*
X13787071Y4245000I-7071J0D01*
G01*
Y3805000D02*
G03*
X13787071Y3805000I-7071J0D01*
G01*
Y3515000D02*
G03*
X13787071Y3515000I-7071J0D01*
G01*
Y3955000D02*
G03*
X13787071Y3955000I-7071J0D01*
G01*
Y3375000D02*
G03*
X13787071Y3375000I-7071J0D01*
G01*
Y4095000D02*
G03*
X13787071Y4095000I-7071J0D01*
G01*
Y3085000D02*
G03*
X13787071Y3085000I-7071J0D01*
G01*
X11532071Y3535000D02*
G03*
X11532071Y3535000I-7071J0D01*
G01*
X10942071D02*
G03*
X10942071Y3535000I-7071J0D01*
G01*
X11242071D02*
G03*
X11242071Y3535000I-7071J0D01*
G01*
X10992071Y2975000D02*
G03*
X10992071Y2975000I-7071J0D01*
G01*
X11822071Y3535000D02*
G03*
X11822071Y3535000I-7071J0D01*
G01*
X9420000Y3800000D02*
G03*
X9420000Y3800000I-15000J0D01*
G01*
X9920000Y3730000D02*
G03*
X9920000Y3730000I-10000J0D01*
G01*
X10420000D02*
G03*
X10420000Y3730000I-10000J0D01*
G01*
X12232071Y2865000D02*
G03*
X12232071Y2865000I-7071J0D01*
G01*
X11532071Y3175000D02*
G03*
X11532071Y3175000I-7071J0D01*
G01*
X10712071Y3335000D02*
G03*
X10712071Y3335000I-7071J0D01*
G01*
X11242071Y3175000D02*
G03*
X11242071Y3175000I-7071J0D01*
G01*
X9850000Y3400300D02*
G03*
X9850000Y3400300I-15000J0D01*
G01*
X10310000Y3430000D02*
G03*
X10310000Y3430000I-10000J0D01*
G01*
X13232071Y9107620D02*
G03*
X13232071Y9107620I-7071J0D01*
G01*
Y8942380D02*
G03*
X13232071Y8942380I-7071J0D01*
G01*
X7800000Y14070000D02*
G03*
X7800000Y14070000I-15000J0D01*
G01*
X7540000D02*
G03*
X7540000Y14070000I-15000J0D01*
G01*
X8300000D02*
G03*
X8300000Y14070000I-15000J0D01*
G01*
X8040000Y14039999D02*
G03*
X8040000Y14039999I-10000J0D01*
G01*
X11380000Y14089999D02*
G03*
X11380000Y14089999I-15000J0D01*
G01*
X11532071Y14135001D02*
G03*
X11532071Y14135001I-7071J0D01*
G01*
X11682071D02*
G03*
X11682071Y14135001I-7071J0D01*
G01*
X11930000Y14089999D02*
G03*
X11930000Y14089999I-15000J0D01*
G01*
X11772499Y15332500D02*
G03*
X11772499Y15332500I-15000J0D01*
G01*
X3712071Y8285000D02*
G03*
X3712071Y8285000I-7071J0D01*
G01*
X8342071Y10270000D02*
G03*
X8342071Y10270000I-7071J0D01*
G01*
X9942071Y10485000D02*
G03*
X9942071Y10485000I-7071J0D01*
G01*
X8342071Y10590001D02*
G03*
X8342071Y10590001I-7071J0D01*
G01*
X7345000Y13285001D02*
G03*
X7345000Y13285001I-15000J0D01*
G01*
X7542071Y13085001D02*
G03*
X7542071Y13085001I-7071J0D01*
G01*
X8375000Y13435001D02*
G03*
X8375000Y13435001I-15000J0D01*
G01*
X8192071Y13135001D02*
G03*
X8192071Y13135001I-7071J0D01*
G01*
X11565000Y13334998D02*
G03*
X11565000Y13334998I-10000J0D01*
G01*
X11362071Y13254997D02*
G03*
X11362071Y13254997I-7071J0D01*
G01*
X10342500Y12240000D02*
G03*
X10342500Y12240000I-10000J0D01*
G01*
X11147500Y11195000D02*
G03*
X11147500Y11195000I-15000J0D01*
G01*
X12672071Y12205000D02*
G03*
X12672071Y12205000I-7071J0D01*
G01*
X10354572Y12055000D02*
G03*
X10354572Y12055000I-7071J0D01*
G01*
X12744999Y13060001D02*
G03*
X12744999Y13060001I-10000J0D01*
G01*
X10340000Y11510000D02*
G03*
X10340000Y11510000I-10000J0D01*
G01*
X10354572Y11915000D02*
G03*
X10354572Y11915000I-7071J0D01*
G01*
X8652068Y12180000D02*
G03*
X8652068Y12180000I-7071J0D01*
G01*
Y12380004D02*
G03*
X8652068Y12380004I-7071J0D01*
G01*
X12790000Y12690000D02*
G03*
X12790000Y12690000I-10000J0D01*
G01*
X12672071Y12395000D02*
G03*
X12672071Y12395000I-7071J0D01*
G01*
X12002071Y11760000D02*
G03*
X12002071Y11760000I-7071J0D01*
G01*
X3182071Y14905000D02*
G03*
X3182071Y14905000I-7071J0D01*
G01*
Y15055000D02*
G03*
X3182071Y15055000I-7071J0D01*
G01*
X2895000Y14610001D02*
G03*
X2895000Y14610001I-10000J0D01*
G01*
X2815000Y14355000D02*
G03*
X2815000Y14355000I-15000J0D01*
G01*
X13472070Y6887500D02*
G03*
X13472070Y6887500I-7071J0D01*
G01*
X13322070D02*
G03*
X13322070Y6887500I-7071J0D01*
G01*
X11792071Y7515000D02*
G03*
X11792071Y7515000I-7071J0D01*
G01*
X10622071D02*
G03*
X10622071Y7515000I-7071J0D01*
G01*
X11982071Y4375000D02*
G03*
X11982071Y4375000I-7071J0D01*
G01*
X13382069Y3367500D02*
G03*
X13382069Y3367500I-7071J0D01*
G01*
X12822070Y5685000D02*
G03*
X12822070Y5685000I-7071J0D01*
G01*
X13392072Y5735000D02*
G03*
X13392072Y5735000I-7071J0D01*
G01*
X12605000Y4955000D02*
G03*
X12605000Y4955000I-15000J0D01*
G01*
X12352071Y3367500D02*
G03*
X12352071Y3367500I-7071J0D01*
G01*
X12626356D02*
G03*
X12626356Y3367500I-7071J0D01*
G01*
X7965000Y7665000D02*
G03*
X7965000Y7665000I-15000J0D01*
G01*
X7827071Y7905000D02*
G03*
X7827071Y7905000I-7071J0D01*
G01*
X7839451Y7047500D02*
G03*
X7839451Y7047500I-7071J0D01*
G01*
X7965000Y7405000D02*
G03*
X7965000Y7405000I-15000J0D01*
G01*
X8052071Y6352500D02*
G03*
X8052071Y6352500I-7071J0D01*
G01*
X12065001Y15070000D02*
G03*
X12065001Y15070000I-20000J0D01*
G01*
X5630000Y12130000D02*
G03*
X5630000Y12130000I-25000J0D01*
G01*
X7265000Y9975000D02*
G03*
X7265000Y9975000I-25000J0D01*
G01*
X5280000Y12310000D02*
G03*
X5280000Y12310000I-25000J0D01*
G01*
X3810000Y7700000D02*
G03*
X3810000Y7700000I-25000J0D01*
G01*
X7265000Y10825000D02*
G03*
X7265000Y10825000I-25000J0D01*
G01*
X4310000Y8347500D02*
G03*
X4310000Y8347500I-25000J0D01*
G01*
X5630000Y12830000D02*
G03*
X5630000Y12830000I-25000J0D01*
G01*
X5280000Y12650000D02*
G03*
X5280000Y12650000I-25000J0D01*
G01*
X12665000Y6782502D02*
G03*
X12665000Y6782502I-25000J0D01*
G01*
X13239999Y5267500D02*
G03*
X13239999Y5267500I-10000J0D01*
G01*
X13030000D02*
G03*
X13030000Y5267500I-10000J0D01*
G01*
X7822500Y8250000D02*
G03*
X7822500Y8250000I-10000J0D01*
G01*
X11012500Y7160000D02*
G03*
X11012500Y7160000I-10000J0D01*
G01*
X12100000Y7132500D02*
G03*
X12100000Y7132500I-10000J0D01*
G01*
X11167500Y7100000D02*
G03*
X11167500Y7100000I-10000J0D01*
G01*
X11770000Y6407500D02*
G03*
X11770000Y6407500I-10000J0D01*
G01*
X10122500Y8200000D02*
G03*
X10122500Y8200000I-10000J0D01*
G01*
X11770000Y6007500D02*
G03*
X11770000Y6007500I-10000J0D01*
G01*
Y5607500D02*
G03*
X11770000Y5607500I-10000J0D01*
G01*
X10287500Y6320000D02*
G03*
X10287500Y6320000I-10000J0D01*
G01*
X11770000Y5207500D02*
G03*
X11770000Y5207500I-10000J0D01*
G01*
X8882500Y4280000D02*
G03*
X8882500Y4280000I-10000J0D01*
G01*
X9150000Y5957500D02*
G03*
X9150000Y5957500I-10000J0D01*
G01*
X9510000Y6972500D02*
G03*
X9510000Y6972500I-10000J0D01*
G01*
X8882500Y4430000D02*
G03*
X8882500Y4430000I-10000J0D01*
G01*
Y4600000D02*
G03*
X8882500Y4600000I-10000J0D01*
G01*
X9330000Y5957500D02*
G03*
X9330000Y5957500I-10000J0D01*
G01*
X9710000Y6972500D02*
G03*
X9710000Y6972500I-10000J0D01*
G01*
X8882500Y4780000D02*
G03*
X8882500Y4780000I-10000J0D01*
G01*
X9510000Y5957500D02*
G03*
X9510000Y5957500I-10000J0D01*
G01*
X8882500Y4930000D02*
G03*
X8882500Y4930000I-10000J0D01*
G01*
X10050000Y4707500D02*
G03*
X10050000Y4707500I-10000J0D01*
G01*
X9930000Y6972500D02*
G03*
X9930000Y6972500I-10000J0D01*
G01*
X8882500Y5100000D02*
G03*
X8882500Y5100000I-10000J0D01*
G01*
Y5280000D02*
G03*
X8882500Y5280000I-10000J0D01*
G01*
X10230000Y4707500D02*
G03*
X10230000Y4707500I-10000J0D01*
G01*
X10160000Y6972500D02*
G03*
X10160000Y6972500I-10000J0D01*
G01*
X8882500Y5430000D02*
G03*
X8882500Y5430000I-10000J0D01*
G01*
Y5600000D02*
G03*
X8882500Y5600000I-10000J0D01*
G01*
X10409999Y4707500D02*
G03*
X10409999Y4707500I-10000J0D01*
G01*
X10360000Y6972500D02*
G03*
X10360000Y6972500I-10000J0D01*
G01*
X8882500Y5770000D02*
G03*
X8882500Y5770000I-10000J0D01*
G01*
Y5930000D02*
G03*
X8882500Y5930000I-10000J0D01*
G01*
X10590000Y4707500D02*
G03*
X10590000Y4707500I-10000J0D01*
G01*
X10580000Y6972500D02*
G03*
X10580000Y6972500I-10000J0D01*
G01*
X8882500Y6100000D02*
G03*
X8882500Y6100000I-10000J0D01*
G01*
Y6270000D02*
G03*
X8882500Y6270000I-10000J0D01*
G01*
X10762500Y5527501D02*
G03*
X10762500Y5527501I-10000J0D01*
G01*
X10810000Y6972500D02*
G03*
X10810000Y6972500I-10000J0D01*
G01*
X8882500Y6430000D02*
G03*
X8882500Y6430000I-10000J0D01*
G01*
Y6600000D02*
G03*
X8882500Y6600000I-10000J0D01*
G01*
X10582500Y5527501D02*
G03*
X10582500Y5527501I-10000J0D01*
G01*
X11010000Y6972500D02*
G03*
X11010000Y6972500I-10000J0D01*
G01*
X8882500Y6750000D02*
G03*
X8882500Y6750000I-10000J0D01*
G01*
X12892500Y9110000D02*
G03*
X12892500Y9110000I-10000J0D01*
G01*
Y8950000D02*
G03*
X12892500Y8950000I-10000J0D01*
G01*
X14682500Y8470000D02*
G03*
X14682500Y8470000I-10000J0D01*
G01*
X12042500Y14377499D02*
G03*
X12042500Y14377499I-10000J0D01*
G01*
X12802501Y14867500D02*
G03*
X12802501Y14867500I-10000J0D01*
G01*
Y14582500D02*
G03*
X12802501Y14582500I-10000J0D01*
G01*
X4327500Y9980000D02*
G03*
X4327500Y9980000I-10000J0D01*
G01*
X3762500Y7920000D02*
G03*
X3762500Y7920000I-10000J0D01*
G01*
X4522500Y9890000D02*
G03*
X4522500Y9890000I-10000J0D01*
G01*
X4490000Y8362500D02*
G03*
X4490000Y8362500I-10000J0D01*
G01*
X2752500Y8720000D02*
G03*
X2752500Y8720000I-10000J0D01*
G01*
X7837500Y10215000D02*
G03*
X7837500Y10215000I-10000J0D01*
G01*
X10080000Y10482500D02*
G03*
X10080000Y10482500I-10000J0D01*
G01*
X7837500Y10535001D02*
G03*
X7837500Y10535001I-10000J0D01*
G01*
X8092500Y11880000D02*
G03*
X8092500Y11880000I-10000J0D01*
G01*
X7602500Y11820000D02*
G03*
X7602500Y11820000I-10000J0D01*
G01*
X13832500Y8600000D02*
G03*
X13832500Y8600000I-10000J0D01*
G01*
X10112500Y13330000D02*
G03*
X10112500Y13330000I-10000J0D01*
G01*
Y13150000D02*
G03*
X10112500Y13150000I-10000J0D01*
G01*
Y12960001D02*
G03*
X10112500Y12960001I-10000J0D01*
G01*
Y12770000D02*
G03*
X10112500Y12770000I-10000J0D01*
G01*
Y12590000D02*
G03*
X10112500Y12590000I-10000J0D01*
G01*
Y12400000D02*
G03*
X10112500Y12400000I-10000J0D01*
G01*
Y12220000D02*
G03*
X10112500Y12220000I-10000J0D01*
G01*
Y12030000D02*
G03*
X10112500Y12030000I-10000J0D01*
G01*
Y11840000D02*
G03*
X10112500Y11840000I-10000J0D01*
G01*
Y11660000D02*
G03*
X10112500Y11660000I-10000J0D01*
G01*
Y11470000D02*
G03*
X10112500Y11470000I-10000J0D01*
G01*
Y11290000D02*
G03*
X10112500Y11290000I-10000J0D01*
G01*
X13832500Y8790000D02*
G03*
X13832500Y8790000I-10000J0D01*
G01*
X9742500Y13330000D02*
G03*
X9742500Y13330000I-10000J0D01*
G01*
Y13150000D02*
G03*
X9742500Y13150000I-10000J0D01*
G01*
Y12960001D02*
G03*
X9742500Y12960001I-10000J0D01*
G01*
Y12770000D02*
G03*
X9742500Y12770000I-10000J0D01*
G01*
Y12590000D02*
G03*
X9742500Y12590000I-10000J0D01*
G01*
Y12400000D02*
G03*
X9742500Y12400000I-10000J0D01*
G01*
Y12220000D02*
G03*
X9742500Y12220000I-10000J0D01*
G01*
Y12030000D02*
G03*
X9742500Y12030000I-10000J0D01*
G01*
Y11840000D02*
G03*
X9742500Y11840000I-10000J0D01*
G01*
Y11660000D02*
G03*
X9742500Y11660000I-10000J0D01*
G01*
Y11470000D02*
G03*
X9742500Y11470000I-10000J0D01*
G01*
Y11290000D02*
G03*
X9742500Y11290000I-10000J0D01*
G01*
X11500000Y11127500D02*
G03*
X11500000Y11127500I-10000J0D01*
G01*
X13282500Y6687379D02*
G03*
X13282500Y6687379I-10000J0D01*
G01*
X12610000Y7082500D02*
G03*
X12610000Y7082500I-10000J0D01*
G01*
X12330000Y6882500D02*
G03*
X12330000Y6882500I-10000J0D01*
G01*
X12420000Y6602500D02*
G03*
X12420000Y6602500I-10000J0D01*
G01*
X11682502Y3712500D02*
G03*
X11682502Y3712500I-10000J0D01*
G01*
X11760000Y8257500D02*
G03*
X11760000Y8257500I-10000J0D01*
G01*
X7480000Y5582500D02*
G03*
X7480000Y5582500I-10000J0D01*
G01*
X7340000D02*
G03*
X7340000Y5582500I-10000J0D01*
G01*
X7200000D02*
G03*
X7200000Y5582500I-10000J0D01*
G01*
X7060000D02*
G03*
X7060000Y5582500I-10000J0D01*
G01*
X6910000D02*
G03*
X6910000Y5582500I-10000J0D01*
G01*
X6770000D02*
G03*
X6770000Y5582500I-10000J0D01*
G01*
X6490000D02*
G03*
X6490000Y5582500I-10000J0D01*
G01*
X6630000D02*
G03*
X6630000Y5582500I-10000J0D01*
G01*
X10720000Y7712500D02*
G03*
X10720000Y7712500I-10000J0D01*
G01*
X11900000Y4177500D02*
G03*
X11900000Y4177500I-10000J0D01*
G01*
X12670000Y4207500D02*
G03*
X12670000Y4207500I-10000J0D01*
G01*
X12714048Y3572500D02*
G03*
X12714048Y3572500I-10000J0D01*
G01*
X13489999Y5752500D02*
G03*
X13489999Y5752500I-10000J0D01*
G01*
X12439763Y3572500D02*
G03*
X12439763Y3572500I-10000J0D01*
G01*
X13042500Y6070000D02*
G03*
X13042500Y6070000I-10000J0D01*
G01*
X13392500Y5620000D02*
G03*
X13392500Y5620000I-10000J0D01*
G01*
X7417380Y7370000D02*
G03*
X7417380Y7370000I-10000J0D01*
G01*
X7270000Y6852500D02*
G03*
X7270000Y6852500I-10000J0D01*
G01*
X7910000Y6357500D02*
G03*
X7910000Y6357500I-10000J0D01*
G01*
X7822500Y8060000D02*
G03*
X7822500Y8060000I-10000J0D01*
G01*
X12352620Y4987500D02*
G03*
X12352620Y4987500I-10000J0D01*
G01*
X11645000Y11127500D02*
G03*
X11645000Y11127500I-10000J0D01*
G01*
X11790000D02*
G03*
X11790000Y11127500I-10000J0D01*
G01*
X1810000Y14260001D02*
G03*
X1810000Y14260001I-10000J0D01*
G01*
X2649999Y13687500D02*
G03*
X2649999Y13687500I-10000J0D01*
G01*
X5967500Y12350000D02*
G03*
X5967500Y12350000I-10000J0D01*
G01*
Y12680000D02*
G03*
X5967500Y12680000I-10000J0D01*
G01*
X2250000Y13687500D02*
G03*
X2250000Y13687500I-10000J0D01*
G01*
X12589573Y10930008D02*
G03*
X12589573Y10930008I-7071J0D01*
G01*
X13830000Y2950000D02*
G03*
X13830000Y2950000I-10000J0D01*
G01*
X13885001Y2715000D02*
G03*
X13885001Y2715000I-15000J0D01*
G01*
X1650000Y13687500D02*
G03*
X1650000Y13687500I-10000J0D01*
G01*
X8257500Y8840001D02*
G03*
X8257500Y8840001I-10000J0D01*
G01*
X8082500Y8900000D02*
G03*
X8082500Y8900000I-10000J0D01*
G01*
X8257500Y8690000D02*
G03*
X8257500Y8690000I-10000J0D01*
G01*
X8082500Y8750000D02*
G03*
X8082500Y8750000I-10000J0D01*
G01*
X10360005Y7967500D02*
G03*
X10360005Y7967500I-10000J0D01*
G01*
X11510000D02*
G03*
X11510000Y7967500I-10000J0D01*
G01*
X10955000D02*
G03*
X10955000Y7967500I-10000J0D01*
G01*
X11872500Y11327500D02*
G03*
X11872500Y11327500I-10000J0D01*
G01*
X7341952Y5960000D02*
G03*
X7341952Y5960000I-7071J0D01*
G01*
X7484690D02*
G03*
X7484690Y5960000I-7071J0D01*
G01*
X4542071Y10135000D02*
G03*
X4542071Y10135000I-7071J0D01*
G01*
Y10285000D02*
G03*
X4542071Y10285000I-7071J0D01*
G01*
X11265000Y4240000D02*
G03*
X11265000Y4240000I-10000J0D01*
G01*
X11015000D02*
G03*
X11015000Y4240000I-10000J0D01*
G01*
X1400000Y15727499D02*
Y15987500D01*
Y15727499D02*
X1520000D01*
Y15987500D01*
X1400000D02*
X1520000D01*
X1700000Y15727499D02*
Y15987500D01*
Y15727499D02*
X1820000D01*
Y15987500D01*
X1700000D02*
X1820000D01*
X1850000Y15727499D02*
Y15987500D01*
Y15727499D02*
X1970000D01*
Y15987500D01*
X1850000D02*
X1970000D01*
X1550000Y15727499D02*
Y15987500D01*
Y15727499D02*
X1670000D01*
Y15987500D01*
X1550000D02*
X1670000D01*
X1250000Y15727499D02*
Y15987500D01*
Y15727499D02*
X1370000D01*
Y15987500D01*
X1250000D02*
X1370000D01*
X11237500Y6350000D02*
Y6610000D01*
X11617500D01*
Y6350000D02*
Y6610000D01*
X11237500Y6350000D02*
X11617500D01*
X11237500Y5970000D02*
X11617500D01*
Y6230000D01*
X11237500D02*
X11617500D01*
X11237500Y5970000D02*
Y6230000D01*
Y5600000D02*
Y5860000D01*
X11617500D01*
Y5600000D02*
Y5860000D01*
X11237500Y5600000D02*
X11617500D01*
X10687499Y13940001D02*
Y14580000D01*
Y13940001D02*
X11112502D01*
Y14580000D01*
X10687499D02*
X11112502D01*
X10952500Y14870000D02*
X11212500D01*
X10952500Y14750000D02*
Y14870000D01*
Y14750000D02*
X11212500D01*
Y14870000D01*
X12440000Y12690000D02*
X12690000D01*
X12440000D02*
Y12790000D01*
X12690000D01*
Y12690000D02*
Y12790000D01*
X6890000Y12202500D02*
Y12640001D01*
Y12202500D02*
X7090000D01*
Y12640001D01*
X6890000D02*
X7090000D01*
X11790000Y2950000D02*
Y3200000D01*
X11890000D01*
Y2950000D02*
Y3200000D01*
X11790000Y2950000D02*
X11890000D01*
X11650000Y3560000D02*
X11750000D01*
X11650000Y3310000D02*
Y3560000D01*
Y3310000D02*
X11750000D01*
Y3560000D01*
X11350000D02*
X11450000D01*
X11350000Y3310000D02*
Y3560000D01*
Y3310000D02*
X11450000D01*
Y3560000D01*
X11060000D02*
X11160000D01*
X11060000Y3310000D02*
Y3560000D01*
Y3310000D02*
X11160000D01*
Y3560000D01*
X10770000Y3310000D02*
Y3560000D01*
X10870000D01*
Y3310000D02*
Y3560000D01*
X10770000Y3310000D02*
X10870000D01*
X11650000Y2950000D02*
X11750000D01*
Y3200000D01*
X11650000D02*
X11750000D01*
X11650000Y2950000D02*
Y3200000D01*
X11450000Y2950000D02*
Y3200000D01*
X11350000Y2950000D02*
X11450000D01*
X11350000D02*
Y3200000D01*
X11450000D01*
X11060000D02*
X11160000D01*
X11060000Y2950000D02*
Y3200000D01*
Y2950000D02*
X11160000D01*
Y3200000D01*
X10770000D02*
X10870000D01*
X10770000Y2950000D02*
Y3200000D01*
Y2950000D02*
X10870000D01*
Y3200000D01*
X10530000Y3235000D02*
X10730000D01*
X10530000Y2885000D02*
Y3235000D01*
Y2885000D02*
X10730000D01*
Y3235000D01*
X12335000Y2890000D02*
X12435000D01*
X12335000Y2640000D02*
Y2890000D01*
Y2640000D02*
X12435000D01*
Y2890000D01*
X12570000Y2640000D02*
Y2890000D01*
X12470000Y2640000D02*
X12570000D01*
X12470000D02*
Y2890000D01*
X12570000D01*
X12540000Y4535000D02*
Y4785000D01*
Y4535000D02*
X13039999D01*
Y4785000D01*
X12540000D02*
X13039999D01*
X10960000Y15010001D02*
Y15110001D01*
Y15010001D02*
X11210000D01*
Y15110001D01*
X10960000D02*
X11210000D01*
X10955000Y15160001D02*
Y15260001D01*
Y15160001D02*
X11205000D01*
Y15260001D01*
X10955000D02*
X11205000D01*
X2350000Y13657500D02*
X2469999D01*
X2350000D02*
Y13917500D01*
X2469999D01*
Y13657500D02*
Y13917500D01*
X1950000Y13657500D02*
X2070000D01*
X1950000D02*
Y13917500D01*
X2070000D01*
Y13657500D02*
Y13917500D01*
X1750000Y13657500D02*
X1870000D01*
X1750000D02*
Y13917500D01*
X1870000D01*
Y13657500D02*
Y13917500D01*
X14442500Y8640000D02*
X14702499D01*
X14442500Y8520000D02*
Y8640000D01*
Y8520000D02*
X14702499D01*
Y8640000D01*
X11200000Y8807500D02*
X11320000D01*
X11200000D02*
Y9067500D01*
X11320000D01*
Y8807500D02*
Y9067500D01*
X10570000Y8807500D02*
Y9067500D01*
X10450000D02*
X10570000D01*
X10450000Y8807500D02*
Y9067500D01*
Y8807500D02*
X10570000D01*
X11110000Y7490000D02*
Y7740000D01*
X11210000D01*
Y7490000D02*
Y7740000D01*
X11110000Y7490000D02*
X11210000D01*
X10060000Y10550000D02*
X10310000D01*
X10060000D02*
Y10650000D01*
X10310000D01*
Y10550000D02*
Y10650000D01*
Y10100000D02*
Y10200000D01*
X10060000D02*
X10310000D01*
X10060000Y10100000D02*
Y10200000D01*
Y10100000D02*
X10310000D01*
X1570000Y14130000D02*
X1820000D01*
Y14030000D02*
Y14130000D01*
X1570000Y14030000D02*
X1820000D01*
X1570000D02*
Y14130000D01*
X9600000Y14250000D02*
Y14500000D01*
X9500000Y14250000D02*
X9600000D01*
X9500000D02*
Y14500000D01*
X9600000D01*
X9800000Y14250000D02*
Y14500000D01*
X9700000Y14250000D02*
X9800000D01*
X9700000D02*
Y14500000D01*
X9800000D01*
X9250000Y14250000D02*
Y14500000D01*
X9150000Y14250000D02*
X9250000D01*
X9150000D02*
Y14500000D01*
X9250000D01*
X9050000Y14250000D02*
Y14500000D01*
X8950000Y14250000D02*
X9050000D01*
X8950000D02*
Y14500000D01*
X9050000D01*
X12107502Y10845009D02*
Y10965009D01*
X11847502Y10845009D02*
X12107502D01*
X11847502D02*
Y10965009D01*
X12107502D01*
X11352502Y10855009D02*
X11602502D01*
X11352502D02*
Y10955008D01*
X11602502D01*
Y10855009D02*
Y10955008D01*
X1290000Y14732500D02*
X1410000D01*
Y14472501D02*
Y14732500D01*
X1290000Y14472501D02*
X1410000D01*
X1290000D02*
Y14732500D01*
X1430000Y14732500D02*
X1550000D01*
Y14472501D02*
Y14732500D01*
X1430000Y14472501D02*
X1550000D01*
X1430000D02*
Y14732500D01*
X1140000D02*
X1260000D01*
Y14472501D02*
Y14732500D01*
X1140000Y14472501D02*
X1260000D01*
X1140000D02*
Y14732500D01*
X1560000D02*
X1680000D01*
Y14472501D02*
Y14732500D01*
X1560000Y14472501D02*
X1680000D01*
X1560000D02*
Y14732500D01*
X1140000Y14817500D02*
X1260000D01*
X1140000D02*
Y15077499D01*
X1260000D01*
Y14817500D02*
Y15077499D01*
X1560000Y14817500D02*
X1680000D01*
X1560000D02*
Y15077499D01*
X1680000D01*
Y14817500D02*
Y15077499D01*
X1290000Y14817500D02*
X1410000D01*
X1290000D02*
Y15077499D01*
X1410000D01*
Y14817500D02*
Y15077499D01*
X1430000Y14817500D02*
X1550000D01*
X1430000D02*
Y15077499D01*
X1550000D01*
Y14817500D02*
Y15077499D01*
X12380000Y6852500D02*
Y7112500D01*
Y6852500D02*
X12500000D01*
Y7112500D01*
X12380000D02*
X12500000D01*
X7450010Y10505001D02*
X7710010D01*
Y10625001D01*
X7450010D02*
X7710010D01*
X7450010Y10505001D02*
Y10625001D01*
Y10185000D02*
X7710010D01*
Y10305000D01*
X7450010D02*
X7710010D01*
X7450010Y10185000D02*
Y10305000D01*
X14010001Y13760001D02*
Y14010001D01*
X14110001D01*
Y13760001D02*
Y14010001D01*
X14010001Y13760001D02*
X14110001D01*
X13555000Y4310000D02*
X13805000D01*
X13555000D02*
Y4410000D01*
X13805000D01*
Y4310000D02*
Y4410000D01*
Y4450000D02*
Y4550000D01*
X13555000D02*
X13805000D01*
X13555000Y4450000D02*
Y4550000D01*
Y4450000D02*
X13805000D01*
X13555000Y3160000D02*
X13805000D01*
X13555000D02*
Y3260000D01*
X13805000D01*
Y3160000D02*
Y3260000D01*
Y3590000D02*
Y3690000D01*
X13555000D02*
X13805000D01*
X13555000Y3590000D02*
Y3690000D01*
Y3590000D02*
X13805000D01*
X13555000Y4170000D02*
X13805000D01*
X13555000D02*
Y4270000D01*
X13805000D01*
Y4170000D02*
Y4270000D01*
Y3730000D02*
Y3830000D01*
X13555000D02*
X13805000D01*
X13555000Y3730000D02*
Y3830000D01*
Y3730000D02*
X13805000D01*
X13555000Y3440000D02*
X13805000D01*
X13555000D02*
Y3540000D01*
X13805000D01*
Y3440000D02*
Y3540000D01*
Y3880000D02*
Y3980000D01*
X13555000D02*
X13805000D01*
X13555000Y3880000D02*
Y3980000D01*
Y3880000D02*
X13805000D01*
X13555000Y3300000D02*
X13805000D01*
X13555000D02*
Y3400000D01*
X13805000D01*
Y3300000D02*
Y3400000D01*
Y4020000D02*
Y4120000D01*
X13555000D02*
X13805000D01*
X13555000Y4020000D02*
Y4120000D01*
Y4020000D02*
X13805000D01*
X13555000Y3010000D02*
X13805000D01*
X13555000D02*
Y3110000D01*
X13805000D01*
Y3010000D02*
Y3110000D01*
X11500000Y3560000D02*
X11600000D01*
X11500000Y3310000D02*
Y3560000D01*
Y3310000D02*
X11600000D01*
Y3560000D01*
X10910000D02*
X11010000D01*
X10910000Y3310000D02*
Y3560000D01*
Y3310000D02*
X11010000D01*
Y3560000D01*
X11210000D02*
X11310000D01*
X11210000Y3310000D02*
Y3560000D01*
Y3310000D02*
X11310000D01*
Y3560000D01*
X10910000Y2950000D02*
Y3200000D01*
X11010000D01*
Y2950000D02*
Y3200000D01*
X10910000Y2950000D02*
X11010000D01*
X11790000Y3560000D02*
X11890000D01*
X11790000Y3310000D02*
Y3560000D01*
Y3310000D02*
X11890000D01*
Y3560000D01*
X9355000Y3850000D02*
X9605000D01*
X9355000Y3350000D02*
Y3850000D01*
Y3350000D02*
X9605000D01*
Y3850000D01*
X10080000Y3405000D02*
Y3755000D01*
X9880000Y3405000D02*
X10080000D01*
X9880000D02*
Y3755000D01*
X10080000D01*
X10380000D02*
X10580000D01*
X10380000Y3405000D02*
Y3755000D01*
Y3405000D02*
X10580000D01*
Y3755000D01*
X12200000Y2890000D02*
X12300000D01*
X12200000Y2640000D02*
Y2890000D01*
Y2640000D02*
X12300000D01*
Y2890000D01*
X11600000Y2950000D02*
Y3200000D01*
X11500000Y2950000D02*
X11600000D01*
X11500000D02*
Y3200000D01*
X11600000D01*
X10630000Y3310000D02*
Y3560000D01*
X10730000D01*
Y3310000D02*
Y3560000D01*
X10630000Y3310000D02*
X10730000D01*
X11210000Y3200000D02*
X11310000D01*
X11210000Y2950000D02*
Y3200000D01*
Y2950000D02*
X11310000D01*
Y3200000D01*
X9635000Y3350300D02*
Y3850300D01*
X9885000D01*
Y3350300D02*
Y3850300D01*
X9635000Y3350300D02*
X9885000D01*
X10130000Y3405000D02*
X10330000D01*
Y3755000D01*
X10130000D02*
X10330000D01*
X10130000Y3405000D02*
Y3755000D01*
X13000000Y9032620D02*
X13250000D01*
X13000000D02*
Y9132620D01*
X13250000D01*
Y9032620D02*
Y9132620D01*
Y8867380D02*
Y8967380D01*
X13000000D02*
X13250000D01*
X13000000Y8867380D02*
Y8967380D01*
Y8867380D02*
X13250000D01*
X7585000Y14020000D02*
X7835000D01*
Y14520000D01*
X7585000D02*
X7835000D01*
X7585000Y14020000D02*
Y14520000D01*
X7325000Y14020000D02*
Y14520000D01*
X7575000D01*
Y14020000D02*
Y14520000D01*
X7325000Y14020000D02*
X7575000D01*
X8085000D02*
X8335000D01*
Y14520000D01*
X8085000D02*
X8335000D01*
X8085000Y14020000D02*
Y14520000D01*
X7860000Y14014999D02*
Y14364999D01*
X8060000D01*
Y14014999D02*
Y14364999D01*
X7860000Y14014999D02*
X8060000D01*
X11165000Y14039999D02*
Y14539999D01*
X11415000D01*
Y14039999D02*
Y14539999D01*
X11165000Y14039999D02*
X11415000D01*
X11450000Y14110001D02*
Y14360001D01*
X11550000D01*
Y14110001D02*
Y14360001D01*
X11450000Y14110001D02*
X11550000D01*
X11600000D02*
X11700000D01*
Y14360001D01*
X11600000D02*
X11700000D01*
X11600000Y14110001D02*
Y14360001D01*
X11715000Y14039999D02*
X11965000D01*
Y14539999D01*
X11715000D02*
X11965000D01*
X11715000Y14039999D02*
Y14539999D01*
X11307499Y15132500D02*
X11807499D01*
X11307499D02*
Y15382500D01*
X11807499D01*
Y15132500D02*
Y15382500D01*
X3780000Y8060000D02*
Y8310000D01*
X3680000Y8060000D02*
X3780000D01*
X3680000D02*
Y8310000D01*
X3780000D01*
X8360000Y10195000D02*
Y10295000D01*
X8110000D02*
X8360000D01*
X8110000Y10195000D02*
Y10295000D01*
Y10195000D02*
X8360000D01*
X9910000Y10510000D02*
X10010000D01*
X9910000Y10260000D02*
Y10510000D01*
Y10260000D02*
X10010000D01*
Y10510000D01*
X8110000Y10515001D02*
X8360000D01*
X8110000D02*
Y10615001D01*
X8360000D01*
Y10515001D02*
Y10615001D01*
X7280000Y13235001D02*
Y13485001D01*
Y13235001D02*
X7780000D01*
Y13485001D01*
X7280000D02*
X7780000D01*
X7510000Y13160001D02*
X7760000D01*
Y13060001D02*
Y13160001D01*
X7510000Y13060001D02*
X7760000D01*
X7510000D02*
Y13160001D01*
X7910000Y13235001D02*
X8410000D01*
X7910000D02*
Y13485001D01*
X8410000D01*
Y13235001D02*
Y13485001D01*
X8210000Y13060001D02*
Y13160001D01*
X7960000D02*
X8210000D01*
X7960000Y13060001D02*
Y13160001D01*
Y13060001D02*
X8210000D01*
X11525000Y13359998D02*
X11725000D01*
X11525000Y13009998D02*
Y13359998D01*
Y13009998D02*
X11725000D01*
Y13359998D01*
X11430000Y13029997D02*
Y13279997D01*
X11330000Y13029997D02*
X11430000D01*
X11330000D02*
Y13279997D01*
X11430000D01*
X10307500Y12410000D02*
X10657500D01*
Y12210000D02*
Y12410000D01*
X10307500Y12210000D02*
X10657500D01*
X10307500D02*
Y12410000D01*
X10932500Y11145000D02*
X11182500D01*
Y11645000D01*
X10932500D02*
X11182500D01*
X10932500Y11145000D02*
Y11645000D01*
X12690000Y12130000D02*
Y12230000D01*
X12440000D02*
X12690000D01*
X12440000Y12130000D02*
Y12230000D01*
Y12130000D02*
X12690000D01*
X10322501Y12130000D02*
X10572501D01*
Y12030000D02*
Y12130000D01*
X10322501Y12030000D02*
X10572501D01*
X10322501D02*
Y12130000D01*
X12759999Y12889999D02*
Y13089999D01*
X12409999D02*
X12759999D01*
X12409999Y12889999D02*
Y13089999D01*
Y12889999D02*
X12759999D01*
X10305000Y11680000D02*
X10655000D01*
Y11480000D02*
Y11680000D01*
X10305000Y11480000D02*
X10655000D01*
X10305000D02*
Y11680000D01*
X10322501Y11990000D02*
X10572501D01*
Y11890000D02*
Y11990000D01*
X10322501Y11890000D02*
X10572501D01*
X10322501D02*
Y11990000D01*
X8619996Y12155000D02*
Y12255000D01*
Y12155000D02*
X8869996D01*
Y12255000D01*
X8619996D02*
X8869996D01*
X8619996Y12455004D02*
X8869996D01*
Y12355004D02*
Y12455004D01*
X8619996Y12355004D02*
X8869996D01*
X8619996D02*
Y12455004D01*
X12750000Y12715000D02*
X12950000D01*
X12750000Y12365000D02*
Y12715000D01*
Y12365000D02*
X12950000D01*
Y12715000D01*
X12690000Y12320000D02*
Y12420000D01*
X12440000D02*
X12690000D01*
X12440000Y12320000D02*
Y12420000D01*
Y12320000D02*
X12690000D01*
X11920000Y11735000D02*
Y11985000D01*
X12020000D01*
Y11735000D02*
Y11985000D01*
X11920000Y11735000D02*
X12020000D01*
X2950000Y14830000D02*
X3200000D01*
X2950000D02*
Y14930000D01*
X3200000D01*
Y14830000D02*
Y14930000D01*
Y14980000D02*
Y15080000D01*
X2950000D02*
X3200000D01*
X2950000Y14980000D02*
Y15080000D01*
Y14980000D02*
X3200000D01*
X2860000Y14780000D02*
X3210000D01*
Y14580000D02*
Y14780000D01*
X2860000Y14580000D02*
X3210000D01*
X2860000D02*
Y14780000D01*
X2750000Y14555000D02*
X3250000D01*
Y14305000D02*
Y14555000D01*
X2750000Y14305000D02*
X3250000D01*
X2750000D02*
Y14555000D01*
X13389999Y6862500D02*
Y7112500D01*
X13489999D01*
Y6862500D02*
Y7112500D01*
X13389999Y6862500D02*
X13489999D01*
X13239999D02*
X13339999D01*
Y7112500D01*
X13239999D02*
X13339999D01*
X13239999Y6862500D02*
Y7112500D01*
X11710000Y7490000D02*
Y7740000D01*
X11810000D01*
Y7490000D02*
Y7740000D01*
X11710000Y7490000D02*
X11810000D01*
X10540000D02*
Y7740000D01*
X10640000D01*
Y7490000D02*
Y7740000D01*
X10540000Y7490000D02*
X10640000D01*
X11950000Y4400000D02*
X12050000D01*
X11950000Y4150000D02*
Y4400000D01*
Y4150000D02*
X12050000D01*
Y4400000D01*
X13299998Y3342500D02*
Y3592500D01*
X13399998D01*
Y3342500D02*
Y3592500D01*
X13299998Y3342500D02*
X13399998D01*
X12790000Y5660000D02*
Y5760000D01*
Y5660000D02*
X13039999D01*
Y5760000D01*
X12790000D02*
X13039999D01*
X13160001Y5660000D02*
X13410001D01*
X13160001D02*
Y5760000D01*
X13410001D01*
Y5660000D02*
Y5760000D01*
X12540000Y4905000D02*
Y5155000D01*
Y4905000D02*
X13039999D01*
Y5155000D01*
X12540000D02*
X13039999D01*
X12270000Y3342500D02*
X12370000D01*
Y3592500D01*
X12270000D02*
X12370000D01*
X12270000Y3342500D02*
Y3592500D01*
X12544285Y3342500D02*
Y3592500D01*
X12644285D01*
Y3342500D02*
Y3592500D01*
X12544285Y3342500D02*
X12644285D01*
X8000000Y7465000D02*
Y7715000D01*
X7500000D02*
X8000000D01*
X7500000Y7465000D02*
Y7715000D01*
Y7465000D02*
X8000000D01*
X7845000Y7830000D02*
Y7930000D01*
X7595000D02*
X7845000D01*
X7595000Y7830000D02*
Y7930000D01*
Y7830000D02*
X7845000D01*
X7907380Y6822500D02*
Y7072500D01*
X7807380Y6822500D02*
X7907380D01*
X7807380D02*
Y7072500D01*
X7907380D01*
X7500000Y7205000D02*
X8000000D01*
X7500000D02*
Y7455000D01*
X8000000D01*
Y7205000D02*
Y7455000D01*
X7970000Y6327500D02*
X8070000D01*
Y6577500D01*
X7970000D02*
X8070000D01*
X7970000Y6327500D02*
Y6577500D01*
X12010002Y15040001D02*
Y15464999D01*
X12650000D01*
Y15040001D02*
Y15464999D01*
X12010002Y15040001D02*
X12650000D01*
X5380000Y12130000D02*
X5479999D01*
X5430000Y12080000D02*
Y12180000D01*
X5188000Y12050000D02*
X5680000D01*
X5188000D02*
Y12210000D01*
X5680000D01*
X5705000Y12075000D02*
Y12185000D01*
X5680000Y12050000D02*
X5705000Y12075000D01*
X5680000Y12210000D02*
X5705000Y12185000D01*
X5680000Y12075000D02*
Y12185000D01*
X7185000Y9900000D02*
X7295000D01*
Y9875000D02*
X7320000Y9900000D01*
X7160000D02*
X7185000Y9875000D01*
X7295000D01*
X7320000Y9900000D02*
Y10392000D01*
X7160000D02*
X7320000D01*
X7160000Y9900000D02*
Y10392000D01*
X7190000Y10150001D02*
X7290000D01*
X7240000Y10100001D02*
Y10200000D01*
X5380000Y12310000D02*
X5480000D01*
X5430000Y12260000D02*
Y12360000D01*
X5180000Y12390000D02*
X5672000D01*
Y12230000D02*
Y12390000D01*
X5180000Y12230000D02*
X5672000D01*
X5155000Y12255000D02*
Y12365000D01*
X5180000Y12390000D01*
X5155000Y12255000D02*
X5180000Y12230000D01*
Y12255000D02*
Y12365000D01*
X3860000Y7645000D02*
Y7755000D01*
Y7780000D02*
X3885000Y7755000D01*
X3860000Y7620000D02*
X3885000Y7645000D01*
Y7755000D01*
X3368000Y7780000D02*
X3860000D01*
X3368000Y7620000D02*
Y7780000D01*
Y7620000D02*
X3860000D01*
X3610000Y7650000D02*
Y7750000D01*
X3560000Y7700000D02*
X3660000D01*
X7240000Y10600000D02*
Y10700000D01*
X7190000Y10650000D02*
X7290000D01*
X7320000Y10408000D02*
Y10900000D01*
X7160000Y10408000D02*
X7320000D01*
X7160000D02*
Y10900000D01*
X7185000Y10925000D02*
X7295000D01*
X7320000Y10900000D01*
X7160000D02*
X7185000Y10925000D01*
Y10900000D02*
X7295000D01*
X4360000Y8292500D02*
Y8402500D01*
Y8427500D02*
X4385000Y8402500D01*
X4360000Y8267500D02*
X4385000Y8292500D01*
Y8402500D01*
X3868000Y8427500D02*
X4360000D01*
X3868000Y8267500D02*
Y8427500D01*
Y8267500D02*
X4360000D01*
X4110000Y8297500D02*
Y8397500D01*
X4060000Y8347500D02*
X4160000D01*
X5380000Y12830000D02*
X5479999D01*
X5430000Y12780000D02*
Y12880000D01*
X5188000Y12750000D02*
X5680000D01*
X5188000D02*
Y12910001D01*
X5680000D01*
X5705000Y12775000D02*
Y12885001D01*
X5680000Y12750000D02*
X5705000Y12775000D01*
X5680000Y12910001D02*
X5705000Y12885001D01*
X5680000Y12775000D02*
Y12885001D01*
X5180000Y12595000D02*
Y12705000D01*
X5155000Y12595000D02*
X5180000Y12570000D01*
X5155000Y12705000D02*
X5180000Y12730000D01*
X5155000Y12595000D02*
Y12705000D01*
X5180000Y12570000D02*
X5672000D01*
Y12730000D01*
X5180000D02*
X5672000D01*
X5430000Y12600000D02*
Y12700000D01*
X5380000Y12650000D02*
X5480000D01*
X12557498Y6745001D02*
X12722501D01*
X12640002Y6590005D02*
Y6690005D01*
X12590000Y6640003D02*
X12690000D01*
X12722501Y6534999D02*
Y6742502D01*
X12557498Y6534999D02*
X12722501D01*
X12557498D02*
Y6745001D01*
X12974995Y11135000D02*
X13294299D01*
X13294997Y11135701D02*
Y12560003D01*
X12974995D02*
X12974995Y11135000D01*
X12974995Y12560003D02*
X13294997D01*
X11862499Y14610001D02*
Y15030000D01*
X11322499Y14610001D02*
X11862499D01*
X11322499D02*
Y15030000D01*
X11862499D01*
X9385001Y10400001D02*
X9534998D01*
X9460002Y10325000D02*
Y10475002D01*
X10297499Y12479998D02*
Y12620002D01*
X10617499D01*
Y12479998D02*
Y12620002D01*
X10297499Y12479998D02*
X10617499D01*
X11809999Y13009998D02*
X11949999D01*
X11809999D02*
Y13330002D01*
X11949999D01*
Y13009998D02*
Y13330002D01*
X12740000Y12479998D02*
Y12620002D01*
X12420000Y12479998D02*
X12740000D01*
X12420000D02*
Y12620002D01*
X12740000D01*
X13260001Y5237500D02*
Y5497500D01*
X13139999D02*
X13260001D01*
X13139999Y5237500D02*
Y5497500D01*
Y5237500D02*
X13260001D01*
X12930000D02*
X13050000D01*
X12930000D02*
Y5497500D01*
X13050000D01*
Y5237500D02*
Y5497500D01*
X7582500Y8280000D02*
X7842500D01*
X7582500Y8160000D02*
Y8280000D01*
Y8160000D02*
X7842500D01*
Y8280000D01*
X11567500Y6980000D02*
X11947500D01*
Y7240000D01*
X11567500D02*
X11947500D01*
X11567500Y6980000D02*
Y7240000D01*
X11237500Y6750000D02*
Y7010000D01*
X11617500D01*
Y6750000D02*
Y7010000D01*
X11237500Y6750000D02*
X11617500D01*
X11237500Y5200000D02*
Y5460000D01*
X11617500D01*
Y5200000D02*
Y5460000D01*
X11237500Y5200000D02*
X11617500D01*
X4240000Y8457500D02*
Y8837500D01*
X3980000D02*
X4240000D01*
X3980000Y8457500D02*
Y8837500D01*
Y8457500D02*
X4240000D01*
X12267500Y4200000D02*
Y4460000D01*
X12647500D01*
Y4200000D02*
Y4460000D01*
X12267500Y4200000D02*
X12647500D01*
X12267500Y3700000D02*
X12647500D01*
Y3960000D01*
X12267500D02*
X12647500D01*
X12267500Y3700000D02*
Y3960000D01*
X13129997Y5889999D02*
Y6200001D01*
X13570003D01*
Y5889999D02*
Y6200001D01*
X13129997Y5889999D02*
X13570003D01*
X11807500Y3700000D02*
Y3960000D01*
X12187500D01*
Y3700000D02*
Y3960000D01*
X11807500Y3700000D02*
X12187500D01*
X7347500Y6800000D02*
X7727500D01*
Y7060000D01*
X7347500D02*
X7727500D01*
X7347500Y6800000D02*
Y7060000D01*
X7722500Y6370000D02*
Y6630000D01*
X7342500Y6370000D02*
X7722500D01*
X7342500D02*
Y6630000D01*
X7722500D01*
X11032500Y7070000D02*
Y7190000D01*
X10772500Y7070000D02*
X11032500D01*
X10772500D02*
Y7190000D01*
X11032500D01*
X12120000Y7102500D02*
Y7362500D01*
X12000000D02*
X12120000D01*
X12000000Y7102500D02*
Y7362500D01*
Y7102500D02*
X12120000D01*
X11127500Y7070000D02*
Y7190000D01*
X11387500D01*
Y7070000D02*
Y7190000D01*
X11127500Y7070000D02*
X11387500D01*
X11790000Y6377500D02*
Y6637500D01*
X11670000D02*
X11790000D01*
X11670000Y6377500D02*
Y6637500D01*
Y6377500D02*
X11790000D01*
X10142500Y8110000D02*
Y8230000D01*
X9882500Y8110000D02*
X10142500D01*
X9882500D02*
Y8230000D01*
X10142500D01*
X11790000Y5977500D02*
Y6237500D01*
X11670000D02*
X11790000D01*
X11670000Y5977500D02*
Y6237500D01*
Y5977500D02*
X11790000D01*
X11670000Y5577500D02*
X11790000D01*
X11670000D02*
Y5837500D01*
X11790000D01*
Y5577500D02*
Y5837500D01*
X10247500Y6290000D02*
X10507500D01*
Y6410000D01*
X10247500D02*
X10507500D01*
X10247500Y6290000D02*
Y6410000D01*
X11670000Y5177500D02*
X11790000D01*
X11670000D02*
Y5437500D01*
X11790000D01*
Y5177500D02*
Y5437500D01*
X8642500Y4310000D02*
X8902500D01*
X8642500Y4190001D02*
Y4310000D01*
Y4190001D02*
X8902500D01*
Y4310000D01*
X9050000Y5927500D02*
X9170000D01*
X9050000D02*
Y6187500D01*
X9170000D01*
Y5927500D02*
Y6187500D01*
X9470000Y6742500D02*
Y7002500D01*
Y6742500D02*
X9590000D01*
Y7002500D01*
X9470000D02*
X9590000D01*
X8902500Y4340000D02*
Y4460000D01*
X8642500Y4340000D02*
X8902500D01*
X8642500D02*
Y4460000D01*
X8902500D01*
X8642500Y4630000D02*
X8902500D01*
X8642500Y4510000D02*
Y4630000D01*
Y4510000D02*
X8902500D01*
Y4630000D01*
X9230000Y5927500D02*
X9350000D01*
X9230000D02*
Y6187500D01*
X9350000D01*
Y5927500D02*
Y6187500D01*
X9670000Y6742500D02*
Y7002500D01*
Y6742500D02*
X9790000D01*
Y7002500D01*
X9670000D02*
X9790000D01*
X8902500Y4690001D02*
Y4810000D01*
X8642500Y4690001D02*
X8902500D01*
X8642500D02*
Y4810000D01*
X8902500D01*
X9530000Y5927500D02*
Y6187500D01*
X9410000D02*
X9530000D01*
X9410000Y5927500D02*
Y6187500D01*
Y5927500D02*
X9530000D01*
X8902500Y4840000D02*
Y4960000D01*
X8642500Y4840000D02*
X8902500D01*
X8642500D02*
Y4960000D01*
X8902500D01*
X10070000Y4677500D02*
Y4937500D01*
X9950000D02*
X10070000D01*
X9950000Y4677500D02*
Y4937500D01*
Y4677500D02*
X10070000D01*
X9890000Y7002500D02*
X10010000D01*
Y6742500D02*
Y7002500D01*
X9890000Y6742500D02*
X10010000D01*
X9890000D02*
Y7002500D01*
X8642500Y5130000D02*
X8902500D01*
X8642500Y5010000D02*
Y5130000D01*
Y5010000D02*
X8902500D01*
Y5130000D01*
Y5190001D02*
Y5310000D01*
X8642500Y5190001D02*
X8902500D01*
X8642500D02*
Y5310000D01*
X8902500D01*
X10250000Y4677500D02*
Y4937500D01*
X10130000D02*
X10250000D01*
X10130000Y4677500D02*
Y4937500D01*
Y4677500D02*
X10250000D01*
X10120000Y7002500D02*
X10240000D01*
Y6742500D02*
Y7002500D01*
X10120000Y6742500D02*
X10240000D01*
X10120000D02*
Y7002500D01*
X8642500Y5460000D02*
X8902500D01*
X8642500Y5340000D02*
Y5460000D01*
Y5340000D02*
X8902500D01*
Y5460000D01*
Y5510000D02*
Y5630000D01*
X8642500Y5510000D02*
X8902500D01*
X8642500D02*
Y5630000D01*
X8902500D01*
X10429999Y4677500D02*
Y4937500D01*
X10310000D02*
X10429999D01*
X10310000Y4677500D02*
Y4937500D01*
Y4677500D02*
X10429999D01*
X10320000Y7002500D02*
X10440000D01*
Y6742500D02*
Y7002500D01*
X10320000Y6742500D02*
X10440000D01*
X10320000D02*
Y7002500D01*
X8642500Y5800000D02*
X8902500D01*
X8642500Y5680000D02*
Y5800000D01*
Y5680000D02*
X8902500D01*
Y5800000D01*
Y5840001D02*
Y5960000D01*
X8642500Y5840001D02*
X8902500D01*
X8642500D02*
Y5960000D01*
X8902500D01*
X10610000Y4677500D02*
Y4937500D01*
X10490000D02*
X10610000D01*
X10490000Y4677500D02*
Y4937500D01*
Y4677500D02*
X10610000D01*
X10540000Y7002500D02*
X10660000D01*
Y6742500D02*
Y7002500D01*
X10540000Y6742500D02*
X10660000D01*
X10540000D02*
Y7002500D01*
X8642500Y6130000D02*
X8902500D01*
X8642500Y6010000D02*
Y6130000D01*
Y6010000D02*
X8902500D01*
Y6130000D01*
Y6180000D02*
Y6300000D01*
X8642500Y6180000D02*
X8902500D01*
X8642500D02*
Y6300000D01*
X8902500D01*
X10722500Y5297500D02*
Y5557500D01*
Y5297500D02*
X10842500D01*
Y5557500D01*
X10722500D02*
X10842500D01*
X10770000Y7002500D02*
X10890000D01*
Y6742500D02*
Y7002500D01*
X10770000Y6742500D02*
X10890000D01*
X10770000D02*
Y7002500D01*
X8642500Y6460000D02*
X8902500D01*
X8642500Y6340001D02*
Y6460000D01*
Y6340001D02*
X8902500D01*
Y6460000D01*
Y6510000D02*
Y6630000D01*
X8642500Y6510000D02*
X8902500D01*
X8642500D02*
Y6630000D01*
X8902500D01*
X10542500Y5297500D02*
Y5557500D01*
Y5297500D02*
X10662500D01*
Y5557500D01*
X10542500D02*
X10662500D01*
X10970000Y7002500D02*
X11090000D01*
Y6742500D02*
Y7002500D01*
X10970000Y6742500D02*
X11090000D01*
X10970000D02*
Y7002500D01*
X8642500Y6780000D02*
X8902500D01*
X8642500Y6660000D02*
Y6780000D01*
Y6660000D02*
X8902500D01*
Y6780000D01*
X12912500Y9020000D02*
Y9140000D01*
X12652500Y9020000D02*
X12912500D01*
X12652500D02*
Y9140000D01*
X12912500D01*
X12652500Y8980000D02*
X12912500D01*
X12652500Y8860000D02*
Y8980000D01*
Y8860000D02*
X12912500D01*
Y8980000D01*
X14442500Y8500000D02*
X14702499D01*
X14442500Y8380000D02*
Y8500000D01*
Y8380000D02*
X14702499D01*
Y8500000D01*
X12002500Y14347501D02*
X12262500D01*
Y14467500D01*
X12002500D02*
X12262500D01*
X12002500Y14347501D02*
Y14467500D01*
X12822501Y14837502D02*
Y15097501D01*
X12702501D02*
X12822501D01*
X12702501Y14837502D02*
Y15097501D01*
Y14837502D02*
X12822501D01*
X12702501Y14552499D02*
X12822501D01*
X12702501D02*
Y14812500D01*
X12822501D01*
Y14552499D02*
Y14812500D01*
X4287500Y9950000D02*
Y10070000D01*
X4547500D01*
Y9950000D02*
Y10070000D01*
X4287500Y9950000D02*
X4547500D01*
X3522500Y7950000D02*
X3782500D01*
X3522500Y7830000D02*
Y7950000D01*
Y7830000D02*
X3782500D01*
Y7950000D01*
X4542500Y9800000D02*
Y9920000D01*
X4282500Y9800000D02*
X4542500D01*
X4282500D02*
Y9920000D01*
X4542500D01*
X4450000Y8132500D02*
Y8392500D01*
Y8132500D02*
X4570000D01*
Y8392500D01*
X4450000D02*
X4570000D01*
X2712500Y8690000D02*
Y8810000D01*
X2972500D01*
Y8690000D02*
Y8810000D01*
X2712500Y8690000D02*
X2972500D01*
X7797500Y10185000D02*
X8057500D01*
Y10305000D01*
X7797500D02*
X8057500D01*
X7797500Y10185000D02*
Y10305000D01*
X10040000Y10512500D02*
X10160000D01*
Y10252500D02*
Y10512500D01*
X10040000Y10252500D02*
X10160000D01*
X10040000D02*
Y10512500D01*
X7797500Y10505001D02*
X8057500D01*
Y10625001D01*
X7797500D02*
X8057500D01*
X7797500Y10505001D02*
Y10625001D01*
X8112500Y11790000D02*
Y11910000D01*
X7852500Y11790000D02*
X8112500D01*
X7852500D02*
Y11910000D01*
X8112500D01*
X7562500Y11790000D02*
X7822500D01*
Y11910000D01*
X7562500D02*
X7822500D01*
X7562500Y11790000D02*
Y11910000D01*
X13852499Y8510000D02*
Y8630000D01*
X13592500Y8510000D02*
X13852499D01*
X13592500D02*
Y8630000D01*
X13852499D01*
X9872500Y13360001D02*
X10132500D01*
X9872500Y13239999D02*
Y13360001D01*
Y13239999D02*
X10132500D01*
Y13360001D01*
Y13060001D02*
Y13180000D01*
X9872500Y13060001D02*
X10132500D01*
X9872500D02*
Y13180000D01*
X10132500D01*
X9872500Y12989999D02*
X10132500D01*
X9872500Y12870000D02*
Y12989999D01*
Y12870000D02*
X10132500D01*
Y12989999D01*
Y12680000D02*
Y12800000D01*
X9872500Y12680000D02*
X10132500D01*
X9872500D02*
Y12800000D01*
X10132500D01*
X9872500Y12620000D02*
X10132500D01*
X9872500Y12500000D02*
Y12620000D01*
Y12500000D02*
X10132500D01*
Y12620000D01*
Y12310000D02*
Y12430000D01*
X9872500Y12310000D02*
X10132500D01*
X9872500D02*
Y12430000D01*
X10132500D01*
X9872500Y12250000D02*
X10132500D01*
X9872500Y12130000D02*
Y12250000D01*
Y12130000D02*
X10132500D01*
Y12250000D01*
Y11940000D02*
Y12060000D01*
X9872500Y11940000D02*
X10132500D01*
X9872500D02*
Y12060000D01*
X10132500D01*
X9872500Y11870000D02*
X10132500D01*
X9872500Y11750000D02*
Y11870000D01*
Y11750000D02*
X10132500D01*
Y11870000D01*
Y11570000D02*
Y11690000D01*
X9872500Y11570000D02*
X10132500D01*
X9872500D02*
Y11690000D01*
X10132500D01*
X9872500Y11500000D02*
X10132500D01*
X9872500Y11380000D02*
Y11500000D01*
Y11380000D02*
X10132500D01*
Y11500000D01*
Y11200000D02*
Y11320000D01*
X9872500Y11200000D02*
X10132500D01*
X9872500D02*
Y11320000D01*
X10132500D01*
X13592500Y8820000D02*
X13852499D01*
X13592500Y8700000D02*
Y8820000D01*
Y8700000D02*
X13852499D01*
Y8820000D01*
X9762500Y13239999D02*
Y13360001D01*
X9502500Y13239999D02*
X9762500D01*
X9502500D02*
Y13360001D01*
X9762500D01*
X9502500Y13180000D02*
X9762500D01*
X9502500Y13060001D02*
Y13180000D01*
Y13060001D02*
X9762500D01*
Y13180000D01*
Y12870000D02*
Y12989999D01*
X9502500Y12870000D02*
X9762500D01*
X9502500D02*
Y12989999D01*
X9762500D01*
X9502500Y12800000D02*
X9762500D01*
X9502500Y12680000D02*
Y12800000D01*
Y12680000D02*
X9762500D01*
Y12800000D01*
Y12500000D02*
Y12620000D01*
X9502500Y12500000D02*
X9762500D01*
X9502500D02*
Y12620000D01*
X9762500D01*
X9502500Y12430000D02*
X9762500D01*
X9502500Y12310000D02*
Y12430000D01*
Y12310000D02*
X9762500D01*
Y12430000D01*
Y12130000D02*
Y12250000D01*
X9502500Y12130000D02*
X9762500D01*
X9502500D02*
Y12250000D01*
X9762500D01*
X9502500Y12060000D02*
X9762500D01*
X9502500Y11940000D02*
Y12060000D01*
Y11940000D02*
X9762500D01*
Y12060000D01*
Y11750000D02*
Y11870000D01*
X9502500Y11750000D02*
X9762500D01*
X9502500D02*
Y11870000D01*
X9762500D01*
X9502500Y11690000D02*
X9762500D01*
X9502500Y11570000D02*
Y11690000D01*
Y11570000D02*
X9762500D01*
Y11690000D01*
Y11380000D02*
Y11500000D01*
X9502500Y11380000D02*
X9762500D01*
X9502500D02*
Y11500000D01*
X9762500D01*
X9502500Y11320000D02*
X9762500D01*
X9502500Y11200000D02*
Y11320000D01*
Y11200000D02*
X9762500D01*
Y11320000D01*
X11400000Y11097500D02*
X11520000D01*
X11400000D02*
Y11357500D01*
X11520000D01*
Y11097500D02*
Y11357500D01*
X13242500Y6657379D02*
X13502499D01*
Y6777379D01*
X13242500D02*
X13502499D01*
X13242500Y6657379D02*
Y6777379D01*
X12570000Y7112500D02*
X12690000D01*
Y6852500D02*
Y7112500D01*
X12570000Y6852500D02*
X12690000D01*
X12570000D02*
Y7112500D01*
X12350000Y6852500D02*
Y7112500D01*
X12230000D02*
X12350000D01*
X12230000Y6852500D02*
Y7112500D01*
Y6852500D02*
X12350000D01*
X12380000Y6632500D02*
X12500000D01*
Y6372500D02*
Y6632500D01*
X12380000Y6372500D02*
X12500000D01*
X12380000D02*
Y6632500D01*
X11702502Y3682500D02*
Y3942500D01*
X11582502D02*
X11702502D01*
X11582502Y3682500D02*
Y3942500D01*
Y3682500D02*
X11702502D01*
X11660000Y8227500D02*
X11780000D01*
X11660000D02*
Y8487500D01*
X11780000D01*
Y8227500D02*
Y8487500D01*
X7440000Y5352500D02*
Y5612500D01*
Y5352500D02*
X7560000D01*
Y5612500D01*
X7440000D02*
X7560000D01*
X7300000D02*
X7420000D01*
Y5352500D02*
Y5612500D01*
X7300000Y5352500D02*
X7420000D01*
X7300000D02*
Y5612500D01*
X7160000Y5352500D02*
Y5612500D01*
Y5352500D02*
X7280000D01*
Y5612500D01*
X7160000D02*
X7280000D01*
X7020000D02*
X7140000D01*
Y5352500D02*
Y5612500D01*
X7020000Y5352500D02*
X7140000D01*
X7020000D02*
Y5612500D01*
X6870000Y5352500D02*
Y5612500D01*
Y5352500D02*
X6990000D01*
Y5612500D01*
X6870000D02*
X6990000D01*
X6730000D02*
X6850000D01*
Y5352500D02*
Y5612500D01*
X6730000Y5352500D02*
X6850000D01*
X6730000D02*
Y5612500D01*
X6450000Y5352500D02*
Y5612500D01*
Y5352500D02*
X6570000D01*
Y5612500D01*
X6450000D02*
X6570000D01*
X6590000D02*
X6710000D01*
Y5352500D02*
Y5612500D01*
X6590000Y5352500D02*
X6710000D01*
X6590000D02*
Y5612500D01*
X10680000Y7482500D02*
Y7742500D01*
Y7482500D02*
X10800000D01*
Y7742500D01*
X10680000D02*
X10800000D01*
X11800000Y4147500D02*
X11920000D01*
X11800000D02*
Y4407500D01*
X11920000D01*
Y4147500D02*
Y4407500D01*
X12630000Y3977500D02*
Y4237500D01*
Y3977500D02*
X12750000D01*
Y4237500D01*
X12630000D02*
X12750000D01*
X12674048Y3602500D02*
X12794048D01*
Y3342500D02*
Y3602500D01*
X12674048Y3342500D02*
X12794048D01*
X12674048D02*
Y3602500D01*
X13450000Y5782500D02*
X13570000D01*
Y5522500D02*
Y5782500D01*
X13450000Y5522500D02*
X13570000D01*
X13450000D02*
Y5782500D01*
X12399763Y3342500D02*
Y3602500D01*
Y3342500D02*
X12519762D01*
Y3602500D01*
X12399763D02*
X12519762D01*
X13062500Y5980000D02*
Y6100000D01*
X12802499Y5980000D02*
X13062500D01*
X12802499D02*
Y6100000D01*
X13062500D01*
X13152499Y5650000D02*
X13412500D01*
X13152499Y5530000D02*
Y5650000D01*
Y5530000D02*
X13412500D01*
Y5650000D01*
X7437380Y7280000D02*
Y7400000D01*
X7177380Y7280000D02*
X7437380D01*
X7177380D02*
Y7400000D01*
X7437380D01*
X7290000Y6822500D02*
Y7082500D01*
X7170000D02*
X7290000D01*
X7170000Y6822500D02*
Y7082500D01*
Y6822500D02*
X7290000D01*
X7810000Y6327500D02*
X7930000D01*
X7810000D02*
Y6587500D01*
X7930000D01*
Y6327500D02*
Y6587500D01*
X7582500Y8090000D02*
X7842500D01*
X7582500Y7970000D02*
Y8090000D01*
Y7970000D02*
X7842500D01*
Y8090000D01*
X12312620Y5017500D02*
X12432620D01*
Y4757500D02*
Y5017500D01*
X12312620Y4757500D02*
X12432620D01*
X12312620D02*
Y5017500D01*
X11665000Y11097500D02*
Y11357500D01*
X11545000D02*
X11665000D01*
X11545000Y11097500D02*
Y11357500D01*
Y11097500D02*
X11665000D01*
X11690000D02*
X11810000D01*
X11690000D02*
Y11357500D01*
X11810000D01*
Y11097500D02*
Y11357500D01*
X1570000Y14289999D02*
X1830000D01*
X1570000Y14170000D02*
Y14289999D01*
Y14170000D02*
X1830000D01*
Y14289999D01*
X2549999Y13657500D02*
X2669999D01*
X2549999D02*
Y13917500D01*
X2669999D01*
Y13657500D02*
Y13917500D01*
X5727500Y12380000D02*
X5987500D01*
X5727500Y12260000D02*
Y12380000D01*
Y12260000D02*
X5987500D01*
Y12380000D01*
Y12590000D02*
Y12710000D01*
X5727500Y12590000D02*
X5987500D01*
X5727500D02*
Y12710000D01*
X5987500D01*
X2270000Y13657500D02*
Y13917500D01*
X2150000D02*
X2270000D01*
X2150000Y13657500D02*
Y13917500D01*
Y13657500D02*
X2270000D01*
X10750001Y6350000D02*
X10850001D01*
X10799998Y6299997D02*
Y6400002D01*
X12769502Y7464902D02*
Y7795102D01*
X13150502Y7464902D02*
Y7795102D01*
X12769502Y7464902D02*
X13150502D01*
X12769502Y7795102D02*
X13150502D01*
X12910001Y7630002D02*
X13010001D01*
X12960002Y7579999D02*
Y7679999D01*
X6970000Y14022501D02*
Y14402499D01*
Y14022501D02*
X7230000D01*
Y14402499D01*
X6970000D02*
X7230000D01*
X12004998Y14764999D02*
X12297515D01*
X12299999Y14615002D02*
Y14764999D01*
X12004998Y14615002D02*
X12297515D01*
X11999999D02*
Y14764999D01*
X7760003Y12389999D02*
X7860002D01*
X7810000Y12340001D02*
Y12440001D01*
X12675002Y11210001D02*
X12924998D01*
Y11555005D01*
X12675002D02*
X12924998D01*
X12675002Y11210001D02*
Y11555005D01*
X12325002Y11210001D02*
X12574998D01*
Y11555005D01*
X12325002D02*
X12574998D01*
X12325002Y11210001D02*
Y11555005D01*
X10960000Y11770000D02*
X12040000D01*
X10960000Y12850000D02*
X12040000D01*
Y11770000D02*
Y12850000D01*
X10960000Y11770000D02*
Y12850000D01*
X11500000Y12260000D02*
Y12360000D01*
X11450000Y12310000D02*
X11550000D01*
X13060001Y4049999D02*
Y4149999D01*
X13009998Y4100001D02*
X13109998D01*
X7434899Y8599499D02*
X7765099D01*
X7434899Y8980499D02*
X7765099D01*
Y8599499D02*
Y8980499D01*
X7434899Y8599499D02*
Y8980499D01*
X7599999Y8740001D02*
Y8840001D01*
X7550002Y8789999D02*
X7650002D01*
X12899998Y6880002D02*
X13119998D01*
X12899998D02*
Y7220001D01*
X13119998D01*
Y6880002D02*
Y7220001D01*
X12357502Y10855008D02*
X12607502D01*
X12357502D02*
Y10955008D01*
X12607502D01*
Y10855008D02*
Y10955008D01*
X13845000Y2780000D02*
Y2980000D01*
X13495000D02*
X13845000D01*
X13495000Y2780000D02*
Y2980000D01*
Y2780000D02*
X13845000D01*
X13420000Y2515000D02*
X13920000D01*
X13420000D02*
Y2765000D01*
X13920000D01*
Y2515000D02*
Y2765000D01*
X1670000Y13657500D02*
Y13917500D01*
X1550000D02*
X1670000D01*
X1550000Y13657500D02*
Y13917500D01*
Y13657500D02*
X1670000D01*
X8217500Y8810001D02*
Y8930000D01*
X8477500D01*
Y8810001D02*
Y8930000D01*
X8217500Y8810001D02*
X8477500D01*
X8102500D02*
Y8930000D01*
X7842500Y8810001D02*
X8102500D01*
X7842500D02*
Y8930000D01*
X8102500D01*
X8217500Y8660000D02*
Y8780000D01*
X8477500D01*
Y8660000D02*
Y8780000D01*
X8217500Y8660000D02*
X8477500D01*
X8102500D02*
Y8780000D01*
X7842500Y8660000D02*
X8102500D01*
X7842500D02*
Y8780000D01*
X8102500D01*
X10320005Y7737500D02*
Y7997500D01*
Y7737500D02*
X10440005D01*
Y7997500D01*
X10320005D02*
X10440005D01*
X11470000Y7737500D02*
Y7997500D01*
Y7737500D02*
X11590000D01*
Y7997500D01*
X11470000D02*
X11590000D01*
X10915000Y7737500D02*
Y7997500D01*
Y7737500D02*
X11035000D01*
Y7997500D01*
X10915000D02*
X11035000D01*
X11832500Y11357500D02*
X11952500D01*
Y11097500D02*
Y11357500D01*
X11832500Y11097500D02*
X11952500D01*
X11832500D02*
Y11357500D01*
X7309880Y5985000D02*
X7409880D01*
X7309880Y5735000D02*
Y5985000D01*
Y5735000D02*
X7409880D01*
Y5985000D01*
X7452619D02*
X7552619D01*
X7452619Y5735000D02*
Y5985000D01*
Y5735000D02*
X7552619D01*
Y5985000D01*
X6197499Y5510000D02*
Y5610000D01*
X6147500Y5560000D02*
X6247500D01*
X4510000Y10110000D02*
Y10210000D01*
Y10110000D02*
X4760000D01*
Y10210000D01*
X4510000D02*
X4760000D01*
X4510000Y10260000D02*
Y10360000D01*
Y10260000D02*
X4760000D01*
Y10360000D01*
X4510000D02*
X4760000D01*
X11335000Y4050000D02*
Y4252500D01*
X11235000Y4050000D02*
X11335000D01*
X11235000D02*
Y4252500D01*
X11335000D01*
X11340000Y4310000D02*
Y4510000D01*
X10980000D02*
X11340000D01*
X10980000Y4310000D02*
Y4510000D01*
Y4310000D02*
X11340000D01*
X11130000Y4410000D02*
X11190000D01*
X11160000Y4380000D02*
Y4440000D01*
X11085000Y4050000D02*
Y4252500D01*
X10985000Y4050000D02*
X11085000D01*
X10985000D02*
Y4252500D01*
X11085000D01*
D172*
X11299014Y6385000D02*
G03*
X11299014Y6385000I-9014J0D01*
G01*
Y6005000D02*
G03*
X11299014Y6005000I-9014J0D01*
G01*
Y5635000D02*
G03*
X11299014Y5635000I-9014J0D01*
G01*
X7010000Y12515000D02*
G03*
X7010000Y12515000I-20000J0D01*
G01*
X3492499Y8712500D02*
G03*
X3492499Y8712500I-20000J0D01*
G01*
X13047699Y11197502D02*
G03*
X13047699Y11197502I-12700J0D01*
G01*
X11876641Y14570000D02*
G03*
X11876641Y14570000I-14142J0D01*
G01*
X10337497Y12517500D02*
G03*
X10337497Y12517500I-2500J0D01*
G01*
X11915000Y13047501D02*
G03*
X11915000Y13047501I-2500J0D01*
G01*
X12705000Y12582500D02*
G03*
X12705000Y12582500I-2500J0D01*
G01*
X11629014Y7015000D02*
G03*
X11629014Y7015000I-9014J0D01*
G01*
X11299014Y6785000D02*
G03*
X11299014Y6785000I-9014J0D01*
G01*
Y5235000D02*
G03*
X11299014Y5235000I-9014J0D01*
G01*
X4214014Y8510000D02*
G03*
X4214014Y8510000I-9014J0D01*
G01*
X12329014Y4235000D02*
G03*
X12329014Y4235000I-9014J0D01*
G01*
Y3735000D02*
G03*
X12329014Y3735000I-9014J0D01*
G01*
X13306514Y5945000D02*
G03*
X13306514Y5945000I-9014J0D01*
G01*
X11869014Y3735000D02*
G03*
X11869014Y3735000I-9014J0D01*
G01*
X7409014Y6835000D02*
G03*
X7409014Y6835000I-9014J0D01*
G01*
X7679014Y6595000D02*
G03*
X7679014Y6595000I-9014J0D01*
G01*
X8785000Y7315000D02*
G03*
X8785000Y7315000I-25000J0D01*
G01*
X3522500Y7025000D02*
G03*
X3522500Y7025000I-25000J0D01*
G01*
X3137498Y6310000D02*
G03*
X3137498Y6310000I-25000J0D01*
G01*
X2937498Y6060000D02*
G03*
X2937498Y6060000I-25000J0D01*
G01*
Y5250000D02*
G03*
X2937498Y5250000I-25000J0D01*
G01*
X12825562Y7503000D02*
G03*
X12825562Y7503000I-17961J0D01*
G01*
X7014014Y14350000D02*
G03*
X7014014Y14350000I-9014J0D01*
G01*
X12046514Y14732500D02*
G03*
X12046514Y14732500I-9014J0D01*
G01*
X12745000Y11495004D02*
G03*
X12745000Y11495004I-15000J0D01*
G01*
X12395000D02*
G03*
X12395000Y11495004I-15000J0D01*
G01*
X11855600Y11890900D02*
G03*
X11855600Y11890900I-12700J0D01*
G01*
X13289360Y3807500D02*
G03*
X13289360Y3807500I-21360J0D01*
G01*
X7744960Y8637600D02*
G03*
X7744960Y8637600I-17961J0D01*
G01*
X12962360Y6920000D02*
G03*
X12962360Y6920000I-22361J0D01*
G01*
X2912497Y4560000D02*
G03*
X2912497Y4560000I-25000J0D01*
G01*
X2887498Y10357502D02*
G03*
X2887498Y10357502I-25000J0D01*
G01*
X8434998Y9909996D02*
X9009998D01*
Y10310000D01*
X8434998D02*
X9009998D01*
X8434998Y9909996D02*
Y10310000D01*
X9159998Y10729998D02*
X9760002D01*
Y10080002D02*
Y10729998D01*
X9159998Y10080002D02*
X9760002D01*
X9159998D02*
Y10729998D01*
X8434998Y10499998D02*
X9009998D01*
Y10900002D01*
X8434998D02*
X9009998D01*
X8434998Y10499998D02*
Y10900002D01*
X8685000Y7640000D02*
X9435000D01*
X8685000Y7239999D02*
Y7640000D01*
X9435000Y7239999D02*
Y7640000D01*
X8685000Y7239999D02*
X9435000D01*
X3547500Y6975000D02*
Y7550000D01*
X3247500D02*
X3547500D01*
X3247500Y6975000D02*
Y7550000D01*
Y6975000D02*
X3547500D01*
X2862498Y6260000D02*
X3162498D01*
X2862498D02*
Y6835000D01*
X3162498D01*
Y6260000D02*
Y6835000D01*
X2862498Y5535000D02*
Y6110000D01*
Y5535000D02*
X3162498D01*
Y6110000D01*
X2862498D02*
X3162498D01*
X2862498Y5300000D02*
X3162498D01*
Y4725000D02*
Y5300000D01*
X2862498Y4725000D02*
X3162498D01*
X2862498D02*
Y5300000D01*
X3212500Y3535002D02*
Y4635000D01*
X2812496Y3535002D02*
X3212500D01*
X2812496D02*
Y4635000D01*
X3212500D01*
D311*
X10637499Y6214999D02*
Y6485001D01*
X10962502Y6214999D02*
Y6485001D01*
X10637499Y6214999D02*
X10962502D01*
X10637499Y6485001D02*
X10962502D01*
X7550000Y12129999D02*
Y12649998D01*
X8069999Y12129999D02*
Y12649998D01*
X7550000D02*
X8069999D01*
X7550000Y12129999D02*
X8069999D01*
X6034999Y5425000D02*
X6359999D01*
X6034999Y5695000D02*
X6359999D01*
X6034999Y5425000D02*
Y5695000D01*
X6359999Y5425000D02*
Y5695000D01*
%TF.MD5,602aace59b6477a02df9c4d3365cec3a*%
M02*
