G04 Layer_Color=8388736*
%FSLAX45Y45*%
%MOMM*%
%TF.FileFunction,Other,Mechanical_14*%
%TF.Part,Single*%
G01*
G75*
%TA.AperFunction,NonConductor*%
%ADD157C,0.10000*%
%ADD158C,0.20000*%
D157*
X515000Y7365000D02*
G03*
X515000Y7365000I-50000J0D01*
G01*
X4335000Y7155000D02*
G03*
X4335000Y7155000I-50000J0D01*
G01*
X-1330000Y1060000D02*
G03*
X-1330000Y1060000I-50000J0D01*
G01*
X6160000Y660001D02*
X6239999D01*
X6160000D02*
Y820000D01*
X6239999D01*
Y660001D02*
Y820000D01*
X5370001Y910002D02*
Y990002D01*
X5530001D01*
Y910002D02*
Y990002D01*
X5370001Y910002D02*
X5530001D01*
X-15001Y3990001D02*
Y4170001D01*
X295000Y3990001D02*
Y4170001D01*
X-15001D02*
X295000D01*
X-15001Y3990001D02*
X295000D01*
X5549999Y9150000D02*
X5629999D01*
X5549999D02*
Y9310000D01*
X5629999D01*
Y9150000D02*
Y9310000D01*
X1699998Y5190002D02*
Y5790000D01*
Y5190002D02*
X2300002D01*
Y5790000D01*
X1699998D02*
X2300002D01*
X3272500Y1550002D02*
X3407501D01*
X3272500Y1329997D02*
X3407501D01*
Y1550002D01*
X3272500Y1329997D02*
Y1550002D01*
X5410000Y2874998D02*
X5590000D01*
X5410000Y2565001D02*
X5590000D01*
Y2874998D01*
X5410000Y2565001D02*
Y2874998D01*
X145002Y7275000D02*
X554998D01*
X145002Y7685002D02*
X554998D01*
Y7275000D02*
Y7685002D01*
X145002Y7275000D02*
Y7685002D01*
X-1470000Y970000D02*
Y1969998D01*
X-1070000Y970000D02*
Y1969998D01*
X-1470000Y970000D02*
X-1070000D01*
X-1470000Y1969998D02*
X-1070000D01*
D158*
X1045001Y5039996D02*
Y5360000D01*
X1495003D01*
Y5039996D02*
Y5360000D01*
X1045001Y5039996D02*
X1495003D01*
X1045001Y5629997D02*
Y5950002D01*
X1495003D01*
Y5629997D02*
Y5950002D01*
X1045001Y5629997D02*
X1495003D01*
X3690000Y7050000D02*
X4325000D01*
X4390000Y7115000D01*
Y7750000D01*
X3690000Y7050000D02*
Y7750000D01*
X4390000D01*
%TF.MD5,7af31263e934884405d83dda183f60a9*%
M02*
