G04 Layer_Color=128*
%FSLAX45Y45*%
%MOMM*%
%TF.FileFunction,Paste,Bot*%
%TF.Part,Single*%
G01*
G75*
%TA.AperFunction,SMDPad,CuDef*%
%ADD13R,0.75000X0.75000*%
%ADD20R,0.45000X0.45000*%
%ADD22R,0.75000X1.30000*%
%ADD23R,3.70000X2.70000*%
%ADD26R,1.40000X0.90000*%
%ADD28R,0.75000X0.75000*%
%ADD29R,0.45000X0.90000*%
%ADD34R,0.90000X0.50000*%
%ADD35R,0.70000X0.70000*%
%ADD40R,0.90000X0.45000*%
%ADD41R,1.93200X1.42400*%
%ADD42R,0.90000X0.90000*%
%ADD43R,0.80000X3.70000*%
%ADD44R,1.14460X3.07500*%
%ADD45R,3.65000X1.90000*%
%ADD46R,0.70000X0.40000*%
%ADD47R,0.90000X1.70000*%
%ADD48O,2.10000X0.50000*%
%ADD49O,0.20000X1.80000*%
%ADD50O,1.80000X0.20000*%
%ADD51R,0.70000X0.95000*%
%ADD52R,0.90000X0.90000*%
%ADD53O,0.60000X0.15000*%
%ADD54O,0.15000X0.60000*%
%ADD55R,0.75000X0.30000*%
%ADD56R,2.70000X0.80000*%
%ADD57R,1.95000X2.80000*%
%ADD58R,0.60000X0.85000*%
%ADD59R,0.85000X0.60000*%
%ADD60R,1.90000X3.50000*%
%ADD61R,5.60000X1.70000*%
%ADD62R,1.40000X3.90000*%
%ADD63R,0.70000X0.70000*%
%ADD64R,2.64300X2.05900*%
%ADD65R,1.42400X1.93200*%
%ADD66R,1.42400X0.91600*%
%ADD67R,0.91600X1.42400*%
%ADD68R,4.40000X1.90000*%
%ADD69R,1.30000X0.75000*%
%ADD70R,0.50000X0.90000*%
%ADD71R,2.00000X2.20000*%
%ADD72R,0.55000X0.55000*%
%ADD73R,0.60000X0.40000*%
%ADD74R,0.50000X1.40000*%
D13*
X-2052504Y-1150000D02*
D03*
X-1897504D02*
D03*
Y-1000000D02*
D03*
X-2052504D02*
D03*
X-2712503D02*
D03*
X-2557503D02*
D03*
Y-1150000D02*
D03*
X-2712503D02*
D03*
X-75119Y2430000D02*
D03*
X-230119D02*
D03*
X6185000Y3850000D02*
D03*
X6340000D02*
D03*
X600000Y6940000D02*
D03*
X445000D02*
D03*
X545000Y5655001D02*
D03*
X390000D02*
D03*
X545000Y5335000D02*
D03*
X390000D02*
D03*
X-4695000Y3840000D02*
D03*
X-4540000D02*
D03*
X7205000Y3850000D02*
D03*
X7050000D02*
D03*
X5400000Y4170000D02*
D03*
X5245000D02*
D03*
X2995000Y1440000D02*
D03*
X2840000D02*
D03*
X2630000Y3260000D02*
D03*
X2475000D02*
D03*
X3720000Y2220000D02*
D03*
X3875000D02*
D03*
X3520000D02*
D03*
X3365000D02*
D03*
X175000Y3310000D02*
D03*
X330000D02*
D03*
X-560000Y1620000D02*
D03*
X-715000D02*
D03*
X5025000Y7830000D02*
D03*
X5180000D02*
D03*
X2645000Y5690000D02*
D03*
X2800000D02*
D03*
X850000Y5655001D02*
D03*
X695000D02*
D03*
X2800000Y5240000D02*
D03*
X2645000D02*
D03*
X695000Y5335000D02*
D03*
X850000D02*
D03*
X5740000Y4172620D02*
D03*
X5585000D02*
D03*
X197510Y5335000D02*
D03*
X42510D02*
D03*
X197510Y5655001D02*
D03*
X42510D02*
D03*
X-5837500Y9320000D02*
D03*
X-5682500D02*
D03*
X-5685000Y9170000D02*
D03*
X-5840000D02*
D03*
X-4465000Y10120001D02*
D03*
X-4310000D02*
D03*
Y9970001D02*
D03*
X-4465000D02*
D03*
X4750000Y9497500D02*
D03*
X4595000D02*
D03*
X5025000Y7460000D02*
D03*
X5180000D02*
D03*
X5025000Y7270000D02*
D03*
X5180000D02*
D03*
X2912501Y7170000D02*
D03*
X3067501D02*
D03*
X2912501Y7030000D02*
D03*
X3067501D02*
D03*
X2095000Y8210000D02*
D03*
X2250000D02*
D03*
X2620000D02*
D03*
X2465000D02*
D03*
Y8390000D02*
D03*
X2620000D02*
D03*
X2250000D02*
D03*
X2095000D02*
D03*
X2250000Y8020000D02*
D03*
X2095000D02*
D03*
X2620000Y7830000D02*
D03*
X2465000D02*
D03*
Y8020000D02*
D03*
X2620000D02*
D03*
X2095000Y7830000D02*
D03*
X2250000D02*
D03*
X2465000Y7650000D02*
D03*
X2620000D02*
D03*
X2250000D02*
D03*
X2095000D02*
D03*
Y7460000D02*
D03*
X2250000D02*
D03*
X2620000D02*
D03*
X2465000D02*
D03*
Y7280000D02*
D03*
X2620000D02*
D03*
Y7090000D02*
D03*
X2465000D02*
D03*
X2250000Y7280000D02*
D03*
X2095000D02*
D03*
Y7090000D02*
D03*
X2250000D02*
D03*
Y6900000D02*
D03*
X2095000D02*
D03*
X2465000D02*
D03*
X2620000D02*
D03*
Y6720000D02*
D03*
X2465000D02*
D03*
X2095000D02*
D03*
X2250000D02*
D03*
Y6530000D02*
D03*
X2095000D02*
D03*
X2465000D02*
D03*
X2620000D02*
D03*
Y6350000D02*
D03*
X2465000D02*
D03*
X2095000D02*
D03*
X2250000D02*
D03*
X1364997Y7295000D02*
D03*
X1209997D02*
D03*
Y7495004D02*
D03*
X1364997D02*
D03*
X100000Y8200000D02*
D03*
X255000D02*
D03*
X545000D02*
D03*
X700000D02*
D03*
X5097502Y5995008D02*
D03*
X4942502D02*
D03*
X4092502Y5995008D02*
D03*
X3937502D02*
D03*
X4595002Y5995009D02*
D03*
X4440002D02*
D03*
X310000Y6940000D02*
D03*
X155000D02*
D03*
X-2970000Y4950000D02*
D03*
X-3125000D02*
D03*
X-3120000Y5100000D02*
D03*
X-2965000D02*
D03*
X810000Y4200000D02*
D03*
X965000D02*
D03*
X590000D02*
D03*
X435000D02*
D03*
X810000Y3970000D02*
D03*
X965000D02*
D03*
X175000Y3120000D02*
D03*
X330000D02*
D03*
X180000Y2970000D02*
D03*
X335000D02*
D03*
X590000Y3970000D02*
D03*
X435000D02*
D03*
X-1825000Y1720000D02*
D03*
X-1980000D02*
D03*
Y1870000D02*
D03*
X-1825000D02*
D03*
X-1980000Y1300000D02*
D03*
X-1825000D02*
D03*
X-3885000Y2980000D02*
D03*
X-3730000D02*
D03*
X-715000Y970000D02*
D03*
X-560000D02*
D03*
X-710000Y820000D02*
D03*
X-555000D02*
D03*
X7045000Y3660000D02*
D03*
X7200000D02*
D03*
X6340000D02*
D03*
X6185000D02*
D03*
X5245000Y4010000D02*
D03*
X5400000D02*
D03*
X5585000Y4007380D02*
D03*
X5740000D02*
D03*
X1235000Y1810000D02*
D03*
X1390000D02*
D03*
Y1660000D02*
D03*
X1235000D02*
D03*
Y1490000D02*
D03*
X1390000D02*
D03*
Y1330000D02*
D03*
X1235000D02*
D03*
Y1160000D02*
D03*
X1390000D02*
D03*
Y990000D02*
D03*
X1235000D02*
D03*
X1390000Y660000D02*
D03*
X1235000D02*
D03*
Y830000D02*
D03*
X1390000D02*
D03*
X1235000Y490000D02*
D03*
X1390000D02*
D03*
Y340000D02*
D03*
X1235000D02*
D03*
Y160000D02*
D03*
X1390000D02*
D03*
Y-10000D02*
D03*
X1235000D02*
D03*
X1390000Y-160000D02*
D03*
X1235000D02*
D03*
Y-340000D02*
D03*
X1390000D02*
D03*
Y-510000D02*
D03*
X1235000D02*
D03*
Y-660000D02*
D03*
X1390000D02*
D03*
X-1340000Y860000D02*
D03*
X-1185000D02*
D03*
X5000000Y1150000D02*
D03*
X4845000D02*
D03*
Y1300000D02*
D03*
X5000000D02*
D03*
X5990000Y1807379D02*
D03*
X5835000D02*
D03*
X5535000Y800000D02*
D03*
X5380000D02*
D03*
X5900000D02*
D03*
X5745000D02*
D03*
Y680000D02*
D03*
X5900000D02*
D03*
X5550000Y1130000D02*
D03*
X5395000D02*
D03*
X6140000Y-410000D02*
D03*
X6295000D02*
D03*
Y-550000D02*
D03*
X6140000D02*
D03*
X6295000Y-690000D02*
D03*
X6140000D02*
D03*
Y-840000D02*
D03*
X6295000D02*
D03*
X6140000Y-980000D02*
D03*
X6295000D02*
D03*
X6140000Y-1130000D02*
D03*
X6295000D02*
D03*
X6140000Y-1270000D02*
D03*
X6295000D02*
D03*
Y-1420000D02*
D03*
X6140000D02*
D03*
X6295000Y-1560000D02*
D03*
X6140000D02*
D03*
X6295000Y-1700000D02*
D03*
X6140000D02*
D03*
X6295000Y-1850000D02*
D03*
X6140000D02*
D03*
X-1680000Y7410000D02*
D03*
X-1525000D02*
D03*
Y7740000D02*
D03*
X-1680000D02*
D03*
D20*
X3820000Y-826840D02*
D03*
Y-710000D02*
D03*
X3570000D02*
D03*
Y-826840D02*
D03*
D22*
X-1842500Y2320000D02*
D03*
X-2017500D02*
D03*
Y2070000D02*
D03*
X-1842500D02*
D03*
X-542500Y1420000D02*
D03*
X-717500D02*
D03*
Y1170000D02*
D03*
X-542500D02*
D03*
D23*
X-1930000Y4709500D02*
D03*
Y4030500D02*
D03*
X-470000Y7819500D02*
D03*
Y7140500D02*
D03*
X-630000Y3534501D02*
D03*
Y2855501D02*
D03*
Y4704500D02*
D03*
Y4025500D02*
D03*
X-1930000Y3539500D02*
D03*
Y2860500D02*
D03*
D26*
X5765000Y1035000D02*
D03*
Y1225002D02*
D03*
D28*
X4540000Y-715000D02*
D03*
Y-560000D02*
D03*
X4980000Y1995000D02*
D03*
Y2150000D02*
D03*
X3570000Y2040000D02*
D03*
Y1885000D02*
D03*
X3370000Y2040000D02*
D03*
Y1885000D02*
D03*
X2850000Y-2075000D02*
D03*
Y-2230000D02*
D03*
X2250000Y-2075000D02*
D03*
Y-2230000D02*
D03*
X2750000Y-1655000D02*
D03*
Y-1810000D02*
D03*
X2910000Y-1655000D02*
D03*
Y-1810000D02*
D03*
X2430000Y-1655000D02*
D03*
Y-1810000D02*
D03*
X5745476Y-1515000D02*
D03*
Y-1360000D02*
D03*
X4030000Y-1020000D02*
D03*
Y-1175000D02*
D03*
X-5650000Y8955000D02*
D03*
Y8800000D02*
D03*
X-5450000Y8955000D02*
D03*
Y8800000D02*
D03*
X-5250000Y8955000D02*
D03*
Y8800000D02*
D03*
X-5050000Y8955000D02*
D03*
Y8800000D02*
D03*
X4912620Y55000D02*
D03*
Y-100000D02*
D03*
X-230000Y2120000D02*
D03*
Y1965000D02*
D03*
X4400000Y-710000D02*
D03*
Y-555000D02*
D03*
X3880000Y2780000D02*
D03*
Y2625000D02*
D03*
X4980000Y1670000D02*
D03*
Y1515000D02*
D03*
X4830000Y2150000D02*
D03*
Y1995000D02*
D03*
X5170000Y2150000D02*
D03*
Y1995000D02*
D03*
X2590000Y-1655000D02*
D03*
Y-1810000D02*
D03*
X2420000Y-2075000D02*
D03*
Y-2230000D02*
D03*
X2620000D02*
D03*
Y-2075000D02*
D03*
X-2950000Y3275000D02*
D03*
Y3430000D02*
D03*
X-1900000Y-865000D02*
D03*
Y-710000D02*
D03*
X5760000Y9830000D02*
D03*
Y9675000D02*
D03*
X5610000Y9825000D02*
D03*
Y9670000D02*
D03*
X5910000Y9672500D02*
D03*
Y9827500D02*
D03*
X-650000Y9380000D02*
D03*
Y9225000D02*
D03*
X3142500Y440000D02*
D03*
Y595000D02*
D03*
X3322500Y440000D02*
D03*
Y595000D02*
D03*
X3140000Y2040000D02*
D03*
Y1885000D02*
D03*
X3090000Y-25000D02*
D03*
Y-180000D02*
D03*
X2920000Y2040000D02*
D03*
Y1885000D02*
D03*
X2910000Y-25000D02*
D03*
Y-180000D02*
D03*
X2720000Y2040000D02*
D03*
Y1885000D02*
D03*
X2730000Y-25000D02*
D03*
Y-180000D02*
D03*
X2490000Y2040000D02*
D03*
Y1885000D02*
D03*
X2550000Y-25000D02*
D03*
Y-180000D02*
D03*
X2010000Y1225000D02*
D03*
Y1070000D02*
D03*
X2270000Y1885000D02*
D03*
Y2040000D02*
D03*
X1830000Y1070000D02*
D03*
Y1225000D02*
D03*
X2070000Y1885000D02*
D03*
Y2040000D02*
D03*
X1650000Y1070000D02*
D03*
Y1225000D02*
D03*
X4270000Y320000D02*
D03*
Y475000D02*
D03*
Y720000D02*
D03*
Y875000D02*
D03*
Y1275000D02*
D03*
Y1120000D02*
D03*
Y1675000D02*
D03*
Y1520000D02*
D03*
X4600000Y2400000D02*
D03*
Y2245000D02*
D03*
X5530000Y380000D02*
D03*
Y535000D02*
D03*
X3700000Y2785000D02*
D03*
Y2630000D02*
D03*
X3790000Y-2082500D02*
D03*
Y-2237500D02*
D03*
X3920000Y8319998D02*
D03*
Y8164998D02*
D03*
X-3730000Y3350000D02*
D03*
Y3195000D02*
D03*
X5060000Y-2225000D02*
D03*
Y-2070000D02*
D03*
X3650000Y-1760000D02*
D03*
Y-1915000D02*
D03*
X3800000D02*
D03*
Y-1760000D02*
D03*
X3360000D02*
D03*
Y-1915000D02*
D03*
Y-1395000D02*
D03*
Y-1550000D02*
D03*
X3220000D02*
D03*
Y-1395000D02*
D03*
X3940000Y-1915000D02*
D03*
Y-1760000D02*
D03*
X4090000D02*
D03*
Y-1915000D02*
D03*
X4790000Y-2225000D02*
D03*
Y-2070000D02*
D03*
X4925000D02*
D03*
Y-2225000D02*
D03*
X4240000Y-1910000D02*
D03*
Y-1755000D02*
D03*
X4380000D02*
D03*
Y-1910000D02*
D03*
X3500000D02*
D03*
Y-1755000D02*
D03*
X3800000Y-1555000D02*
D03*
Y-1400000D02*
D03*
X3650000D02*
D03*
Y-1555000D02*
D03*
X3500000D02*
D03*
Y-1400000D02*
D03*
X4240000D02*
D03*
Y-1555000D02*
D03*
X4090000D02*
D03*
Y-1400000D02*
D03*
X3940000D02*
D03*
Y-1555000D02*
D03*
X-6260000Y9960000D02*
D03*
Y10115000D02*
D03*
X-6110000Y9960000D02*
D03*
Y10115000D02*
D03*
X-5840000Y9960000D02*
D03*
Y10115000D02*
D03*
X-6260000Y9770000D02*
D03*
Y9615000D02*
D03*
X-6110000Y9770000D02*
D03*
Y9615000D02*
D03*
X-5970000Y9770000D02*
D03*
Y9615000D02*
D03*
X2920005Y2880000D02*
D03*
Y3035000D02*
D03*
X3280000Y2625000D02*
D03*
Y2780000D02*
D03*
X3130000Y2630000D02*
D03*
Y2785000D02*
D03*
X-5840000Y9770000D02*
D03*
Y9615000D02*
D03*
X-5970000Y9960000D02*
D03*
Y10115000D02*
D03*
X-5850000Y8955000D02*
D03*
Y8800000D02*
D03*
X-4850000D02*
D03*
Y8955000D02*
D03*
X4510000Y6875000D02*
D03*
Y7030000D02*
D03*
X4040000Y9250000D02*
D03*
Y9405000D02*
D03*
X4190000D02*
D03*
Y9250000D02*
D03*
X6900000Y8440000D02*
D03*
Y8595000D02*
D03*
X4000000Y6240000D02*
D03*
Y6395000D02*
D03*
X4290000Y6240000D02*
D03*
Y6395000D02*
D03*
X4145000D02*
D03*
Y6240000D02*
D03*
X2640000Y5550000D02*
D03*
Y5395000D02*
D03*
X2500000Y5395000D02*
D03*
Y5550000D02*
D03*
X-1680000Y2325000D02*
D03*
Y2170000D02*
D03*
X-1830000Y1415000D02*
D03*
Y1570000D02*
D03*
X-100000Y650000D02*
D03*
Y495000D02*
D03*
X-380000Y650000D02*
D03*
Y495000D02*
D03*
X-670000Y650000D02*
D03*
Y495000D02*
D03*
X-950000D02*
D03*
Y650000D02*
D03*
X40000Y495000D02*
D03*
Y650000D02*
D03*
X-810000D02*
D03*
Y495000D02*
D03*
X-530000D02*
D03*
Y650000D02*
D03*
X-240000Y495000D02*
D03*
Y650000D02*
D03*
X560000Y1622500D02*
D03*
Y1467500D02*
D03*
X410000Y1470000D02*
D03*
Y1625000D02*
D03*
X397380Y2112500D02*
D03*
Y1957500D02*
D03*
X4260000Y3370000D02*
D03*
Y3525000D02*
D03*
X4070000Y2880000D02*
D03*
Y3035000D02*
D03*
X3515000Y2880000D02*
D03*
Y3035000D02*
D03*
X4450000Y2625000D02*
D03*
Y2780000D02*
D03*
X4300000Y2630000D02*
D03*
Y2785000D02*
D03*
X5980000Y2002500D02*
D03*
Y2157500D02*
D03*
X5830000D02*
D03*
Y2002500D02*
D03*
X6050000Y820000D02*
D03*
Y665000D02*
D03*
X5740000Y535000D02*
D03*
Y380000D02*
D03*
X5889999Y-1517500D02*
D03*
Y-1362500D02*
D03*
X5230000Y-880000D02*
D03*
Y-725000D02*
D03*
X5588334Y-1515000D02*
D03*
Y-1360000D02*
D03*
X5431191D02*
D03*
Y-1515000D02*
D03*
X5274048Y-1360000D02*
D03*
Y-1515000D02*
D03*
X5134285Y-1517500D02*
D03*
Y-1362500D02*
D03*
X4999763Y-1515000D02*
D03*
Y-1360000D02*
D03*
X4860000Y-1362500D02*
D03*
Y-1517500D02*
D03*
X4380000Y-1555000D02*
D03*
Y-1400000D02*
D03*
X4182502Y-1020000D02*
D03*
Y-1175000D02*
D03*
X4432500Y6395000D02*
D03*
Y6240000D02*
D03*
D29*
X-2497504Y-835000D02*
D03*
X-2687504D02*
D03*
X-2597503Y-577500D02*
D03*
X4784998Y9645002D02*
D03*
Y9914998D02*
D03*
X4595001D02*
D03*
X4690002D02*
D03*
X4595001Y9645002D02*
D03*
X-355000Y9177500D02*
D03*
X-264999Y9435000D02*
D03*
X-455000D02*
D03*
X-3355000Y3862500D02*
D03*
X-3445000Y3605000D02*
D03*
X-3255000D02*
D03*
D34*
X5379998Y2625001D02*
D03*
Y2720002D02*
D03*
Y2814998D02*
D03*
X5620002D02*
D03*
Y2720002D02*
D03*
Y2625001D02*
D03*
D35*
X5530001Y950002D02*
D03*
X5370001D02*
D03*
D40*
X3835000Y1875000D02*
D03*
Y2065000D02*
D03*
X4092500Y1975000D02*
D03*
X4405000Y-1175000D02*
D03*
Y-985000D02*
D03*
X4662500Y-1075000D02*
D03*
X4092500Y825000D02*
D03*
X3835000Y915000D02*
D03*
Y725000D02*
D03*
Y1095000D02*
D03*
Y1285000D02*
D03*
X4092500Y1195000D02*
D03*
Y1575000D02*
D03*
X3835000Y1665000D02*
D03*
Y1475000D02*
D03*
X4422500Y2205000D02*
D03*
X4165000Y2295000D02*
D03*
Y2105000D02*
D03*
X205000Y1685000D02*
D03*
Y1495000D02*
D03*
X-52500Y1585000D02*
D03*
X202500Y2025000D02*
D03*
X-55000Y2115000D02*
D03*
Y1925000D02*
D03*
X3835000Y325000D02*
D03*
Y515000D02*
D03*
X4092500Y425000D02*
D03*
X5122500Y-1075000D02*
D03*
X4865000Y-985000D02*
D03*
Y-1175000D02*
D03*
Y-675000D02*
D03*
Y-485000D02*
D03*
X5122500Y-575000D02*
D03*
D41*
X2020000Y-1449700D02*
D03*
Y-1170300D02*
D03*
X2300000Y-1449400D02*
D03*
Y-1170000D02*
D03*
X750000Y9499700D02*
D03*
Y9220300D02*
D03*
X-10000D02*
D03*
Y9499700D02*
D03*
X250000D02*
D03*
Y9220300D02*
D03*
X3830000Y9240300D02*
D03*
Y9519700D02*
D03*
X4380000D02*
D03*
Y9240300D02*
D03*
X5340000Y9090300D02*
D03*
Y9369700D02*
D03*
X3597500Y6624700D02*
D03*
Y6345300D02*
D03*
D42*
X-220001Y5601999D02*
D03*
Y5838000D02*
D03*
X-219998Y5388002D02*
D03*
Y5152000D02*
D03*
X274999Y7555000D02*
D03*
X425001Y7405002D02*
D03*
D43*
X-4567500Y5617500D02*
D03*
X-4127501D02*
D03*
X-6050000Y2970000D02*
D03*
X-5610001D02*
D03*
X-5459999D02*
D03*
X-5020000D02*
D03*
D44*
X-4806227Y1502500D02*
D03*
X-5443767D02*
D03*
X-2058771Y-310000D02*
D03*
X-1421231D02*
D03*
X1918770Y2530000D02*
D03*
X1281230D02*
D03*
X-4051230Y-2700000D02*
D03*
X-4688770D02*
D03*
D45*
X-4447505Y-399998D02*
D03*
Y-1249999D02*
D03*
D46*
X5610001Y2004998D02*
D03*
Y2095000D02*
D03*
Y2184997D02*
D03*
Y2275000D02*
D03*
X5490001Y2004998D02*
D03*
Y2095000D02*
D03*
Y2184997D02*
D03*
Y2275000D02*
D03*
D47*
X3815001Y-500000D02*
D03*
X3564999D02*
D03*
D48*
X-1030000Y1914499D02*
D03*
Y1787499D02*
D03*
Y1660499D02*
D03*
Y1533499D02*
D03*
Y1406499D02*
D03*
Y1279499D02*
D03*
Y1152499D02*
D03*
Y1025499D02*
D03*
X-1510000Y1914499D02*
D03*
Y1787499D02*
D03*
Y1660499D02*
D03*
Y1533499D02*
D03*
Y1406499D02*
D03*
Y1279499D02*
D03*
Y1152499D02*
D03*
Y1025499D02*
D03*
D49*
X4315000Y6980000D02*
D03*
X4265000D02*
D03*
X4215000D02*
D03*
X4165000D02*
D03*
X4115000D02*
D03*
X4065000D02*
D03*
X4015000D02*
D03*
X3965000D02*
D03*
X3915000D02*
D03*
X3865000D02*
D03*
X3815000D02*
D03*
X3765000D02*
D03*
Y7820000D02*
D03*
X3815000D02*
D03*
X3865000D02*
D03*
X3915000D02*
D03*
X3965000D02*
D03*
X4015000D02*
D03*
X4065000D02*
D03*
X4115000D02*
D03*
X4165000D02*
D03*
X4215000D02*
D03*
X4265000D02*
D03*
X4315000D02*
D03*
D50*
X3620000Y7125000D02*
D03*
Y7175000D02*
D03*
Y7225000D02*
D03*
Y7275000D02*
D03*
Y7325000D02*
D03*
Y7375000D02*
D03*
Y7425000D02*
D03*
Y7475000D02*
D03*
Y7525000D02*
D03*
Y7575000D02*
D03*
Y7625000D02*
D03*
Y7675000D02*
D03*
X4460000D02*
D03*
Y7625000D02*
D03*
Y7575000D02*
D03*
Y7525000D02*
D03*
Y7475000D02*
D03*
Y7425000D02*
D03*
Y7375000D02*
D03*
Y7325000D02*
D03*
Y7275000D02*
D03*
Y7225000D02*
D03*
Y7175000D02*
D03*
Y7125000D02*
D03*
D51*
X4990000Y6372503D02*
D03*
X5054999Y6577501D02*
D03*
X4925002D02*
D03*
X5340000Y6372503D02*
D03*
X5404999Y6577501D02*
D03*
X5275002D02*
D03*
D52*
X274999Y7405002D02*
D03*
X425001Y7555000D02*
D03*
X-3468001Y3437499D02*
D03*
X-3232000D02*
D03*
X-3968001Y2789999D02*
D03*
X-3732000D02*
D03*
X-1911998Y7400002D02*
D03*
X-2148000D02*
D03*
X-2148002Y7920001D02*
D03*
X-1912000D02*
D03*
X-2148002Y7220000D02*
D03*
X-1912000D02*
D03*
X-1911998Y7740002D02*
D03*
X-2148000D02*
D03*
D53*
X550000Y7379999D02*
D03*
Y7430001D02*
D03*
Y7479999D02*
D03*
Y7530001D02*
D03*
Y7579998D02*
D03*
X150000D02*
D03*
Y7530001D02*
D03*
Y7479999D02*
D03*
Y7430001D02*
D03*
Y7379999D02*
D03*
D54*
X450000Y7679998D02*
D03*
X400003D02*
D03*
X350000D02*
D03*
X300003D02*
D03*
X250000D02*
D03*
Y7279999D02*
D03*
X300003D02*
D03*
X350000D02*
D03*
X400003D02*
D03*
X450000D02*
D03*
D55*
X3245002Y1375001D02*
D03*
Y1440000D02*
D03*
Y1504998D02*
D03*
X3434999D02*
D03*
Y1375001D02*
D03*
D56*
X-4447502Y340000D02*
D03*
Y-130000D02*
D03*
Y680000D02*
D03*
Y1150000D02*
D03*
Y1400000D02*
D03*
Y1870000D02*
D03*
X-4062500Y2585000D02*
D03*
Y2115000D02*
D03*
D57*
X5992502Y1135000D02*
D03*
D58*
X4420002Y8179998D02*
D03*
Y8345001D02*
D03*
D59*
X2917499Y7640000D02*
D03*
X3082498D02*
D03*
X5200000D02*
D03*
X5035002D02*
D03*
D60*
X1440001Y5790002D02*
D03*
X1100002D02*
D03*
X1440001Y5200000D02*
D03*
X1100002D02*
D03*
D61*
X2000002Y5259999D02*
D03*
Y5719998D02*
D03*
D62*
X4330000Y9910000D02*
D03*
X3970000D02*
D03*
D63*
X5589999Y9310000D02*
D03*
Y9150000D02*
D03*
X6200000Y820000D02*
D03*
Y660001D02*
D03*
D64*
X3440000Y9145002D02*
D03*
Y9554999D02*
D03*
X4979998Y9404999D02*
D03*
Y8995002D02*
D03*
D65*
X5190300Y-250000D02*
D03*
X5469700D02*
D03*
X839700Y8450000D02*
D03*
X560300D02*
D03*
X209700D02*
D03*
X-69700D02*
D03*
X-4599700Y9520001D02*
D03*
X-4320300D02*
D03*
X429700Y2420000D02*
D03*
X150300D02*
D03*
Y2680000D02*
D03*
X429700D02*
D03*
X5469700Y120000D02*
D03*
X5190300D02*
D03*
X6349700Y-2270000D02*
D03*
X6070300D02*
D03*
D66*
X5390000Y7730000D02*
D03*
Y7526800D02*
D03*
X4165000Y8374998D02*
D03*
Y8171798D02*
D03*
X2770000Y-1430000D02*
D03*
Y-1226800D02*
D03*
X3170000Y-1953200D02*
D03*
Y-1750000D02*
D03*
X3020000Y-1230000D02*
D03*
Y-1433200D02*
D03*
X2520000D02*
D03*
Y-1230000D02*
D03*
X500000Y9383200D02*
D03*
Y9180000D02*
D03*
D67*
X5224999Y8080000D02*
D03*
X5021799D02*
D03*
X-4321800Y9770001D02*
D03*
X-4525000D02*
D03*
X3125700Y7400000D02*
D03*
X2922500D02*
D03*
X3123200Y6670000D02*
D03*
X2920000D02*
D03*
X6310000Y-2030000D02*
D03*
X6106800D02*
D03*
D68*
X4092502Y5655009D02*
D03*
X4942502D02*
D03*
D69*
X6650000Y8597500D02*
D03*
Y8422500D02*
D03*
D70*
X235001Y3959998D02*
D03*
X139999D02*
D03*
X44998D02*
D03*
Y4199998D02*
D03*
X139999D02*
D03*
X235001D02*
D03*
D71*
X-4042502Y3632502D02*
D03*
X-4492499D02*
D03*
D72*
X5180002Y1835001D02*
D03*
Y1624999D02*
D03*
D73*
X5605000Y1829999D02*
D03*
X5494998D02*
D03*
D74*
X5536501Y-540002D02*
D03*
X5409501D02*
D03*
Y-1080001D02*
D03*
X5663501D02*
D03*
X5536501D02*
D03*
X5790501Y-540002D02*
D03*
X5663501D02*
D03*
X5790501Y-1080001D02*
D03*
%TF.MD5,4e2c681d3b0a25fa5be7f0d034b50f50*%
M02*
