%TF.GenerationSoftware,Altium Limited,Altium Designer,18.0.12 (696)*%
G04 Layer_Color=16711935*
%FSLAX45Y45*%
%MOMM*%
%TF.FileFunction,Other,Mechanical_13*%
%TF.Part,Single*%
G01*
G75*
%TA.AperFunction,NonConductor*%
%ADD67C,0.15000*%
%ADD172C,0.25400*%
%ADD173C,0.10000*%
%ADD317C,0.07620*%
%ADD318C,0.05080*%
D67*
X4710000Y5210000D02*
Y6710000D01*
X3710000Y5210000D02*
X4710000D01*
X3710000D02*
Y6710000D01*
X4710000D01*
X2010000Y3459999D02*
X3510000D01*
X2010000D02*
Y4459999D01*
X3510000D01*
Y3459999D02*
Y4459999D01*
X12365000Y14825000D02*
X13195000D01*
X12365000Y13995000D02*
Y14825000D01*
Y13995000D02*
X13195000D01*
Y14825000D01*
X5445001Y14564999D02*
Y15395000D01*
X6275000D01*
Y14564999D02*
Y15395000D01*
X5445001Y14564999D02*
X6275000D01*
X9000000Y14565001D02*
Y15395001D01*
X8170000Y14565001D02*
X9000000D01*
X8170000D02*
Y15395001D01*
X9000000D01*
X10550000Y14565001D02*
Y15395001D01*
X9720000Y14565001D02*
X10550000D01*
X9720000D02*
Y15395001D01*
X10550000D01*
X10715000Y7105000D02*
Y7535000D01*
X10425000Y7105000D02*
X10715000D01*
X10425000D02*
Y7535000D01*
X10715000D01*
X11315000Y7105000D02*
Y7535000D01*
X11025000Y7105000D02*
X11315000D01*
X11025000D02*
Y7535000D01*
X11315000D01*
X11885000Y7105000D02*
Y7535000D01*
X11595000Y7105000D02*
X11885000D01*
X11595000D02*
Y7535000D01*
X11885000D01*
X5600000Y11305000D02*
Y11755000D01*
X5920000D01*
Y11305000D02*
Y11755000D01*
X5600000Y11305000D02*
X5920000D01*
D172*
X6625000Y10045000D02*
Y11075000D01*
X5595000D02*
X6625000D01*
X5595000Y10045000D02*
X6625000D01*
X5595000D02*
Y11075000D01*
X14682500Y13862502D02*
Y15207503D01*
X13337498Y13862502D02*
X14682500D01*
X13337498D02*
Y15207503D01*
X14682500D01*
X12745002Y15694998D02*
X13774998D01*
Y16724998D01*
X12745002Y15694998D02*
Y16724998D01*
X13774998D01*
D173*
X3117520Y16080008D02*
G03*
X3117520Y16080008I-317512J0D01*
G01*
X3060014D02*
G03*
X3060014Y16080008I-260007J0D01*
G01*
X2863508D02*
G03*
X2863508Y16080008I-63500J0D01*
G01*
X3080774Y15760954D02*
G03*
X3119062Y15799242I-280766J319054D01*
G01*
X2480954D02*
G03*
X2519242Y15760954I319054J280766D01*
G01*
Y16399062D02*
G03*
X2480954Y16360774I280766J-319054D01*
G01*
X3119062D02*
G03*
X3080774Y16399062I-319054J-280766D01*
G01*
X7860000Y1417268D02*
X8020000D01*
X7860000D02*
Y1497268D01*
X8020000D01*
Y1417268D02*
Y1497268D01*
X8650000Y2900000D02*
X8750000D01*
X8650000D02*
Y6300000D01*
X12050000D01*
Y2900000D02*
Y6300000D01*
X8750000Y2900000D02*
X12050000D01*
X1050000Y15389999D02*
X3650000D01*
X1050000Y13789999D02*
Y15389999D01*
Y13789999D02*
X3650000D01*
Y15389999D01*
X14510001Y8720001D02*
X14670000D01*
X14510001D02*
Y8800001D01*
X14670000D01*
Y8720001D02*
Y8800001D01*
X14510001Y8529998D02*
X14670001D01*
X14510001D02*
Y8609998D01*
X14670001D01*
Y8529998D02*
Y8609998D01*
X9572501Y15312503D02*
Y15472502D01*
X9492501Y15312503D02*
X9572501D01*
X9492501D02*
Y15472502D01*
X9572501D01*
X7512522Y7689973D02*
Y8489980D01*
X7222524D02*
X7512522D01*
X7222524Y7689973D02*
Y8489980D01*
Y7689973D02*
X7512522D01*
X2595993Y16283990D02*
Y16383997D01*
X2495988Y16283990D02*
X2595993D01*
X2495988D02*
Y16376991D01*
X2502994Y16383997D02*
X2595993D01*
X3003999Y16284010D02*
X3104003D01*
X3003999D02*
Y16384021D01*
X3096998D01*
X3104003Y16284010D02*
Y16377016D01*
X3004014Y15776012D02*
Y15876021D01*
X3104019D01*
Y15783022D02*
Y15876021D01*
X3004014Y15776012D02*
X3097013D01*
X2496014Y15783002D02*
Y15876006D01*
X2503019Y15775996D02*
X2596019D01*
Y15876006D01*
X2496014D02*
X2596019D01*
X2737309Y16089996D02*
X2862724D01*
X2737309Y16070001D02*
X2862724D01*
X2520601Y16397499D02*
X3079401D01*
X3117501Y15800600D02*
Y16359399D01*
X2520601Y15762498D02*
X3079401D01*
X2482501Y15800600D02*
Y16359399D01*
X9140002Y7305000D02*
Y7615002D01*
X8960002Y7305000D02*
Y7615002D01*
Y7305000D02*
X9140002D01*
X8960002Y7615002D02*
X9140002D01*
D317*
X6780006Y16717993D02*
X7780006D01*
X6780006Y15150993D02*
Y16717993D01*
Y15150993D02*
X7780006D01*
Y16717993D01*
X12430006Y15150993D02*
Y16717993D01*
X11430006Y15150993D02*
X12430006D01*
X11430006D02*
Y16717993D01*
X12430006D01*
D318*
X3250002Y16077499D02*
Y16177499D01*
X3200002Y16077499D02*
X3250002D01*
X3200002D02*
Y16177499D01*
X3250002D01*
%TF.MD5,9aed147710431ff285f8afcd46d89cc3*%
M02*
